Lab10/Step.csv

#Digilent WaveForms Oscilloscope Acquisition
#Device Name: Discovery2
#Serial Number: SN:210321A1878C
#Date Time: 2024-04-19 11:21:02.549
#Sample rate: 1.5873e+06Hz
#Samples: 8192
#Trigger: Source: Channel 1 Type: Edge Condition: Rising Level: 0 V Hyst.: Auto HoldOff: 0 s
#Channel 1: Range: 1 V/div Offset: 0 V Sample Mode: Average
#Channel 2: Range: 1 V/div Offset: 9.7 V Sample Mode: Average
#Wavegen Channel 1: Running
#Mode: Simple
#Type: Square
#Frequency: 1 kHz
#Period: 1 ms
#Amplitude: 500 mV
#Offset: 0 V
#Symmetry: 50 %
#Phase: 0 °

Time (s),Channel 1 (V),Channel 2 (V)
-0.00258048,0.3911844557477053,-8.879191911668453
-0.00257985,0.3911844557477053,-8.842396070118097
-0.00257922,0.387467148481399,-8.88287149582349
-0.00257859,0.387467148481399,-8.978540683854499
-0.00257796,0.387467148481399,-9.066850703575351
-0.00257733,0.387467148481399,-9.14780155498617
-0.0025767,0.387467148481399,-9.225072822241916
-0.00257607,0.387467148481399,-9.291305337032622
-0.00257544,0.387467148481399,-9.350178683513217
-0.00257481,0.3837498412150944,-9.39801327752868
-0.00257418,0.3837498412150927,-9.434809119079073
-0.00257355,0.3800325339487864,-9.475284544784493
-0.00257292,0.3800325339487864,-9.497362049714706
-0.00257229,0.3837498412150927,-9.515759970489892
-0.00257166,0.3874671484813956,-9.523119138799968
-0.00257103,0.3800325339487864,-9.526798722955004
-0.0025704,0.3800325339487864,-9.515759970489892
-0.00256977,0.383749841215091,-9.504721218024786
-0.00256914,0.3837498412150927,-9.482643713094557
-0.00256851,0.387467148481399,-9.453207039854242
-0.00256788,0.387467148481399,-9.41273161414885
-0.00256725,0.3837498412150927,-9.368576604288403
-0.00256662,0.3911844557477053,-9.313382841962831
-0.00256599,0.3911844557477053,-9.28026658456751
-0.00256536,0.3837498412150927,-9.210354485621803
-0.00256473,0.3874671484813973,-9.158840307451305
-0.0025641,0.387467148481399,-9.114685297590835
-0.00256347,0.3837498412150927,-9.07788945604044
-0.00256284,0.3837498412150927,-9.026375277869942
-0.00256221,0.387467148481399,-8.982220268009495
-0.00256158,0.3837498412150927,-8.941744842304068
-0.00256095,0.3837498412150927,-8.901269416598677
-0.00256032,0.3837498412150927,-8.85711440673823
-0.00255969,0.3837498412150927,-8.842396070118088
-0.00255906,0.3800325339487864,-8.938065258149049
-0.00255843,0.3800325339487864,-9.026375277869942
-0.0025578,0.3800325339487864,-9.114685297590835
-0.00255717,0.3837498412150927,-9.191956564846617
-0.00255654,0.3837498412150944,-9.269227832102425
-0.00255591,0.387467148481399,-9.328101178582994
-0.00255528,0.387467148481399,-9.379615356753515
-0.00255465,0.3800325339487898,-9.416411198303871
-0.00255402,0.3800325339487864,-9.464245792319371
-0.00255339,0.3837498412150927,-9.486323297249594
-0.00255276,0.387467148481399,-9.512080386334855
-0.00255213,0.387467148481399,-9.519439554644929
-0.0025515,0.3874671484814007,-9.523119138799965
-0.00255087,0.3911844557477053,-9.519439554644929
-0.00255024,0.387467148481399,-9.519439554644929
-0.00254961,0.3837498412150944,-9.501041633869752
-0.00254898,0.3800325339487864,-9.475284544784483
-0.00254835,0.387467148481399,-9.442168287389148
-0.00254772,0.3837498412150944,-9.405372445838792
-0.00254709,0.3837498412150927,-9.34649909935818
-0.00254646,0.3837498412150944,-9.302344089497712
-0.00254583,0.387467148481399,-9.25450949548225
-0.0025452,0.387467148481399,-9.18827698069158
-0.00254457,0.387467148481399,-9.140442386676117
-0.00254394,0.3837498412150927,-9.088928208505575
-0.00254331,0.3837498412150927,-9.052132366955203
-0.00254268,0.3800325339487881,-9.007977357094775
-0.00254205,0.3837498412150927,-8.963822347234309
-0.00254142,0.3837498412150927,-8.923346921528879
-0.00254079,0.3837498412150927,-8.875512327513416
-0.00254016,0.3800325339487864,-8.835036901808007
-0.00253953,0.3763152266824817,-8.882871495823469
-0.0025389,0.3837498412150927,-8.978540683854458
-0.00253827,0.3837498412150927,-9.077889456040463
-0.00253764,0.3837498412150927,-9.155160723296209
-0.00253701,0.3800325339487864,-9.232431990552026
-0.00253638,0.3837498412150944,-9.294984921187687
-0.00253575,0.387467148481399,-9.357537851823292
-0.00253512,0.3837498412150927,-9.401692861683738
-0.00253449,0.3837498412150927,-9.442168287389162
-0.00253386,0.3837498412150927,-9.475284544784483
-0.00253323,0.387467148481399,-9.501041633869743
-0.0025326,0.387467148481399,-9.515759970489885
-0.00253197,0.3837498412150927,-9.523119138799967
-0.00253134,0.3800325339487881,-9.526798722955
-0.00253071,0.3837498412150927,-9.519439554644929
-0.00253008,0.3837498412150927,-9.508400802179818
-0.00252945,0.387467148481399,-9.482643713094543
-0.00252882,0.387467148481399,-9.453207039854259
-0.00252819,0.3800325339487864,-9.416411198303887
-0.00252756,0.3874671484813956,-9.379615356753531
-0.00252693,0.3837498412150927,-9.317062426117882
-0.0025263,0.3837498412150927,-9.28026658456751
-0.00252567,0.3800325339487864,-9.21403406977684
-0.00252504,0.3800325339487864,-9.162519891606319
-0.00252441,0.3837498412150944,-9.12204446590089
-0.00252378,0.387467148481399,-9.077889456040463
-0.00252315,0.3837498412150927,-9.026375277869942
-0.00252252,0.3874671484813973,-8.98589985216455
-0.00252189,0.3837498412150927,-8.941744842304086
-0.00252126,0.3800325339487864,-8.904949000753714
-0.00252063,0.3837498412150927,-8.864473575048304
-0.00252,0.3837498412150927,-8.849755238428155
-0.00251937,0.387467148481399,-8.945424426459166
-0.00251874,0.387467148481399,-9.037414030335054
-0.00251811,0.3837498412150927,-9.125724050055947
-0.00251748,0.3837498412150927,-9.199315733156658
-0.00251685,0.3800325339487864,-9.276587000412473
-0.00251622,0.3800325339487864,-9.331780762738031
-0.00251559,0.3763152266824817,-9.3906541092186
-0.00251496,0.3800325339487864,-9.427449950768999
-0.00251433,0.383749841215091,-9.467925376474421
-0.0025137,0.3800325339487864,-9.493682465559669
-0.00251307,0.3837498412150927,-9.519439554644929
-0.00251244,0.3800325339487881,-9.526798722955
-0.00251181,0.3837498412150927,-9.537837475420115
-0.00251118,0.387467148481399,-9.530478307110041
-0.00251055,0.3800325339487898,-9.52311913879997
-0.00250992,0.3837498412150927,-9.501041633869743
-0.00250929,0.3911844557477019,-9.478964128939504
-0.00250866,0.3837498412150927,-9.442168287389148
-0.00250803,0.3800325339487864,-9.401692861683738
-0.0025074,0.3763152266824817,-9.342819515203169
-0.00250677,0.3837498412150927,-9.302344089497733
-0.00250614,0.3837498412150927,-9.247150327172175
-0.00250551,0.3837498412150927,-9.180917812381535
-0.00250488,0.3837498412150927,-9.133083218366021
-0.00250425,0.3874671484813956,-9.092607792660594
-0.00250362,0.3800325339487864,-9.052132366955203
-0.00250299,0.387467148481399,-9.011656941249793
-0.00250236,0.3837498412150927,-8.971181515544364
-0.00250173,0.3837498412150927,-8.927026505683937
-0.0025011,0.3837498412150927,-8.88287149582349
-0.00250047,-0.09578279613820279,-8.846075654273134
-0.00249984,-0.4303404501059884,-8.901269416598677
-0.00249921,-0.4377750646386027,-8.996938604629689
-0.00249858,-0.4414923719049073,-9.096287376815649
-0.00249795,-0.437775064638601,-9.169879059916394
-0.00249732,-0.445209679171212,-9.247150327172204
-0.00249669,-0.4414923719049073,-9.309703257807808
-0.00249606,-0.4414923719049073,-9.368576604288403
-0.00249543,-0.4377750646386027,-9.416411198303866
-0.0024948,-0.437775064638601,-9.453207039854259
-0.00249417,-0.437775064638601,-9.482643713094571
-0.00249354,-0.437775064638601,-9.512080386334855
-0.00249291,-0.4340577573722947,-9.526798722955004
-0.00249228,-0.4377750646386027,-9.530478307110041
-0.00249165,-0.4414923719049073,-9.530478307110041
-0.00249102,-0.437775064638601,-9.515759970489892
-0.00249039,-0.4340577573722963,-9.504721218024786
-0.00248976,-0.4340577573722947,-9.482643713094557
-0.00248913,-0.4340577573722947,-9.453207039854259
-0.0024885,-0.437775064638601,-9.416411198303887
-0.00248787,-0.4414923719049073,-9.368576604288403
-0.00248724,-0.4340577573722947,-9.309703257807794
-0.00248661,-0.4340577573722947,-9.28026658456751
-0.00248598,-0.4340577573722947,-9.206674901466766
-0.00248535,-0.4303404501059901,-9.158840307451303
-0.00248472,-0.4303404501059884,-9.114685297590835
-0.00248409,-0.4340577573722947,-9.074209871885426
-0.00248346,-0.437775064638601,-9.026375277869942
-0.00248283,-0.437775064638601,-8.985899852164533
-0.0024822,-0.437775064638601,-8.945424426459109
-0.00248157,-0.437775064638601,-8.912308169063788
-0.00248094,-0.437775064638601,-8.864473575048304
-0.00248031,-0.4414923719049056,-8.820318565187877
-0.00247968,-0.437775064638601,-8.798241060257634
-0.00247905,-0.437775064638601,-8.908628584908751
-0.00247842,-0.4340577573722963,-9.015336525404782
-0.00247779,-0.437775064638601,-9.125724050055947
-0.00247716,-0.4340577573722947,-9.214034069776881
-0.00247653,-0.4340577573722947,-9.302344089497733
-0.0024759,-0.4340577573722947,-9.372256188443441
-0.00247527,-0.4340577573722947,-9.449527455699187
-0.00247464,-0.4340577573722947,-9.50472121802478
-0.00247401,-0.4303404501059884,-9.563594564505376
-0.00247338,-0.434057757372293,-9.604069990210768
-0.00247275,-0.4340577573722947,-9.644545415916195
-0.00247212,-0.4340577573722947,-9.670302505001469
-0.00247149,-0.4340577573722947,-9.699739178241753
-0.00247086,-0.4303404501059884,-9.70341876239679
-0.00247023,-0.4303404501059884,-9.707098346551826
-0.0024696,-0.4303404501059884,-9.699739178241753
-0.00246897,-0.4266231428396821,-9.688700425776641
-0.00246834,-0.4266231428396821,-9.670302505001464
-0.00246771,-0.4266231428396821,-9.640865831761158
-0.00246708,-0.4303404501059884,-9.60406999021076
-0.00246645,-0.4303404501059884,-9.548876227885227
-0.00246582,-0.4303404501059884,-9.482643713094557
-0.00246519,-0.4266231428396821,-9.431129534924015
-0.00246456,-0.4266231428396821,-9.383294940908552
-0.00246393,-0.4303404501059884,-9.339139931048106
-0.0024633,-0.4303404501059884,-9.291305337032643
-0.00246267,-0.4303404501059884,-9.243470743017138
-0.00246204,-0.434057757372293,-9.202995317311705
-0.00246141,-0.4303404501059884,-9.151481139141207
-0.00246078,-0.4266231428396821,-9.114685297590835
-0.00246015,-0.4266231428396855,-9.074209871885438
-0.00245952,-0.4340577573722947,-9.099966960970686
-0.00245889,-0.4340577573722947,-9.217713653931877
-0.00245826,-0.4303404501059901,-9.335460346893015
-0.00245763,-0.4229058355733758,-9.442168287389148
-0.002457,-0.4229058355733758,-9.537837475420115
-0.00245637,-0.4266231428396821,-9.626147495141009
-0.00245574,-0.4266231428396821,-9.699739178241753
-0.00245511,-0.4266231428396821,-9.773330861342524
-0.00245448,-0.4266231428396821,-9.832204207823093
-0.00245385,-0.4229058355733758,-9.887397970148651
-0.00245322,-0.4229058355733758,-9.931552980009078
-0.00245259,-0.4266231428396821,-9.972028405714507
-0.00245196,-0.4266231428396821,-9.986746742334656
-0.00245133,-0.4266231428396821,-10.00514466310984
-0.0024507,-0.4266231428396821,-10.00882424726488
-0.00245007,-0.4266231428396821,-10.01618341557495
-0.00244944,-0.4266231428396821,-10.00514466310984
-0.00244881,-0.4229058355733758,-9.994105910644731
-0.00244818,-0.4229058355733758,-9.964669237404447
-0.00244755,-0.4266231428396821,-9.935232564164135
-0.00244692,-0.4303404501059884,-9.898436722613763
-0.00244629,-0.4266231428396838,-9.824845039513052
-0.00244566,-0.4229058355733758,-9.762292108877386
-0.00244503,-0.4191885283070695,-9.71077793070684
-0.0024444,-0.4191885283070695,-9.655584168381306
-0.00244377,-0.4191885283070695,-9.61142915852086
-0.00244314,-0.4154712210407648,-9.563594564505397
-0.00244251,-0.4191885283070695,-9.523119138799967
-0.00244188,-0.4191885283070695,-9.475284544784483
-0.00244125,-0.4229058355733741,-9.431129534924056
-0.00244062,-0.4229058355733758,-9.383294940908552
-0.00243999,-0.4229058355733775,-9.350178683513265
-0.00243936,-0.4266231428396821,-9.456886624009297
-0.00243873,-0.4191885283070695,-9.57095373281545
-0.0024381,-0.4191885283070695,-9.688700425776588
-0.00243747,-0.4229058355733758,-9.784369613807609
-0.00243684,-0.4266231428396821,-9.887397970148651
-0.00243621,-0.4229058355733775,-9.964669237404397
-0.00243558,-0.4229058355733758,-10.03826092050518
-0.00243495,-0.4191885283070695,-10.09345468283076
-0.00243432,-0.4191885283070695,-10.14864844515629
-0.00243369,-0.4229058355733758,-10.18176470255163
-0.00243306,-0.4229058355733758,-10.22591971241209
-0.00243243,-0.4229058355733758,-10.2479972173423
-0.0024318,-0.4191885283070695,-10.27007472227252
-0.00243117,-0.4229058355733741,-10.28111347473763
-0.00243054,-0.4229058355733758,-10.28479305889267
-0.00242991,-0.4191885283070695,-10.27375430642755
-0.00242928,-0.4191885283070695,-10.25903596980741
-0.00242865,-0.4191885283070695,-10.23327888072215
-0.00242802,-0.4191885283070695,-10.20752179163687
-0.00242739,-0.4191885283070695,-10.16704636593148
-0.00242676,-0.4229058355733758,-10.10449343529585
-0.00242613,-0.4229058355733758,-10.03458133635017
-0.0024255,-0.4191885283070695,-9.975707989869544
-0.00242487,-0.4154712210407632,-9.924193811699
-0.00242424,-0.4154712210407632,-9.872679633528502
-0.00242361,-0.4154712210407632,-9.828524623668056
-0.00242298,-0.4154712210407615,-9.780690029652549
-0.00242235,-0.4117539137744569,-9.729175851482051
-0.00242172,-0.4117539137744569,-9.67766167331153
-0.00242109,-0.4117539137744569,-9.640865831761174
-0.00242046,-0.4154712210407632,-9.593031237745674
-0.00241983,-0.4229058355733758,-9.600390406055748
-0.0024192,-0.4191885283070695,-9.721816683171976
-0.00241857,-0.4191885283070695,-9.83588379197813
-0.00241794,-0.4266231428396821,-9.94259173247425
-0.00241731,-0.4266231428396821,-10.0309017521951
-0.00241668,-0.4229058355733758,-10.12289135607103
-0.00241605,-0.4229058355733758,-10.19648303917174
-0.00241542,-0.4191885283070695,-10.26271555396245
-0.00241479,-0.4191885283070695,-10.31790931628801
-0.00241416,-0.4191885283070695,-10.36942349445853
-0.00241353,-0.4191885283070695,-10.40253975185386
-0.0024129,-0.4154712210407632,-10.43197642509417
-0.00241227,-0.4154712210407632,-10.45037434586935
-0.00241164,-0.4154712210407632,-10.46877226664453
-0.00241101,-0.4154712210407632,-10.47245185079957
-0.00241038,-0.4154712210407632,-10.46877226664453
-0.00240975,-0.4191885283070695,-10.44301517755927
-0.00240912,-0.4154712210407648,-10.42829684093913
-0.00240849,-0.4154712210407632,-10.39150099938875
-0.00240786,-0.4191885283070695,-10.35102557368331
-0.00240723,-0.4191885283070695,-10.29215222720275
-0.0024066,-0.4154712210407632,-10.218560544102
-0.00240597,-0.4154712210407632,-10.15968719762143
-0.00240534,-0.4191885283070695,-10.10817301945088
-0.00240471,-0.4154712210407632,-10.05297925712533
-0.00240408,-0.4229058355733724,-10.00514466310986
-0.00240345,-0.4191885283070695,-9.960989653249396
-0.00240282,-0.4191885283070678,-9.90947547507885
-0.00240219,-0.4154712210407632,-9.854281712753316
-0.00240156,-0.4154712210407632,-9.806447118737832
-0.00240093,-0.4154712210407632,-9.754932940567334
-0.0024003,-0.4191885283070695,-9.725496267327014
-0.00239967,-0.4229058355733758,-9.832204207823093
-0.00239904,-0.4154712210407666,-9.938912148319124
-0.00239841,-0.4191885283070695,-10.05297925712533
-0.00239778,-0.4191885283070695,-10.14128927684626
-0.00239715,-0.4191885283070695,-10.23327888072215
-0.00239652,-0.4191885283070695,-10.30319097966786
-0.00239589,-0.4191885283070695,-10.37678266276862
-0.00239526,-0.4191885283070695,-10.42829684093912
-0.00239463,-0.4191885283070695,-10.47981101910964
-0.002394,-0.4191885283070695,-10.51292727650496
-0.00239337,-0.4154712210407632,-10.54604353390031
-0.00239274,-0.4154712210407632,-10.56076187052047
-0.00239211,-0.4154712210407632,-10.57180062298557
-0.00239148,-0.4154712210407632,-10.57180062298557
-0.00239085,-0.4154712210407632,-10.56444145467549
-0.00239022,-0.4154712210407632,-10.54972311805535
-0.00238959,-0.4117539137744569,-10.5350047814352
-0.00238896,-0.4154712210407615,-10.50188852403988
-0.00238833,-0.4154712210407632,-10.45773351417942
-0.0023877,-0.4117539137744569,-10.40621933600886
-0.00238707,-0.4117539137744569,-10.32526848459808
-0.00238644,-0.4117539137744569,-10.25903596980741
-0.00238581,-0.4117539137744585,-10.20752179163686
-0.00238518,-0.4154712210407632,-10.15232802931133
-0.00238455,-0.4191885283070695,-10.10081385114081
-0.00238392,-0.4154712210407648,-10.05665884128038
-0.00238329,-0.4080366065081505,-10.00514466310984
-0.00238266,-0.4117539137744569,-9.949950900784284
-0.00238203,-0.4117539137744569,-9.9021163067688
-0.0023814,-0.4117539137744569,-9.857961296908353
-0.00238077,-0.4117539137744602,-9.813806287047946
-0.00238014,-0.4191885283070695,-9.898436722613763
-0.00237951,-0.4191885283070695,-9.997785494799768
-0.00237888,-0.4191885283070695,-10.11185260360587
-0.00237825,-0.4117539137744569,-10.20384220748185
-0.00237762,-0.4191885283070695,-10.28847264304771
-0.00237699,-0.4117539137744602,-10.35838474199338
-0.00237636,-0.4154712210407632,-10.42461725678409
-0.00237573,-0.4191885283070678,-10.47245185079959
-0.0023751,-0.4154712210407632,-10.52764561312513
-0.00237447,-0.4154712210407632,-10.56076187052046
-0.00237384,-0.4117539137744585,-10.59019854376075
-0.00237321,-0.4154712210407632,-10.60123729622587
-0.00237258,-0.4154712210407632,-10.61595563284602
-0.00237195,-0.4154712210407632,-10.61595563284602
-0.00237132,-0.4117539137744569,-10.60491688038091
-0.00237069,-0.4117539137744569,-10.58651895960571
-0.00237006,-0.4117539137744569,-10.55708228636543
-0.00236943,-0.4117539137744569,-10.52764561312513
-0.0023688,-0.4080366065081522,-10.4834906032647
-0.00236817,-0.4191885283070695,-10.42461725678409
-0.00236754,-0.4191885283070695,-10.35838474199342
-0.00236691,-0.4154712210407648,-10.29215222720278
-0.00236628,-0.4117539137744569,-10.23327888072215
-0.00236565,-0.4154712210407632,-10.18544428670664
-0.00236502,-0.4154712210407632,-10.13393010853614
-0.00236439,-0.4154712210407632,-10.08241593036562
-0.00236376,-0.4154712210407632,-10.02722216804004
-0.00236313,-0.4154712210407632,-9.975707989869544
-0.0023625,-0.4117539137744569,-9.924193811699023
-0.00236187,-0.4154712210407615,-9.880038801838596
-0.00236124,-0.4191885283070695,-9.832204207823093
-0.00236061,-0.4229058355733741,-9.913155059233958
-0.00235998,-0.4191885283070695,-10.01618341557495
-0.00235935,-0.4154712210407632,-10.12657094022607
-0.00235872,-0.4154712210407648,-10.21120137579197
-0.00235809,-0.4191885283070695,-10.29583181135778
-0.00235746,-0.4154712210407632,-10.35838474199342
-0.00235683,-0.4191885283070678,-10.42829684093909
-0.0023562,-0.4191885283070695,-10.47613143495461
-0.00235557,-0.4191885283070678,-10.52764561312514
-0.00235494,-0.4154712210407632,-10.55708228636543
-0.00235431,-0.4117539137744569,-10.58283937545069
-0.00235368,-0.4117539137744585,-10.59755771207084
-0.00235305,-0.4154712210407632,-10.60491688038091
-0.00235242,-0.4154712210407632,-10.60859646453595
-0.00235179,-0.4117539137744585,-10.59019854376077
-0.00235116,-0.4080366065081505,-10.57180062298557
-0.00235053,-0.4117539137744569,-10.54604353390031
-0.0023499,-0.4154712210407632,-10.50924769234994
-0.00234927,-0.4154712210407632,-10.45773351417942
-0.00234864,-0.4154712210407648,-10.39518058354376
-0.00234801,-0.4191885283070695,-10.33262765290815
-0.00234738,-0.4117539137744569,-10.2774338905826
-0.00234675,-0.4080366065081522,-10.21120137579196
-0.00234612,-0.4154712210407632,-10.16336678177644
-0.00234549,-0.4154712210407632,-10.10817301945088
-0.00234486,-0.4154712210407632,-10.0603384254354
-0.00234423,-0.4191885283070695,-10.00514466310984
-0.0023436,-0.4117539137744569,-9.957310069094339
-0.00234297,-0.4117539137744569,-9.913155059233912
-0.00234234,-0.4154712210407632,-9.869000049373465
-0.00234171,-0.4191885283070678,-9.817485871202967
-0.00234108,-0.4191885283070695,-9.821165455357981
-0.00234045,-0.4191885283070695,-9.931552980009098
-0.00233982,-0.4117539137744602,-10.03458133635009
-0.00233919,-0.4191885283070695,-10.12657094022607
-0.00233856,-0.4229058355733758,-10.21120137579196
