Lab 3/T3-3.980V.csv

X,CH1,CH2,Start,Increment,
Sequence,Volt,Volt,-1.060000e-05,2.000000e-09
0,-1.47e-02,1.75e+01,
1,-1.47e-02,1.77e+01,
2,-1.47e-02,1.77e+01,
3,-1.47e-02,1.75e+01,
4,-1.47e-02,1.75e+01,
5,-1.47e-02,1.77e+01,
6,-1.47e-02,1.75e+01,
7,-1.47e-02,1.75e+01,
8,-1.47e-02,1.75e+01,
9,-1.47e-02,1.75e+01,
10,-1.47e-02,1.75e+01,
11,-1.47e-02,1.75e+01,
12,-1.47e-02,1.75e+01,
13,-1.47e-02,1.73e+01,
14,-1.47e-02,1.73e+01,
15,-1.47e-02,1.73e+01,
16,-1.47e-02,1.73e+01,
17,-1.47e-02,1.75e+01,
18,-1.47e-02,1.73e+01,
19,-1.47e-02,1.73e+01,
20,-1.47e-02,1.71e+01,
21,-1.47e-02,1.71e+01,
22,-1.47e-02,1.71e+01,
23,-1.47e-02,1.71e+01,
24,-1.47e-02,1.71e+01,
25,-1.47e-02,1.71e+01,
26,-1.47e-02,1.71e+01,
27,-1.47e-02,1.71e+01,
28,-1.47e-02,1.69e+01,
29,-1.47e-02,1.69e+01,
30,-1.47e-02,1.69e+01,
31,-1.47e-02,1.69e+01,
32,-1.47e-02,1.67e+01,
33,-1.47e-02,1.69e+01,
34,-1.47e-02,1.69e+01,
35,-1.47e-02,1.69e+01,
36,-1.47e-02,1.67e+01,
37,-1.47e-02,1.67e+01,
38,-1.47e-02,1.67e+01,
39,-1.47e-02,1.65e+01,
40,-1.47e-02,1.65e+01,
41,-1.47e-02,1.67e+01,
42,-1.47e-02,1.65e+01,
43,-1.47e-02,1.65e+01,
44,-1.47e-02,1.65e+01,
45,-1.47e-02,1.65e+01,
46,-1.47e-02,1.63e+01,
47,-1.47e-02,1.63e+01,
48,-1.47e-02,1.63e+01,
49,-1.47e-02,1.65e+01,
50,-1.47e-02,1.63e+01,
51,-1.47e-02,1.63e+01,
52,-1.47e-02,1.59e+01,
53,-1.47e-02,1.59e+01,
54,-1.47e-02,1.57e+01,
55,-1.47e-02,1.57e+01,
56,-1.47e-02,1.57e+01,
57,-1.47e-02,1.57e+01,
58,-1.47e-02,1.57e+01,
59,-1.47e-02,1.55e+01,
60,-1.47e-02,1.55e+01,
61,-1.47e-02,1.55e+01,
62,-1.47e-02,1.55e+01,
63,-1.47e-02,1.55e+01,
64,-1.47e-02,1.53e+01,
65,-1.47e-02,1.53e+01,
66,-1.47e-02,1.53e+01,
67,-1.47e-02,1.53e+01,
68,-1.47e-02,1.53e+01,
69,-1.47e-02,1.51e+01,
70,-1.47e-02,1.51e+01,
71,-1.47e-02,1.49e+01,
72,-1.47e-02,1.49e+01,
73,-1.47e-02,1.49e+01,
74,-1.47e-02,1.49e+01,
75,-1.47e-02,1.49e+01,
76,-1.47e-02,1.47e+01,
77,-1.47e-02,1.47e+01,
78,-1.47e-02,1.47e+01,
79,-1.47e-02,1.45e+01,
80,-1.47e-02,1.45e+01,
81,-1.47e-02,1.45e+01,
82,-1.47e-02,1.43e+01,
83,-1.47e-02,1.45e+01,
84,-1.47e-02,1.43e+01,
85,-1.47e-02,1.43e+01,
86,-1.47e-02,1.41e+01,
87,-1.47e-02,1.41e+01,
88,-1.47e-02,1.41e+01,
89,-1.47e-02,1.41e+01,
90,-1.47e-02,1.41e+01,
91,-1.47e-02,1.39e+01,
92,-1.47e-02,1.39e+01,
93,-1.47e-02,1.39e+01,
94,-1.47e-02,1.39e+01,
95,-1.47e-02,1.39e+01,
96,-1.47e-02,1.35e+01,
97,-1.47e-02,1.35e+01,
98,-1.47e-02,1.35e+01,
99,-1.47e-02,1.35e+01,
100,-1.47e-02,1.33e+01,
101,-1.47e-02,1.33e+01,
102,-1.47e-02,1.33e+01,
103,-1.47e-02,1.33e+01,
104,-1.47e-02,1.31e+01,
105,-1.47e-02,1.33e+01,
106,-1.47e-02,1.31e+01,
107,-1.47e-02,1.31e+01,
108,-1.47e-02,1.31e+01,
109,-1.47e-02,1.29e+01,
110,-1.47e-02,1.29e+01,
111,-1.47e-02,1.29e+01,
112,-1.47e-02,1.29e+01,
113,-1.47e-02,1.29e+01,
114,-1.47e-02,1.27e+01,
115,-1.47e-02,1.27e+01,
116,-1.47e-02,1.27e+01,
117,-1.47e-02,1.25e+01,
118,-1.47e-02,1.25e+01,
119,-1.47e-02,1.25e+01,
120,-1.47e-02,1.25e+01,
121,-1.47e-02,1.25e+01,
122,-1.47e-02,1.23e+01,
123,-1.47e-02,1.25e+01,
124,-1.47e-02,1.23e+01,
125,-1.47e-02,1.23e+01,
126,-1.47e-02,1.23e+01,
127,-1.47e-02,1.21e+01,
128,-1.47e-02,1.21e+01,
129,-1.47e-02,1.21e+01,
130,-1.47e-02,1.21e+01,
131,-1.47e-02,1.21e+01,
132,-1.47e-02,1.21e+01,
133,-1.47e-02,1.19e+01,
134,-1.47e-02,1.19e+01,
135,-1.47e-02,1.19e+01,
136,-1.47e-02,1.19e+01,
137,-1.47e-02,1.19e+01,
138,-1.47e-02,1.19e+01,
139,-1.47e-02,1.17e+01,
140,-1.47e-02,1.17e+01,
141,-1.47e-02,1.17e+01,
142,-1.47e-02,1.17e+01,
143,-1.47e-02,1.17e+01,
144,-1.47e-02,1.13e+01,
145,-1.47e-02,1.17e+01,
146,-1.47e-02,1.13e+01,
147,-1.47e-02,1.17e+01,
148,-1.47e-02,1.13e+01,
149,-1.47e-02,1.13e+01,
150,-1.47e-02,1.13e+01,
151,-1.47e-02,1.13e+01,
152,-1.47e-02,1.13e+01,
153,-1.47e-02,1.13e+01,
154,4.90e-03,1.13e+01,
155,-1.47e-02,1.13e+01,
156,-1.47e-02,1.11e+01,
157,-1.47e-02,1.11e+01,
158,-1.47e-02,1.11e+01,
159,-1.47e-02,1.11e+01,
160,-1.47e-02,1.11e+01,
161,-1.47e-02,1.11e+01,
162,4.90e-03,1.11e+01,
163,-1.47e-02,1.11e+01,
164,-1.47e-02,1.09e+01,
165,-1.47e-02,1.11e+01,
166,-1.47e-02,1.09e+01,
167,-1.47e-02,1.09e+01,
168,-1.47e-02,1.09e+01,
169,-1.47e-02,1.11e+01,
170,-1.47e-02,1.09e+01,
171,-1.47e-02,1.09e+01,
172,-1.47e-02,1.09e+01,
173,-1.47e-02,1.09e+01,
174,-1.47e-02,1.09e+01,
175,-1.47e-02,1.09e+01,
176,-1.47e-02,1.09e+01,
177,-1.47e-02,1.09e+01,
178,-1.47e-02,1.09e+01,
179,-1.47e-02,1.09e+01,
180,-1.47e-02,1.09e+01,
181,-1.47e-02,1.09e+01,
182,-1.47e-02,1.09e+01,
183,-1.47e-02,1.09e+01,
184,-1.47e-02,1.09e+01,
185,-1.47e-02,1.09e+01,
186,-1.47e-02,1.09e+01,
187,-1.47e-02,1.09e+01,
188,-1.47e-02,1.09e+01,
189,-1.47e-02,1.09e+01,
190,-1.47e-02,1.09e+01,
191,-1.47e-02,1.09e+01,
192,-1.47e-02,1.09e+01,
193,-1.47e-02,1.09e+01,
194,-1.47e-02,1.09e+01,
195,4.90e-03,1.09e+01,
196,-1.47e-02,1.09e+01,
197,-1.47e-02,1.09e+01,
198,-1.47e-02,1.09e+01,
199,-1.47e-02,1.09e+01,
200,-1.47e-02,1.09e+01,
201,-1.47e-02,1.11e+01,
202,-1.47e-02,1.09e+01,
203,-1.47e-02,1.11e+01,
204,-1.47e-02,1.09e+01,
205,-1.47e-02,1.09e+01,
206,-1.47e-02,1.11e+01,
207,-1.47e-02,1.09e+01,
208,-1.47e-02,1.09e+01,
209,-1.47e-02,1.11e+01,
210,-1.47e-02,1.11e+01,
211,4.90e-03,1.11e+01,
212,-1.47e-02,1.11e+01,
213,-1.47e-02,1.11e+01,
214,4.90e-03,1.11e+01,
215,4.90e-03,1.11e+01,
216,-1.47e-02,1.11e+01,
217,-1.47e-02,1.13e+01,
218,-1.47e-02,1.11e+01,
219,-1.47e-02,1.11e+01,
220,-1.47e-02,1.13e+01,
221,-1.47e-02,1.13e+01,
222,-1.47e-02,1.13e+01,
223,-1.47e-02,1.13e+01,
224,-1.47e-02,1.13e+01,
225,-1.47e-02,1.17e+01,
226,-1.47e-02,1.17e+01,
227,4.90e-03,1.13e+01,
228,-1.47e-02,1.17e+01,
229,-1.47e-02,1.17e+01,
230,-1.47e-02,1.17e+01,
231,-1.47e-02,1.17e+01,
232,-1.47e-02,1.17e+01,
233,-1.47e-02,1.19e+01,
234,-1.47e-02,1.19e+01,
235,4.90e-03,1.19e+01,
236,-1.47e-02,1.19e+01,
237,-1.47e-02,1.19e+01,
238,-1.47e-02,1.19e+01,
239,4.90e-03,1.21e+01,
240,-1.47e-02,1.19e+01,
241,-1.47e-02,1.21e+01,
242,-1.47e-02,1.21e+01,
243,4.90e-03,1.21e+01,
244,-1.47e-02,1.21e+01,
245,-1.47e-02,1.21e+01,
246,4.90e-03,1.21e+01,
247,4.90e-03,1.21e+01,
248,-1.47e-02,1.23e+01,
249,-1.47e-02,1.25e+01,
250,4.90e-03,1.23e+01,
251,4.90e-03,1.25e+01,
252,-1.47e-02,1.25e+01,
253,-1.47e-02,1.25e+01,
254,4.90e-03,1.25e+01,
255,4.90e-03,1.25e+01,
256,-1.47e-02,1.25e+01,
257,-1.47e-02,1.27e+01,
258,-1.47e-02,1.27e+01,
259,4.90e-03,1.27e+01,
260,-1.47e-02,1.27e+01,
261,-1.47e-02,1.27e+01,
262,-1.47e-02,1.29e+01,
263,4.90e-03,1.29e+01,
264,-1.47e-02,1.29e+01,
265,-1.47e-02,1.31e+01,
266,-1.47e-02,1.31e+01,
267,4.90e-03,1.31e+01,
268,-1.47e-02,1.31e+01,
269,-1.47e-02,1.31e+01,
270,4.90e-03,1.31e+01,
271,4.90e-03,1.31e+01,
272,-1.47e-02,1.31e+01,
273,-1.47e-02,1.35e+01,
274,-1.47e-02,1.33e+01,
275,-1.47e-02,1.33e+01,
276,-1.47e-02,1.35e+01,
277,-1.47e-02,1.35e+01,
278,4.90e-03,1.35e+01,
279,-1.47e-02,1.39e+01,
280,-1.47e-02,1.35e+01,
281,-1.47e-02,1.39e+01,
282,-1.47e-02,1.39e+01,
283,-1.47e-02,1.39e+01,
284,-1.47e-02,1.39e+01,
285,-1.47e-02,1.41e+01,
286,-1.47e-02,1.41e+01,
287,-1.47e-02,1.41e+01,
288,-1.47e-02,1.41e+01,
289,-1.47e-02,1.43e+01,
290,-1.47e-02,1.43e+01,
291,-1.47e-02,1.43e+01,
292,-1.47e-02,1.43e+01,
293,-1.47e-02,1.45e+01,
294,-1.47e-02,1.45e+01,
295,-1.47e-02,1.45e+01,
296,-1.47e-02,1.45e+01,
297,-1.47e-02,1.47e+01,
298,-1.47e-02,1.47e+01,
299,4.90e-03,1.47e+01,
300,-1.47e-02,1.47e+01,
301,-1.47e-02,1.47e+01,
302,-1.47e-02,1.49e+01,
303,-1.47e-02,1.49e+01,
304,-1.47e-02,1.47e+01,
305,-1.47e-02,1.51e+01,
306,-1.47e-02,1.51e+01,
307,-1.47e-02,1.51e+01,
308,-1.47e-02,1.51e+01,
309,-1.47e-02,1.51e+01,
310,-1.47e-02,1.53e+01,
311,-1.47e-02,1.53e+01,
312,-1.47e-02,1.53e+01,
313,-1.47e-02,1.55e+01,
314,4.90e-03,1.55e+01,
315,-1.47e-02,1.55e+01,
316,-1.47e-02,1.53e+01,
317,-1.47e-02,1.55e+01,
318,-1.47e-02,1.55e+01,
319,-1.47e-02,1.55e+01,
320,-1.47e-02,1.55e+01,
321,-1.47e-02,1.57e+01,
322,-1.47e-02,1.57e+01,
323,-1.47e-02,1.57e+01,
324,-1.47e-02,1.57e+01,
325,-1.47e-02,1.59e+01,
326,-1.47e-02,1.59e+01,
327,-1.47e-02,1.59e+01,
328,-1.47e-02,1.59e+01,
329,-1.47e-02,1.63e+01,
330,-1.47e-02,1.63e+01,
331,-1.47e-02,1.63e+01,
332,-1.47e-02,1.59e+01,
333,-1.47e-02,1.63e+01,
334,-1.47e-02,1.63e+01,
335,-1.47e-02,1.63e+01,
336,-1.47e-02,1.63e+01,
337,-1.47e-02,1.65e+01,
338,4.90e-03,1.65e+01,
339,-1.47e-02,1.65e+01,
340,-1.47e-02,1.65e+01,
341,-1.47e-02,1.65e+01,
342,-1.47e-02,1.67e+01,
343,-1.47e-02,1.67e+01,
344,-1.47e-02,1.67e+01,
345,-1.47e-02,1.69e+01,
346,-1.47e-02,1.67e+01,
347,-1.47e-02,1.69e+01,
348,-1.47e-02,1.67e+01,
349,-1.47e-02,1.69e+01,
350,-1.47e-02,1.69e+01,
351,4.90e-03,1.69e+01,
352,-1.47e-02,1.69e+01,
353,-1.47e-02,1.69e+01,
354,4.90e-03,1.69e+01,
355,-1.47e-02,1.71e+01,
356,-1.47e-02,1.69e+01,
357,-1.47e-02,1.69e+01,
358,-1.47e-02,1.71e+01,
359,-1.47e-02,1.71e+01,
360,-1.47e-02,1.71e+01,
361,-1.47e-02,1.71e+01,
362,-1.47e-02,1.71e+01,
363,-1.47e-02,1.71e+01,
364,-1.47e-02,1.71e+01,
365,-1.47e-02,1.71e+01,
366,-1.47e-02,1.71e+01,
367,-1.47e-02,1.71e+01,
368,-1.47e-02,1.71e+01,
369,-1.47e-02,1.71e+01,
370,-1.47e-02,1.71e+01,
371,-1.47e-02,1.73e+01,
372,-1.47e-02,1.73e+01,
373,-1.47e-02,1.71e+01,
374,-1.47e-02,1.71e+01,
375,-1.47e-02,1.73e+01,
376,-1.47e-02,1.73e+01,
377,-1.47e-02,1.73e+01,
378,-1.47e-02,1.73e+01,
379,-1.47e-02,1.73e+01,
380,-1.47e-02,1.73e+01,
381,-1.47e-02,1.73e+01,
382,-1.47e-02,1.73e+01,
383,-1.47e-02,1.73e+01,
384,-1.47e-02,1.71e+01,
385,-1.47e-02,1.73e+01,
386,-1.47e-02,1.73e+01,
387,-1.47e-02,1.73e+01,
388,-1.47e-02,1.73e+01,
389,-1.47e-02,1.73e+01,
390,-1.47e-02,1.73e+01,
391,-1.47e-02,1.73e+01,
392,-1.47e-02,1.71e+01,
393,-1.47e-02,1.73e+01,
394,-1.47e-02,1.73e+01,
395,-1.47e-02,1.71e+01,
396,-1.47e-02,1.73e+01,
397,-1.47e-02,1.71e+01,
398,-1.47e-02,1.73e+01,
399,-1.47e-02,1.73e+01,
400,-1.47e-02,1.71e+01,
401,-1.47e-02,1.73e+01,
402,-1.47e-02,1.71e+01,
403,-1.47e-02,1.71e+01,
404,-1.47e-02,1.71e+01,
405,-1.47e-02,1.71e+01,
406,-1.47e-02,1.71e+01,
407,-1.47e-02,1.71e+01,
408,-1.47e-02,1.71e+01,
409,-1.47e-02,1.73e+01,
410,-1.47e-02,1.71e+01,
411,-1.47e-02,1.71e+01,
412,-1.47e-02,1.71e+01,
413,-1.47e-02,1.69e+01,
414,-1.47e-02,1.71e+01,
415,-1.47e-02,1.69e+01,
416,-1.47e-02,1.69e+01,
417,-1.47e-02,1.69e+01,
418,-1.47e-02,1.69e+01,
419,-1.47e-02,1.69e+01,
420,-1.47e-02,1.69e+01,
421,-1.47e-02,1.67e+01,
422,-1.47e-02,1.67e+01,
423,-1.47e-02,1.69e+01,
424,-1.47e-02,1.67e+01,
425,-1.47e-02,1.67e+01,
426,-1.47e-02,1.67e+01,
427,-1.47e-02,1.67e+01,
428,-1.47e-02,1.67e+01,
429,-1.47e-02,1.67e+01,
430,-1.47e-02,1.65e+01,
431,-1.47e-02,1.65e+01,
432,-1.47e-02,1.65e+01,
433,-1.47e-02,1.65e+01,
434,-1.47e-02,1.65e+01,
435,-1.47e-02,1.63e+01,
436,-1.47e-02,1.63e+01,
437,-1.47e-02,1.63e+01,
438,-1.47e-02,1.63e+01,
439,-1.47e-02,1.63e+01,
440,-1.47e-02,1.59e+01,
441,-1.47e-02,1.63e+01,
442,-1.47e-02,1.63e+01,
443,-1.47e-02,1.59e+01,
444,-1.47e-02,1.59e+01,
445,-1.47e-02,1.59e+01,
446,-1.47e-02,1.59e+01,
447,-1.47e-02,1.59e+01,
448,-1.47e-02,1.57e+01,
449,-1.47e-02,1.57e+01,
450,-1.47e-02,1.57e+01,
451,-1.47e-02,1.57e+01,
452,-1.47e-02,1.57e+01,
453,-1.47e-02,1.55e+01,
454,-1.47e-02,1.55e+01,
455,-1.47e-02,1.55e+01,
456,-1.47e-02,1.55e+01,
457,-1.47e-02,1.55e+01,
458,-1.47e-02,1.53e+01,
459,-1.47e-02,1.51e+01,
460,-1.47e-02,1.53e+01,
461,-1.47e-02,1.51e+01,
462,-1.47e-02,1.53e+01,
463,-1.47e-02,1.51e+01,
464,-1.47e-02,1.51e+01,
465,-1.47e-02,1.51e+01,
466,-1.47e-02,1.51e+01,
467,-1.47e-02,1.49e+01,
468,-1.47e-02,1.49e+01,
469,-1.47e-02,1.49e+01,
470,-1.47e-02,1.49e+01,
471,-1.47e-02,1.49e+01,
472,-1.47e-02,1.47e+01,
473,-1.47e-02,1.47e+01,
474,-1.47e-02,1.47e+01,
475,-1.47e-02,1.47e+01,
476,-1.47e-02,1.45e+01,
477,-1.47e-02,1.45e+01,
478,-1.47e-02,1.45e+01,
479,-1.47e-02,1.45e+01,
480,-1.47e-02,1.43e+01,
481,-1.47e-02,1.45e+01,
482,-1.47e-02,1.43e+01,
483,-1.47e-02,1.43e+01,
484,-1.47e-02,1.43e+01,
485,-1.47e-02,1.41e+01,
486,-1.47e-02,1.41e+01,
487,-1.47e-02,1.41e+01,
488,-1.47e-02,1.39e+01,
489,-1.47e-02,1.41e+01,
490,-1.47e-02,1.39e+01,
491,-1.47e-02,1.39e+01,
492,-1.47e-02,1.39e+01,
493,-1.47e-02,1.35e+01,
494,-1.47e-02,1.39e+01,
495,-1.47e-02,1.35e+01,
496,-1.47e-02,1.35e+01,
497,-1.47e-02,1.35e+01,
498,-1.47e-02,1.35e+01,
499,-1.47e-02,1.35e+01,
500,-1.47e-02,1.33e+01,
501,-1.47e-02,1.33e+01,
502,-1.47e-02,1.33e+01,
503,-1.47e-02,1.33e+01,
504,-1.47e-02,1.31e+01,
505,-1.47e-02,1.31e+01,
506,-1.47e-02,1.31e+01,
507,-1.47e-02,1.31e+01,
508,-1.47e-02,1.31e+01,
509,-1.47e-02,1.29e+01,
510,-1.47e-02,1.29e+01,
511,-1.47e-02,1.29e+01,
512,-1.47e-02,1.29e+01,
513,-1.47e-02,1.29e+01,
514,-1.47e-02,1.29e+01,
515,-1.47e-02,1.27e+01,
516,-1.47e-02,1.27e+01,
517,-1.47e-02,1.27e+01,
518,-1.47e-02,1.27e+01,
519,-1.47e-02,1.27e+01,
520,-1.47e-02,1.25e+01,
521,-1.47e-02,1.25e+01,
522,-1.47e-02,1.25e+01,
523,-1.47e-02,1.25e+01,
524,-1.47e-02,1.23e+01,
525,-1.47e-02,1.25e+01,
526,-1.47e-02,1.23e+01,
527,-1.47e-02,1.23e+01,
528,-1.47e-02,1.23e+01,
529,-1.47e-02,1.23e+01,
530,-1.47e-02,1.23e+01,
531,-1.47e-02,1.23e+01,
532,-1.47e-02,1.21e+01,
533,-1.47e-02,1.21e+01,
534,-1.47e-02,1.21e+01,
535,-1.47e-02,1.21e+01,
536,-1.47e-02,1.19e+01,
537,-1.47e-02,1.21e+01,
538,-1.47e-02,1.21e+01,
539,-1.47e-02,1.21e+01,
540,-1.47e-02,1.19e+01,
541,-1.47e-02,1.19e+01,
542,-1.47e-02,1.19e+01,
543,-1.47e-02,1.19e+01,
544,-1.47e-02,1.17e+01,
545,-1.47e-02,1.19e+01,
546,-1.47e-02,1.19e+01,
547,-1.47e-02,1.17e+01,
548,-1.47e-02,1.17e+01,
549,-1.47e-02,1.17e+01,
550,-1.47e-02,1.17e+01,
551,4.90e-03,1.17e+01,
552,-1.47e-02,1.13e+01,
553,-1.47e-02,1.17e+01,
554,4.90e-03,1.17e+01,
555,-1.47e-02,1.17e+01,
556,-1.47e-02,1.13e+01,
557,-1.47e-02,1.13e+01,
558,-1.47e-02,1.13e+01,
559,-1.47e-02,1.13e+01,
560,-1.47e-02,1.13e+01,
561,-1.47e-02,1.13e+01,
562,-1.47e-02,1.13e+01,
563,-1.47e-02,1.13e+01,
564,-1.47e-02,1.13e+01,
565,-1.47e-02,1.13e+01,
566,-1.47e-02,1.13e+01,
567,-1.47e-02,1.11e+01,
568,-1.47e-02,1.11e+01,
569,-1.47e-02,1.13e+01,
570,-1.47e-02,1.13e+01,
571,4.90e-03,1.13e+01,
572,-1.47e-02,1.11e+01,
573,-1.47e-02,1.11e+01,
574,4.90e-03,1.13e+01,
575,-1.47e-02,1.13e+01,
576,-1.47e-02,1.11e+01,
577,-1.47e-02,1.11e+01,
578,-1.47e-02,1.13e+01,
579,-1.47e-02,1.11e+01,
580,-1.47e-02,1.11e+01,
581,-1.47e-02,1.11e+01,
582,-1.47e-02,1.11e+01,
583,-1.47e-02,1.11e+01,
584,-1.47e-02,1.11e+01,
585,-1.47e-02,1.11e+01,
586,-1.47e-02,1.13e+01,
587,-1.47e-02,1.11e+01,
588,-1.47e-02,1.11e+01,
589,-1.47e-02,1.13e+01,
590,-1.47e-02,1.11e+01,
591,-1.47e-02,1.11e+01,
592,-1.47e-02,1.11e+01,
593,-1.47e-02,1.11e+01,
594,-1.47e-02,1.13e+01,
595,-1.47e-02,1.11e+01,
596,-1.47e-02,1.11e+01,
597,-1.47e-02,1.11e+01,
598,-1.47e-02,1.13e+01,
599,-1.47e-02,1.11e+01,
600,-1.47e-02,1.11e+01,
601,-1.47e-02,1.13e+01,
602,-1.47e-02,1.13e+01,
603,4.90e-03,1.13e+01,
604,-1.47e-02,1.13e+01,
605,-1.47e-02,1.13e+01,
606,-1.47e-02,1.13e+01,
607,-1.47e-02,1.13e+01,
608,-1.47e-02,1.13e+01,
609,-1.47e-02,1.13e+01,
610,4.90e-03,1.13e+01,
611,-1.47e-02,1.13e+01,
612,-1.47e-02,1.13e+01,
613,-1.47e-02,1.17e+01,
614,4.90e-03,1.13e+01,
615,4.90e-03,1.17e+01,
616,-1.47e-02,1.17e+01,
617,-1.47e-02,1.17e+01,
618,4.90e-03,1.17e+01,
619,4.90e-03,1.17e+01,
620,-1.47e-02,1.17e+01,
621,-1.47e-02,1.17e+01,
622,-1.47e-02,1.17e+01,
623,-1.47e-02,1.17e+01,
624,-1.47e-02,1.17e+01,
625,-1.47e-02,1.19e+01,
626,4.90e-03,1.19e+01,
627,4.90e-03,1.19e+01,
628,-1.47e-02,1.19e+01,
629,-1.47e-02,1.19e+01,
630,-1.47e-02,1.19e+01,
631,-1.47e-02,1.19e+01,
632,-1.47e-02,1.19e+01,
633,-1.47e-02,1.21e+01,
634,4.90e-03,1.21e+01,
635,4.90e-03,1.21e+01,
636,-1.47e-02,1.21e+01,
637,-1.47e-02,1.21e+01,
638,-1.47e-02,1.21e+01,
639,-1.47e-02,1.21e+01,
640,-1.47e-02,1.21e+01,
641,-1.47e-02,1.23e+01,
642,-1.47e-02,1.23e+01,
643,4.90e-03,1.23e+01,
644,-1.47e-02,1.23e+01,
645,-1.47e-02,1.23e+01,
646,-1.47e-02,1.25e+01,
647,-1.47e-02,1.25e+01,
648,-1.47e-02,1.25e+01,
649,-1.47e-02,1.25e+01,
650,-1.47e-02,1.25e+01,
651,-1.47e-02,1.27e+01,
652,-1.47e-02,1.25e+01,
653,-1.47e-02,1.27e+01,
654,4.90e-03,1.27e+01,
655,-1.47e-02,1.27e+01,
656,-1.47e-02,1.27e+01,
657,-1.47e-02,1.29e+01,
658,-1.47e-02,1.27e+01,
659,4.90e-03,1.29e+01,
660,-1.47e-02,1.29e+01,
661,-1.47e-02,1.29e+01,
662,-1.47e-02,1.29e+01,
663,-1.47e-02,1.31e+01,
664,-1.47e-02,1.31e+01,
665,-1.47e-02,1.31e+01,
666,-1.47e-02,1.31e+01,
667,-1.47e-02,1.33e+01,
668,-1.47e-02,1.31e+01,
669,-1.47e-02,1.33e+01,
670,-1.47e-02,1.33e+01,
671,-1.47e-02,1.33e+01,
672,-1.47e-02,1.33e+01,
673,-1.47e-02,1.35e+01,
674,-1.47e-02,1.33e+01,
675,-1.47e-02,1.35e+01,
676,-1.47e-02,1.35e+01,
677,-1.47e-02,1.35e+01,
678,-1.47e-02,1.35e+01,
679,-1.47e-02,1.39e+01,
680,-1.47e-02,1.39e+01,
681,-1.47e-02,1.39e+01,
682,-1.47e-02,1.41e+01,
683,4.90e-03,1.41e+01,
684,-1.47e-02,1.41e+01,
685,-1.47e-02,1.41e+01,
686,-1.47e-02,1.41e+01,
687,4.90e-03,1.41e+01,
688,-1.47e-02,1.43e+01,
689,-1.47e-02,1.43e+01,
690,-1.47e-02,1.43e+01,
691,-1.47e-02,1.43e+01,
692,-1.47e-02,1.45e+01,
693,-1.47e-02,1.43e+01,
694,-1.47e-02,1.45e+01,
695,-1.47e-02,1.45e+01,
696,-1.47e-02,1.45e+01,
697,-1.47e-02,1.47e+01,
698,4.90e-03,1.45e+01,
699,-1.47e-02,1.47e+01,
700,-1.47e-02,1.47e+01,
701,-1.47e-02,1.47e+01,
702,4.90e-03,1.47e+01,
703,-1.47e-02,1.49e+01,
704,-1.47e-02,1.47e+01,
705,-1.47e-02,1.49e+01,
706,-1.47e-02,1.49e+01,
707,-1.47e-02,1.49e+01,
708,-1.47e-02,1.51e+01,
709,-1.47e-02,1.51e+01,
710,-1.47e-02,1.51e+01,
711,-1.47e-02,1.51e+01,
712,-1.47e-02,1.51e+01,
713,-1.47e-02,1.53e+01,
714,-1.47e-02,1.53e+01,
715,-1.47e-02,1.53e+01,
716,-1.47e-02,1.53e+01,
717,-1.47e-02,1.53e+01,
718,-1.47e-02,1.55e+01,
719,-1.47e-02,1.55e+01,
720,-1.47e-02,1.55e+01,
721,-1.47e-02,1.55e+01,
722,-1.47e-02,1.55e+01,
723,4.90e-03,1.55e+01,
724,-1.47e-02,1.57e+01,
725,-1.47e-02,1.57e+01,
726,-1.47e-02,1.57e+01,
727,-1.47e-02,1.57e+01,
728,-1.47e-02,1.57e+01,
729,-1.47e-02,1.59e+01,
730,-1.47e-02,1.59e+01,
731,4.90e-03,1.59e+01,
732,-1.47e-02,1.59e+01,
733,-1.47e-02,1.59e+01,
734,-1.47e-02,1.59e+01,
735,-1.47e-02,1.59e+01,
736,-1.47e-02,1.59e+01,
737,-1.47e-02,1.63e+01,
738,-1.47e-02,1.63e+01,
739,-1.47e-02,1.63e+01,
740,-1.47e-02,1.63e+01,
741,-1.47e-02,1.63e+01,
742,-1.47e-02,1.63e+01,
743,-1.47e-02,1.63e+01,
744,-1.47e-02,1.65e+01,
745,-1.47e-02,1.65e+01,
746,-1.47e-02,1.65e+01,
747,-1.47e-02,1.65e+01,
748,-1.47e-02,1.65e+01,
749,-1.47e-02,1.65e+01,
750,-1.47e-02,1.67e+01,
751,-1.47e-02,1.67e+01,
752,-1.47e-02,1.67e+01,
753,-1.47e-02,1.67e+01,
754,4.90e-03,1.67e+01,
755,-1.47e-02,1.67e+01,
756,-1.47e-02,1.65e+01,
757,-1.47e-02,1.67e+01,
758,-1.47e-02,1.67e+01,
759,-1.47e-02,1.67e+01,
760,-1.47e-02,1.67e+01,
761,-1.47e-02,1.69e+01,
762,-1.47e-02,1.67e+01,
763,-1.47e-02,1.67e+01,
764,-1.47e-02,1.67e+01,
765,-1.47e-02,1.67e+01,
766,4.90e-03,1.69e+01,
767,-1.47e-02,1.69e+01,
768,-1.47e-02,1.67e+01,
769,-1.47e-02,1.69e+01,
770,-1.47e-02,1.69e+01,
771,4.90e-03,1.69e+01,
772,-1.47e-02,1.69e+01,
773,-1.47e-02,1.69e+01,
774,-1.47e-02,1.69e+01,
775,-1.47e-02,1.69e+01,
776,-1.47e-02,1.69e+01,
777,-1.47e-02,1.69e+01,
778,-1.47e-02,1.69e+01,
779,-1.47e-02,1.71e+01,
780,-1.47e-02,1.69e+01,
781,-1.47e-02,1.69e+01,
782,-1.47e-02,1.69e+01,
783,-1.47e-02,1.69e+01,
784,-1.47e-02,1.69e+01,
785,-1.47e-02,1.69e+01,
786,-1.47e-02,1.69e+01,
787,-1.47e-02,1.69e+01,
788,-1.47e-02,1.69e+01,
789,-1.47e-02,1.69e+01,
790,-1.47e-02,1.69e+01,
791,-1.47e-02,1.69e+01,
792,-1.47e-02,1.69e+01,
793,-1.47e-02,1.69e+01,
794,-1.47e-02,1.69e+01,
795,4.90e-03,1.69e+01,
796,-1.47e-02,1.69e+01,
797,-1.47e-02,1.69e+01,
798,-1.47e-02,1.69e+01,
799,-1.47e-02,1.69e+01,
800,-1.47e-02,1.67e+01,
801,-1.47e-02,1.69e+01,
802,-1.47e-02,1.67e+01,
803,-1.47e-02,1.69e+01,
804,-1.47e-02,1.67e+01,
805,-1.47e-02,1.67e+01,
806,-1.47e-02,1.69e+01,
807,-1.47e-02,1.67e+01,
808,-1.47e-02,1.67e+01,
809,-1.47e-02,1.69e+01,
810,-1.47e-02,1.67e+01,
811,-1.47e-02,1.67e+01,
812,-1.47e-02,1.67e+01,
813,-1.47e-02,1.67e+01,
814,-1.47e-02,1.67e+01,
815,-1.47e-02,1.65e+01,
816,-1.47e-02,1.65e+01,
817,-1.47e-02,1.65e+01,
818,-1.47e-02,1.65e+01,
819,-1.47e-02,1.65e+01,
820,-1.47e-02,1.65e+01,
821,-1.47e-02,1.65e+01,
822,-1.47e-02,1.65e+01,
823,-1.47e-02,1.63e+01,
824,-1.47e-02,1.63e+01,
825,-1.47e-02,1.65e+01,
826,-1.47e-02,1.65e+01,
827,-1.47e-02,1.63e+01,
828,-1.47e-02,1.63e+01,
829,-1.47e-02,1.63e+01,
830,-1.47e-02,1.63e+01,
831,-1.47e-02,1.63e+01,
832,-1.47e-02,1.59e+01,
833,-1.47e-02,1.63e+01,
834,-1.47e-02,1.59e+01,
835,-1.47e-02,1.59e+01,
836,-1.47e-02,1.59e+01,
