Lab 3/T3-7.00V.csv

X,CH1,CH2,Start,Increment,
Sequence,Volt,Volt,-1.060000e-05,2.000000e-09
0,-1.47e-02,1.63e+01,
1,-1.47e-02,1.63e+01,
2,-1.47e-02,1.63e+01,
3,-1.47e-02,1.63e+01,
4,-1.47e-02,1.63e+01,
5,-1.47e-02,1.63e+01,
6,-1.47e-02,1.59e+01,
7,-1.47e-02,1.63e+01,
8,-1.47e-02,1.59e+01,
9,-1.47e-02,1.59e+01,
10,-1.47e-02,1.59e+01,
11,-1.47e-02,1.59e+01,
12,-1.47e-02,1.57e+01,
13,-1.47e-02,1.57e+01,
14,-1.47e-02,1.57e+01,
15,-1.47e-02,1.57e+01,
16,-1.47e-02,1.57e+01,
17,-1.47e-02,1.55e+01,
18,-1.47e-02,1.55e+01,
19,-1.47e-02,1.57e+01,
20,-1.47e-02,1.53e+01,
21,-1.47e-02,1.55e+01,
22,-1.47e-02,1.55e+01,
23,-1.47e-02,1.53e+01,
24,-1.47e-02,1.53e+01,
25,-1.47e-02,1.51e+01,
26,-1.47e-02,1.53e+01,
27,-1.47e-02,1.53e+01,
28,-1.47e-02,1.51e+01,
29,-1.47e-02,1.51e+01,
30,-1.47e-02,1.49e+01,
31,-1.47e-02,1.49e+01,
32,-1.47e-02,1.49e+01,
33,-1.47e-02,1.49e+01,
34,-1.47e-02,1.47e+01,
35,-1.47e-02,1.47e+01,
36,-1.47e-02,1.47e+01,
37,-1.47e-02,1.47e+01,
38,-1.47e-02,1.45e+01,
39,-1.47e-02,1.45e+01,
40,-1.47e-02,1.43e+01,
41,-1.47e-02,1.43e+01,
42,-1.47e-02,1.43e+01,
43,-1.47e-02,1.43e+01,
44,-1.47e-02,1.41e+01,
45,-1.47e-02,1.41e+01,
46,-1.47e-02,1.41e+01,
47,-1.47e-02,1.41e+01,
48,-1.47e-02,1.39e+01,
49,-1.47e-02,1.39e+01,
50,-1.47e-02,1.39e+01,
51,-1.47e-02,1.35e+01,
52,-1.47e-02,1.33e+01,
53,-1.47e-02,1.33e+01,
54,-1.47e-02,1.33e+01,
55,-1.47e-02,1.33e+01,
56,-1.47e-02,1.31e+01,
57,-1.47e-02,1.31e+01,
58,-1.47e-02,1.31e+01,
59,-1.47e-02,1.29e+01,
60,-1.47e-02,1.29e+01,
61,-1.47e-02,1.29e+01,
62,-1.47e-02,1.27e+01,
63,-1.47e-02,1.27e+01,
64,-1.47e-02,1.25e+01,
65,-1.47e-02,1.25e+01,
66,-1.47e-02,1.25e+01,
67,-1.47e-02,1.25e+01,
68,-1.47e-02,1.23e+01,
69,-1.47e-02,1.23e+01,
70,-1.47e-02,1.21e+01,
71,-1.47e-02,1.23e+01,
72,-1.47e-02,1.21e+01,
73,-1.47e-02,1.21e+01,
74,-1.47e-02,1.19e+01,
75,-1.47e-02,1.19e+01,
76,-1.47e-02,1.17e+01,
77,-1.47e-02,1.17e+01,
78,-1.47e-02,1.17e+01,
79,-1.47e-02,1.17e+01,
80,-1.47e-02,1.13e+01,
81,-1.47e-02,1.13e+01,
82,-1.47e-02,1.13e+01,
83,-1.47e-02,1.11e+01,
84,-1.47e-02,1.09e+01,
85,-1.47e-02,1.11e+01,
86,-1.47e-02,1.09e+01,
87,-1.47e-02,1.09e+01,
88,-1.47e-02,1.07e+01,
89,-1.47e-02,1.07e+01,
90,-1.47e-02,1.07e+01,
91,-1.47e-02,1.07e+01,
92,-1.47e-02,1.05e+01,
93,-1.47e-02,1.05e+01,
94,-1.47e-02,1.03e+01,
95,-1.47e-02,1.05e+01,
96,-1.47e-02,1.03e+01,
97,-1.47e-02,1.01e+01,
98,-1.47e-02,1.01e+01,
99,-1.47e-02,1.01e+01,
100,-1.47e-02,9.90e+00,
101,-1.47e-02,9.90e+00,
102,-1.47e-02,9.90e+00,
103,-1.47e-02,9.90e+00,
104,-1.47e-02,9.70e+00,
105,-1.47e-02,9.70e+00,
106,-1.47e-02,9.70e+00,
107,-1.47e-02,9.70e+00,
108,-1.47e-02,9.50e+00,
109,-1.47e-02,9.50e+00,
110,-1.47e-02,9.50e+00,
111,-1.47e-02,9.50e+00,
112,-1.47e-02,9.30e+00,
113,-1.47e-02,9.30e+00,
114,-1.47e-02,8.90e+00,
115,-1.47e-02,9.30e+00,
116,-1.47e-02,8.90e+00,
117,-1.47e-02,8.90e+00,
118,-1.47e-02,8.70e+00,
119,-1.47e-02,8.70e+00,
120,-1.47e-02,8.70e+00,
121,-1.47e-02,8.70e+00,
122,-1.47e-02,8.50e+00,
123,-1.47e-02,8.50e+00,
124,-1.47e-02,8.50e+00,
125,-1.47e-02,8.50e+00,
126,-1.47e-02,8.50e+00,
127,-1.47e-02,8.50e+00,
128,-1.47e-02,8.30e+00,
129,-1.47e-02,8.30e+00,
130,-1.47e-02,8.10e+00,
131,-1.47e-02,8.10e+00,
132,-1.47e-02,8.10e+00,
133,-1.47e-02,8.10e+00,
134,-1.47e-02,8.10e+00,
135,-1.47e-02,8.10e+00,
136,-1.47e-02,7.90e+00,
137,-1.47e-02,7.90e+00,
138,-1.47e-02,7.90e+00,
139,-1.47e-02,7.90e+00,
140,-1.47e-02,7.70e+00,
141,-1.47e-02,7.90e+00,
142,-1.47e-02,7.70e+00,
143,-1.47e-02,7.90e+00,
144,-1.47e-02,7.70e+00,
145,-1.47e-02,7.70e+00,
146,-1.47e-02,7.50e+00,
147,-1.47e-02,7.50e+00,
148,-1.47e-02,7.50e+00,
149,-1.47e-02,7.50e+00,
150,-1.47e-02,7.50e+00,
151,-1.47e-02,7.50e+00,
152,-1.47e-02,7.30e+00,
153,-1.47e-02,7.50e+00,
154,-1.47e-02,7.30e+00,
155,-1.47e-02,7.30e+00,
156,-1.47e-02,7.10e+00,
157,-1.47e-02,7.30e+00,
158,-1.47e-02,7.30e+00,
159,-1.47e-02,7.30e+00,
160,-1.47e-02,7.30e+00,
161,-1.47e-02,7.30e+00,
162,-1.47e-02,7.10e+00,
163,-1.47e-02,7.30e+00,
164,-1.47e-02,7.10e+00,
165,-1.47e-02,7.10e+00,
166,4.90e-03,7.30e+00,
167,-1.47e-02,7.10e+00,
168,-1.47e-02,7.10e+00,
169,-1.47e-02,7.10e+00,
170,-1.47e-02,6.90e+00,
171,-1.47e-02,7.10e+00,
172,-1.47e-02,6.90e+00,
173,-1.47e-02,6.90e+00,
174,-1.47e-02,7.10e+00,
175,-1.47e-02,7.10e+00,
176,-1.47e-02,7.10e+00,
177,-1.47e-02,6.90e+00,
178,-1.47e-02,6.90e+00,
179,4.90e-03,6.90e+00,
180,-1.47e-02,6.90e+00,
181,-1.47e-02,6.90e+00,
182,-1.47e-02,6.90e+00,
183,4.90e-03,6.90e+00,
184,-1.47e-02,6.90e+00,
185,-1.47e-02,6.90e+00,
186,-1.47e-02,6.90e+00,
187,-1.47e-02,6.90e+00,
188,-1.47e-02,6.90e+00,
189,-1.47e-02,6.90e+00,
190,-1.47e-02,6.90e+00,
191,-1.47e-02,6.90e+00,
192,-1.47e-02,6.90e+00,
193,-1.47e-02,6.90e+00,
194,-1.47e-02,6.90e+00,
195,4.90e-03,7.10e+00,
196,-1.47e-02,6.90e+00,
197,-1.47e-02,6.90e+00,
198,-1.47e-02,7.10e+00,
199,-1.47e-02,6.90e+00,
200,-1.47e-02,6.90e+00,
201,-1.47e-02,6.90e+00,
202,-1.47e-02,6.90e+00,
203,-1.47e-02,6.90e+00,
204,-1.47e-02,6.90e+00,
205,-1.47e-02,6.90e+00,
206,-1.47e-02,6.90e+00,
207,4.90e-03,7.10e+00,
208,-1.47e-02,7.10e+00,
209,-1.47e-02,6.90e+00,
210,-1.47e-02,7.10e+00,
211,-1.47e-02,7.10e+00,
212,-1.47e-02,7.10e+00,
213,-1.47e-02,7.10e+00,
214,-1.47e-02,7.10e+00,
215,4.90e-03,7.30e+00,
216,-1.47e-02,7.10e+00,
217,-1.47e-02,7.10e+00,
218,-1.47e-02,7.10e+00,
219,4.90e-03,7.30e+00,
220,-1.47e-02,7.10e+00,
221,-1.47e-02,7.30e+00,
222,-1.47e-02,7.30e+00,
223,4.90e-03,7.30e+00,
224,-1.47e-02,7.30e+00,
225,-1.47e-02,7.30e+00,
226,4.90e-03,7.30e+00,
227,-1.47e-02,7.30e+00,
228,-1.47e-02,7.30e+00,
229,-1.47e-02,7.50e+00,
230,-1.47e-02,7.50e+00,
231,-1.47e-02,7.50e+00,
232,-1.47e-02,7.50e+00,
233,-1.47e-02,7.50e+00,
234,4.90e-03,7.50e+00,
235,4.90e-03,7.70e+00,
236,-1.47e-02,7.50e+00,
237,-1.47e-02,7.70e+00,
238,-1.47e-02,7.70e+00,
239,4.90e-03,7.70e+00,
240,-1.47e-02,7.70e+00,
241,-1.47e-02,7.70e+00,
242,-1.47e-02,7.70e+00,
243,-1.47e-02,7.90e+00,
244,-1.47e-02,7.90e+00,
245,-1.47e-02,7.90e+00,
246,-1.47e-02,7.90e+00,
247,4.90e-03,7.90e+00,
248,-1.47e-02,8.10e+00,
249,-1.47e-02,8.10e+00,
250,-1.47e-02,8.30e+00,
251,-1.47e-02,8.10e+00,
252,-1.47e-02,8.10e+00,
253,-1.47e-02,8.30e+00,
254,-1.47e-02,8.50e+00,
255,-1.47e-02,8.30e+00,
256,4.90e-03,8.50e+00,
257,-1.47e-02,8.50e+00,
258,-1.47e-02,8.50e+00,
259,-1.47e-02,8.50e+00,
260,-1.47e-02,8.50e+00,
261,-1.47e-02,8.70e+00,
262,-1.47e-02,8.70e+00,
263,4.90e-03,8.70e+00,
264,-1.47e-02,8.70e+00,
265,-1.47e-02,8.70e+00,
266,-1.47e-02,8.90e+00,
267,-1.47e-02,8.90e+00,
268,-1.47e-02,8.90e+00,
269,-1.47e-02,9.30e+00,
270,-1.47e-02,9.30e+00,
271,4.90e-03,9.30e+00,
272,-1.47e-02,9.50e+00,
273,-1.47e-02,9.50e+00,
274,-1.47e-02,9.50e+00,
275,-1.47e-02,9.50e+00,
276,-1.47e-02,9.50e+00,
277,-1.47e-02,9.70e+00,
278,-1.47e-02,9.70e+00,
279,4.90e-03,9.70e+00,
280,-1.47e-02,9.70e+00,
281,-1.47e-02,9.90e+00,
282,-1.47e-02,9.90e+00,
283,-1.47e-02,9.90e+00,
284,-1.47e-02,9.90e+00,
285,-1.47e-02,1.01e+01,
286,-1.47e-02,1.03e+01,
287,4.90e-03,1.03e+01,
288,-1.47e-02,1.03e+01,
289,-1.47e-02,1.03e+01,
290,-1.47e-02,1.03e+01,
291,-1.47e-02,1.03e+01,
292,-1.47e-02,1.05e+01,
293,-1.47e-02,1.07e+01,
294,-1.47e-02,1.07e+01,
295,-1.47e-02,1.07e+01,
296,-1.47e-02,1.07e+01,
297,-1.47e-02,1.09e+01,
298,-1.47e-02,1.09e+01,
299,-1.47e-02,1.11e+01,
300,-1.47e-02,1.09e+01,
301,-1.47e-02,1.11e+01,
302,-1.47e-02,1.11e+01,
303,4.90e-03,1.13e+01,
304,-1.47e-02,1.13e+01,
305,-1.47e-02,1.13e+01,
306,-1.47e-02,1.13e+01,
307,-1.47e-02,1.17e+01,
308,-1.47e-02,1.17e+01,
309,-1.47e-02,1.19e+01,
310,4.90e-03,1.19e+01,
311,-1.47e-02,1.19e+01,
312,-1.47e-02,1.19e+01,
313,-1.47e-02,1.21e+01,
314,-1.47e-02,1.21e+01,
315,4.90e-03,1.21e+01,
316,-1.47e-02,1.21e+01,
317,-1.47e-02,1.23e+01,
318,-1.47e-02,1.23e+01,
319,-1.47e-02,1.25e+01,
320,-1.47e-02,1.25e+01,
321,-1.47e-02,1.25e+01,
322,-1.47e-02,1.25e+01,
323,-1.47e-02,1.27e+01,
324,-1.47e-02,1.27e+01,
325,-1.47e-02,1.29e+01,
326,-1.47e-02,1.29e+01,
327,-1.47e-02,1.29e+01,
328,-1.47e-02,1.31e+01,
329,-1.47e-02,1.31e+01,
330,-1.47e-02,1.31e+01,
331,-1.47e-02,1.31e+01,
332,-1.47e-02,1.33e+01,
333,-1.47e-02,1.33e+01,
334,-1.47e-02,1.33e+01,
335,-1.47e-02,1.35e+01,
336,-1.47e-02,1.35e+01,
337,-1.47e-02,1.39e+01,
338,-1.47e-02,1.35e+01,
339,-1.47e-02,1.39e+01,
340,-1.47e-02,1.39e+01,
341,-1.47e-02,1.39e+01,
342,-1.47e-02,1.41e+01,
343,-1.47e-02,1.41e+01,
344,-1.47e-02,1.41e+01,
345,-1.47e-02,1.41e+01,
346,-1.47e-02,1.41e+01,
347,-1.47e-02,1.43e+01,
348,-1.47e-02,1.43e+01,
349,-1.47e-02,1.43e+01,
350,-1.47e-02,1.45e+01,
351,-1.47e-02,1.45e+01,
352,-1.47e-02,1.45e+01,
353,-1.47e-02,1.45e+01,
354,-1.47e-02,1.47e+01,
355,-1.47e-02,1.47e+01,
356,-1.47e-02,1.47e+01,
357,-1.47e-02,1.49e+01,
358,-1.47e-02,1.47e+01,
359,-1.47e-02,1.49e+01,
360,-1.47e-02,1.49e+01,
361,-1.47e-02,1.49e+01,
362,-1.47e-02,1.49e+01,
363,-1.47e-02,1.49e+01,
364,-1.47e-02,1.51e+01,
365,-1.47e-02,1.51e+01,
366,-1.47e-02,1.51e+01,
367,-1.47e-02,1.53e+01,
368,-1.47e-02,1.51e+01,
369,-1.47e-02,1.51e+01,
370,-1.47e-02,1.53e+01,
371,-1.47e-02,1.53e+01,
372,-1.47e-02,1.53e+01,
373,-1.47e-02,1.55e+01,
374,-1.47e-02,1.53e+01,
375,-1.47e-02,1.55e+01,
376,-1.47e-02,1.55e+01,
377,-1.47e-02,1.55e+01,
378,-1.47e-02,1.55e+01,
379,-1.47e-02,1.55e+01,
380,-1.47e-02,1.55e+01,
381,-1.47e-02,1.57e+01,
382,-1.47e-02,1.55e+01,
383,-1.47e-02,1.57e+01,
384,-1.47e-02,1.57e+01,
385,-1.47e-02,1.57e+01,
386,-1.47e-02,1.57e+01,
387,-1.47e-02,1.57e+01,
388,-1.47e-02,1.57e+01,
389,-1.47e-02,1.57e+01,
390,-1.47e-02,1.57e+01,
391,-1.47e-02,1.57e+01,
392,-1.47e-02,1.57e+01,
393,-1.47e-02,1.57e+01,
394,-1.47e-02,1.57e+01,
395,-1.47e-02,1.57e+01,
396,-1.47e-02,1.57e+01,
397,-1.47e-02,1.59e+01,
398,-1.47e-02,1.57e+01,
399,-1.47e-02,1.59e+01,
400,-1.47e-02,1.57e+01,
401,-1.47e-02,1.57e+01,
402,-1.47e-02,1.57e+01,
403,-1.47e-02,1.57e+01,
404,-1.47e-02,1.57e+01,
405,-1.47e-02,1.57e+01,
406,-1.47e-02,1.57e+01,
407,-1.47e-02,1.57e+01,
408,-1.47e-02,1.57e+01,
409,-1.47e-02,1.57e+01,
410,-1.47e-02,1.57e+01,
411,-1.47e-02,1.57e+01,
412,-1.47e-02,1.57e+01,
413,-1.47e-02,1.57e+01,
414,-1.47e-02,1.57e+01,
415,-1.47e-02,1.57e+01,
416,-1.47e-02,1.57e+01,
417,-1.47e-02,1.57e+01,
418,-1.47e-02,1.57e+01,
419,-1.47e-02,1.55e+01,
420,-1.47e-02,1.55e+01,
421,-1.47e-02,1.57e+01,
422,-1.47e-02,1.55e+01,
423,-1.47e-02,1.55e+01,
424,-1.47e-02,1.55e+01,
425,-1.47e-02,1.55e+01,
426,-1.47e-02,1.53e+01,
427,-1.47e-02,1.55e+01,
428,-1.47e-02,1.53e+01,
429,-1.47e-02,1.53e+01,
430,-1.47e-02,1.53e+01,
431,-1.47e-02,1.53e+01,
432,-1.47e-02,1.53e+01,
433,-1.47e-02,1.51e+01,
434,-1.47e-02,1.51e+01,
435,-1.47e-02,1.53e+01,
436,-1.47e-02,1.51e+01,
437,-1.47e-02,1.51e+01,
438,-1.47e-02,1.51e+01,
439,-1.47e-02,1.51e+01,
440,-1.47e-02,1.49e+01,
441,-1.47e-02,1.49e+01,
442,-1.47e-02,1.49e+01,
443,-1.47e-02,1.49e+01,
444,-1.47e-02,1.47e+01,
445,-1.47e-02,1.47e+01,
446,-1.47e-02,1.47e+01,
447,-1.47e-02,1.47e+01,
448,-1.47e-02,1.45e+01,
449,-1.47e-02,1.47e+01,
450,-1.47e-02,1.45e+01,
451,-1.47e-02,1.45e+01,
452,-1.47e-02,1.43e+01,
453,-1.47e-02,1.45e+01,
454,-1.47e-02,1.43e+01,
455,-1.47e-02,1.43e+01,
456,-1.47e-02,1.43e+01,
457,-1.47e-02,1.41e+01,
458,-1.47e-02,1.41e+01,
459,-1.47e-02,1.41e+01,
460,-1.47e-02,1.39e+01,
461,-1.47e-02,1.41e+01,
462,-1.47e-02,1.39e+01,
463,-1.47e-02,1.39e+01,
464,-1.47e-02,1.35e+01,
465,-1.47e-02,1.35e+01,
466,-1.47e-02,1.35e+01,
467,-1.47e-02,1.33e+01,
468,-1.47e-02,1.33e+01,
469,-1.47e-02,1.33e+01,
470,-1.47e-02,1.33e+01,
471,-1.47e-02,1.31e+01,
472,-1.47e-02,1.31e+01,
473,-1.47e-02,1.31e+01,
474,-1.47e-02,1.31e+01,
475,-1.47e-02,1.29e+01,
476,-1.47e-02,1.29e+01,
477,-1.47e-02,1.29e+01,
478,-1.47e-02,1.29e+01,
479,-1.47e-02,1.27e+01,
480,-1.47e-02,1.27e+01,
481,-1.47e-02,1.27e+01,
482,-1.47e-02,1.25e+01,
483,-1.47e-02,1.25e+01,
484,-1.47e-02,1.25e+01,
485,-1.47e-02,1.25e+01,
486,-1.47e-02,1.23e+01,
487,-1.47e-02,1.23e+01,
488,-1.47e-02,1.21e+01,
489,-1.47e-02,1.21e+01,
490,-1.47e-02,1.21e+01,
491,-1.47e-02,1.21e+01,
492,-1.47e-02,1.19e+01,
493,-1.47e-02,1.19e+01,
494,-1.47e-02,1.17e+01,
495,-1.47e-02,1.17e+01,
496,-1.47e-02,1.17e+01,
497,-1.47e-02,1.17e+01,
498,-1.47e-02,1.13e+01,
499,-1.47e-02,1.13e+01,
500,-1.47e-02,1.11e+01,
501,-1.47e-02,1.13e+01,
502,-1.47e-02,1.11e+01,
503,-1.47e-02,1.11e+01,
504,-1.47e-02,1.11e+01,
505,-1.47e-02,1.09e+01,
506,-1.47e-02,1.09e+01,
507,-1.47e-02,1.09e+01,
508,-1.47e-02,1.07e+01,
509,-1.47e-02,1.09e+01,
510,-1.47e-02,1.07e+01,
511,-1.47e-02,1.07e+01,
512,-1.47e-02,1.05e+01,
513,-1.47e-02,1.05e+01,
514,-1.47e-02,1.05e+01,
515,-1.47e-02,1.05e+01,
516,-1.47e-02,1.03e+01,
517,-1.47e-02,1.03e+01,
518,-1.47e-02,1.01e+01,
519,-1.47e-02,1.01e+01,
520,-1.47e-02,1.01e+01,
521,-1.47e-02,1.01e+01,
522,-1.47e-02,1.01e+01,
523,-1.47e-02,9.90e+00,
524,-1.47e-02,9.70e+00,
525,-1.47e-02,9.90e+00,
526,-1.47e-02,9.70e+00,
527,-1.47e-02,9.70e+00,
528,-1.47e-02,9.70e+00,
529,-1.47e-02,9.70e+00,
530,-1.47e-02,9.50e+00,
531,-1.47e-02,9.50e+00,
532,-1.47e-02,9.30e+00,
533,-1.47e-02,9.50e+00,
534,-1.47e-02,9.30e+00,
535,4.90e-03,9.30e+00,
536,-1.47e-02,9.30e+00,
537,-1.47e-02,9.30e+00,
538,-1.47e-02,8.90e+00,
539,-1.47e-02,8.90e+00,
540,-1.47e-02,8.70e+00,
541,-1.47e-02,8.90e+00,
542,-1.47e-02,8.70e+00,
543,-1.47e-02,8.90e+00,
544,-1.47e-02,8.70e+00,
545,-1.47e-02,8.70e+00,
546,-1.47e-02,8.70e+00,
547,-1.47e-02,8.70e+00,
548,-1.47e-02,8.50e+00,
549,-1.47e-02,8.70e+00,
550,-1.47e-02,8.50e+00,
551,-1.47e-02,8.50e+00,
552,-1.47e-02,8.30e+00,
553,-1.47e-02,8.30e+00,
554,-1.47e-02,8.30e+00,
555,-1.47e-02,8.30e+00,
556,-1.47e-02,8.10e+00,
557,-1.47e-02,8.30e+00,
558,-1.47e-02,8.30e+00,
559,-1.47e-02,8.30e+00,
560,-1.47e-02,8.10e+00,
561,-1.47e-02,8.10e+00,
562,-1.47e-02,8.10e+00,
563,4.90e-03,8.10e+00,
564,-1.47e-02,7.90e+00,
565,-1.47e-02,7.90e+00,
566,-1.47e-02,7.90e+00,
567,-1.47e-02,7.90e+00,
568,-1.47e-02,7.90e+00,
569,-1.47e-02,7.90e+00,
570,-1.47e-02,7.70e+00,
571,-1.47e-02,7.90e+00,
572,-1.47e-02,7.70e+00,
573,-1.47e-02,7.70e+00,
574,-1.47e-02,7.70e+00,
575,-1.47e-02,7.70e+00,
576,-1.47e-02,7.70e+00,
577,-1.47e-02,7.70e+00,
578,-1.47e-02,7.70e+00,
579,-1.47e-02,7.70e+00,
580,-1.47e-02,7.50e+00,
581,-1.47e-02,7.70e+00,
582,-1.47e-02,7.50e+00,
583,4.90e-03,7.50e+00,
584,-1.47e-02,7.50e+00,
585,-1.47e-02,7.50e+00,
586,-1.47e-02,7.50e+00,
587,-1.47e-02,7.50e+00,
588,-1.47e-02,7.30e+00,
589,-1.47e-02,7.50e+00,
590,4.90e-03,7.50e+00,
591,-1.47e-02,7.50e+00,
592,-1.47e-02,7.50e+00,
593,-1.47e-02,7.30e+00,
594,-1.47e-02,7.30e+00,
595,-1.47e-02,7.30e+00,
596,-1.47e-02,7.30e+00,
597,-1.47e-02,7.50e+00,
598,-1.47e-02,7.30e+00,
599,-1.47e-02,7.50e+00,
600,-1.47e-02,7.30e+00,
601,-1.47e-02,7.30e+00,
602,-1.47e-02,7.30e+00,
603,-1.47e-02,7.30e+00,
604,-1.47e-02,7.30e+00,
605,-1.47e-02,7.30e+00,
606,-1.47e-02,7.30e+00,
607,-1.47e-02,7.30e+00,
608,-1.47e-02,7.10e+00,
609,-1.47e-02,7.30e+00,
610,-1.47e-02,7.30e+00,
611,-1.47e-02,7.30e+00,
612,-1.47e-02,7.30e+00,
613,-1.47e-02,7.30e+00,
614,-1.47e-02,7.30e+00,
615,4.90e-03,7.30e+00,
616,-1.47e-02,7.30e+00,
617,-1.47e-02,7.30e+00,
618,-1.47e-02,7.30e+00,
619,-1.47e-02,7.30e+00,
620,-1.47e-02,7.30e+00,
621,-1.47e-02,7.30e+00,
622,4.90e-03,7.30e+00,
623,4.90e-03,7.50e+00,
624,-1.47e-02,7.30e+00,
625,-1.47e-02,7.50e+00,
626,-1.47e-02,7.30e+00,
627,4.90e-03,7.50e+00,
628,-1.47e-02,7.30e+00,
629,-1.47e-02,7.50e+00,
630,-1.47e-02,7.50e+00,
631,-1.47e-02,7.50e+00,
632,-1.47e-02,7.30e+00,
633,-1.47e-02,7.50e+00,
634,-1.47e-02,7.50e+00,
635,-1.47e-02,7.50e+00,
636,-1.47e-02,7.50e+00,
637,-1.47e-02,7.50e+00,
638,-1.47e-02,7.50e+00,
639,4.90e-03,7.50e+00,
640,-1.47e-02,7.50e+00,
641,-1.47e-02,7.70e+00,
642,4.90e-03,7.70e+00,
643,-1.47e-02,7.70e+00,
644,-1.47e-02,7.50e+00,
645,-1.47e-02,7.70e+00,
646,-1.47e-02,7.70e+00,
647,4.90e-03,7.90e+00,
648,-1.47e-02,7.70e+00,
649,-1.47e-02,7.90e+00,
650,-1.47e-02,7.90e+00,
651,-1.47e-02,7.90e+00,
652,-1.47e-02,7.70e+00,
653,-1.47e-02,7.90e+00,
654,-1.47e-02,7.90e+00,
655,4.90e-03,7.90e+00,
656,-1.47e-02,7.90e+00,
657,-1.47e-02,8.10e+00,
658,-1.47e-02,7.90e+00,
659,-1.47e-02,8.10e+00,
660,-1.47e-02,8.10e+00,
661,-1.47e-02,8.10e+00,
662,4.90e-03,8.10e+00,
663,4.90e-03,8.30e+00,
664,-1.47e-02,8.10e+00,
665,-1.47e-02,8.30e+00,
666,-1.47e-02,8.30e+00,
667,4.90e-03,8.30e+00,
668,-1.47e-02,8.30e+00,
669,-1.47e-02,8.50e+00,
670,-1.47e-02,8.50e+00,
671,4.90e-03,8.50e+00,
672,-1.47e-02,8.50e+00,
673,-1.47e-02,8.50e+00,
674,4.90e-03,8.50e+00,
675,-1.47e-02,8.70e+00,
676,-1.47e-02,8.70e+00,
677,-1.47e-02,8.90e+00,
678,-1.47e-02,8.90e+00,
679,4.90e-03,8.90e+00,
680,-1.47e-02,8.70e+00,
681,-1.47e-02,8.90e+00,
682,-1.47e-02,8.90e+00,
683,-1.47e-02,8.90e+00,
684,-1.47e-02,8.90e+00,
685,-1.47e-02,9.30e+00,
686,-1.47e-02,9.30e+00,
687,4.90e-03,9.30e+00,
688,-1.47e-02,9.30e+00,
689,-1.47e-02,9.50e+00,
690,4.90e-03,9.50e+00,
691,-1.47e-02,9.70e+00,
692,-1.47e-02,9.50e+00,
693,-1.47e-02,9.70e+00,
694,-1.47e-02,9.70e+00,
695,4.90e-03,9.90e+00,
696,-1.47e-02,9.90e+00,
697,-1.47e-02,9.90e+00,
698,4.90e-03,9.90e+00,
699,-1.47e-02,9.90e+00,
700,-1.47e-02,9.90e+00,
701,-1.47e-02,1.01e+01,
702,-1.47e-02,1.01e+01,
703,4.90e-03,1.03e+01,
704,-1.47e-02,1.01e+01,
705,-1.47e-02,1.03e+01,
706,-1.47e-02,1.05e+01,
707,-1.47e-02,1.05e+01,
708,-1.47e-02,1.03e+01,
709,-1.47e-02,1.05e+01,
710,-1.47e-02,1.05e+01,
711,-1.47e-02,1.07e+01,
712,-1.47e-02,1.07e+01,
713,-1.47e-02,1.07e+01,
714,-1.47e-02,1.07e+01,
715,-1.47e-02,1.09e+01,
716,-1.47e-02,1.09e+01,
717,-1.47e-02,1.09e+01,
718,-1.47e-02,1.09e+01,
719,4.90e-03,1.11e+01,
720,-1.47e-02,1.11e+01,
721,-1.47e-02,1.11e+01,
722,-1.47e-02,1.13e+01,
723,-1.47e-02,1.13e+01,
724,-1.47e-02,1.13e+01,
725,-1.47e-02,1.13e+01,
726,-1.47e-02,1.13e+01,
727,4.90e-03,1.17e+01,
728,-1.47e-02,1.17e+01,
729,-1.47e-02,1.19e+01,
730,-1.47e-02,1.19e+01,
731,-1.47e-02,1.19e+01,
732,-1.47e-02,1.19e+01,
733,-1.47e-02,1.21e+01,
734,-1.47e-02,1.21e+01,
735,4.90e-03,1.21e+01,
736,-1.47e-02,1.21e+01,
737,-1.47e-02,1.23e+01,
738,-1.47e-02,1.23e+01,
739,-1.47e-02,1.25e+01,
740,-1.47e-02,1.23e+01,
741,-1.47e-02,1.25e+01,
742,-1.47e-02,1.25e+01,
743,-1.47e-02,1.25e+01,
744,-1.47e-02,1.25e+01,
745,-1.47e-02,1.27e+01,
746,-1.47e-02,1.27e+01,
747,-1.47e-02,1.27e+01,
748,-1.47e-02,1.27e+01,
749,-1.47e-02,1.29e+01,
750,-1.47e-02,1.31e+01,
751,4.90e-03,1.31e+01,
752,-1.47e-02,1.31e+01,
753,-1.47e-02,1.31e+01,
754,-1.47e-02,1.33e+01,
755,-1.47e-02,1.33e+01,
756,-1.47e-02,1.31e+01,
757,-1.47e-02,1.33e+01,
758,-1.47e-02,1.33e+01,
759,-1.47e-02,1.35e+01,
760,-1.47e-02,1.35e+01,
761,-1.47e-02,1.35e+01,
762,-1.47e-02,1.35e+01,
763,-1.47e-02,1.39e+01,
764,-1.47e-02,1.39e+01,
765,-1.47e-02,1.39e+01,
766,4.90e-03,1.39e+01,
767,-1.47e-02,1.41e+01,
768,-1.47e-02,1.41e+01,
769,-1.47e-02,1.41e+01,
770,-1.47e-02,1.41e+01,
771,-1.47e-02,1.41e+01,
772,-1.47e-02,1.41e+01,
773,-1.47e-02,1.43e+01,
774,-1.47e-02,1.43e+01,
775,-1.47e-02,1.43e+01,
776,-1.47e-02,1.43e+01,
777,-1.47e-02,1.45e+01,
778,-1.47e-02,1.45e+01,
779,-1.47e-02,1.45e+01,
780,-1.47e-02,1.45e+01,
781,-1.47e-02,1.45e+01,
782,-1.47e-02,1.45e+01,
783,4.90e-03,1.47e+01,
784,-1.47e-02,1.47e+01,
785,-1.47e-02,1.47e+01,
786,-1.47e-02,1.47e+01,
787,-1.47e-02,1.47e+01,
788,-1.47e-02,1.47e+01,
789,-1.47e-02,1.49e+01,
790,-1.47e-02,1.49e+01,
791,-1.47e-02,1.49e+01,
792,-1.47e-02,1.49e+01,
793,-1.47e-02,1.49e+01,
794,-1.47e-02,1.49e+01,
795,-1.47e-02,1.49e+01,
796,-1.47e-02,1.49e+01,
797,-1.47e-02,1.49e+01,
798,-1.47e-02,1.49e+01,
799,-1.47e-02,1.51e+01,
800,-1.47e-02,1.49e+01,
801,-1.47e-02,1.51e+01,
802,-1.47e-02,1.51e+01,
803,-1.47e-02,1.51e+01,
804,-1.47e-02,1.51e+01,
805,-1.47e-02,1.51e+01,
806,-1.47e-02,1.53e+01,
807,-1.47e-02,1.53e+01,
808,-1.47e-02,1.51e+01,
809,-1.47e-02,1.53e+01,
810,-1.47e-02,1.51e+01,
811,-1.47e-02,1.51e+01,
812,-1.47e-02,1.51e+01,
813,-1.47e-02,1.53e+01,
814,-1.47e-02,1.53e+01,
815,-1.47e-02,1.53e+01,
816,-1.47e-02,1.53e+01,
817,-1.47e-02,1.53e+01,
818,-1.47e-02,1.53e+01,
819,-1.47e-02,1.53e+01,
820,-1.47e-02,1.51e+01,
821,-1.47e-02,1.53e+01,
822,-1.47e-02,1.51e+01,
823,-1.47e-02,1.51e+01,
824,-1.47e-02,1.53e+01,
825,-1.47e-02,1.53e+01,
826,-1.47e-02,1.51e+01,
827,-1.47e-02,1.51e+01,
828,-1.47e-02,1.51e+01,
829,-1.47e-02,1.53e+01,
830,-1.47e-02,1.51e+01,
831,-1.47e-02,1.51e+01,
832,-1.47e-02,1.51e+01,
833,-1.47e-02,1.51e+01,
834,-1.47e-02,1.51e+01,
835,-1.47e-02,1.51e+01,
