Lab 3/T3-8.94V.csv

X,CH1,CH2,Start,Increment,
Sequence,Volt,Volt,-1.060000e-05,2.000000e-09
0,4.90e-03,9.30e+00,
1,4.90e-03,9.30e+00,
2,-1.47e-02,9.30e+00,
3,-1.47e-02,9.50e+00,
4,-1.47e-02,9.30e+00,
5,4.90e-03,9.50e+00,
6,-1.47e-02,9.50e+00,
7,-1.47e-02,9.70e+00,
8,4.90e-03,9.70e+00,
9,-1.47e-02,9.70e+00,
10,-1.47e-02,9.90e+00,
11,-1.47e-02,9.90e+00,
12,-1.47e-02,1.01e+01,
13,4.90e-03,1.01e+01,
14,-1.47e-02,1.01e+01,
15,-1.47e-02,1.03e+01,
16,4.90e-03,1.03e+01,
17,-1.47e-02,1.05e+01,
18,-1.47e-02,1.05e+01,
19,-1.47e-02,1.05e+01,
20,-1.47e-02,1.07e+01,
21,4.90e-03,1.07e+01,
22,-1.47e-02,1.07e+01,
23,-1.47e-02,1.09e+01,
24,-1.47e-02,1.09e+01,
25,4.90e-03,1.11e+01,
26,-1.47e-02,1.09e+01,
27,-1.47e-02,1.11e+01,
28,4.90e-03,1.11e+01,
29,-1.47e-02,1.13e+01,
30,-1.47e-02,1.13e+01,
31,-1.47e-02,1.17e+01,
32,-1.47e-02,1.17e+01,
33,-1.47e-02,1.19e+01,
34,-1.47e-02,1.19e+01,
35,-1.47e-02,1.19e+01,
36,4.90e-03,1.19e+01,
37,-1.47e-02,1.21e+01,
38,-1.47e-02,1.21e+01,
39,-1.47e-02,1.23e+01,
40,-1.47e-02,1.23e+01,
41,-1.47e-02,1.23e+01,
42,-1.47e-02,1.25e+01,
43,-1.47e-02,1.25e+01,
44,-1.47e-02,1.25e+01,
45,-1.47e-02,1.27e+01,
46,-1.47e-02,1.25e+01,
47,-1.47e-02,1.27e+01,
48,-1.47e-02,1.29e+01,
49,-1.47e-02,1.29e+01,
50,-1.47e-02,1.29e+01,
51,-1.47e-02,1.29e+01,
52,-1.47e-02,1.31e+01,
53,-1.47e-02,1.31e+01,
54,-1.47e-02,1.31e+01,
55,-1.47e-02,1.33e+01,
56,-1.47e-02,1.33e+01,
57,-1.47e-02,1.35e+01,
58,-1.47e-02,1.35e+01,
59,-1.47e-02,1.35e+01,
60,-1.47e-02,1.35e+01,
61,-1.47e-02,1.35e+01,
62,-1.47e-02,1.35e+01,
63,-1.47e-02,1.39e+01,
64,-1.47e-02,1.39e+01,
65,-1.47e-02,1.41e+01,
66,-1.47e-02,1.39e+01,
67,-1.47e-02,1.41e+01,
68,-1.47e-02,1.41e+01,
69,-1.47e-02,1.41e+01,
70,-1.47e-02,1.41e+01,
71,-1.47e-02,1.43e+01,
72,-1.47e-02,1.43e+01,
73,-1.47e-02,1.45e+01,
74,-1.47e-02,1.43e+01,
75,-1.47e-02,1.45e+01,
76,4.90e-03,1.43e+01,
77,-1.47e-02,1.45e+01,
78,-1.47e-02,1.45e+01,
79,-1.47e-02,1.47e+01,
80,-1.47e-02,1.47e+01,
81,-1.47e-02,1.47e+01,
82,-1.47e-02,1.47e+01,
83,-1.47e-02,1.47e+01,
84,-1.47e-02,1.47e+01,
85,-1.47e-02,1.47e+01,
86,-1.47e-02,1.47e+01,
87,-1.47e-02,1.47e+01,
88,-1.47e-02,1.47e+01,
89,-1.47e-02,1.49e+01,
90,-1.47e-02,1.49e+01,
91,-1.47e-02,1.49e+01,
92,-1.47e-02,1.49e+01,
93,-1.47e-02,1.49e+01,
94,-1.47e-02,1.49e+01,
95,-1.47e-02,1.51e+01,
96,-1.47e-02,1.49e+01,
97,-1.47e-02,1.51e+01,
98,-1.47e-02,1.49e+01,
99,-1.47e-02,1.51e+01,
100,-1.47e-02,1.49e+01,
101,-1.47e-02,1.51e+01,
102,-1.47e-02,1.49e+01,
103,-1.47e-02,1.51e+01,
104,-1.47e-02,1.49e+01,
105,-1.47e-02,1.51e+01,
106,-1.47e-02,1.49e+01,
107,-1.47e-02,1.51e+01,
108,-1.47e-02,1.51e+01,
109,-1.47e-02,1.51e+01,
110,-1.47e-02,1.49e+01,
111,-1.47e-02,1.51e+01,
112,-1.47e-02,1.49e+01,
113,-1.47e-02,1.51e+01,
114,-1.47e-02,1.49e+01,
115,-1.47e-02,1.49e+01,
116,-1.47e-02,1.49e+01,
117,-1.47e-02,1.49e+01,
118,-1.47e-02,1.49e+01,
119,-1.47e-02,1.49e+01,
120,-1.47e-02,1.49e+01,
121,-1.47e-02,1.49e+01,
122,-1.47e-02,1.49e+01,
123,-1.47e-02,1.49e+01,
124,-1.47e-02,1.49e+01,
125,-1.47e-02,1.47e+01,
126,-1.47e-02,1.47e+01,
127,-1.47e-02,1.47e+01,
128,-1.47e-02,1.47e+01,
129,-1.47e-02,1.47e+01,
130,-1.47e-02,1.47e+01,
131,-1.47e-02,1.47e+01,
132,-1.47e-02,1.45e+01,
133,-1.47e-02,1.47e+01,
134,-1.47e-02,1.45e+01,
135,-1.47e-02,1.47e+01,
136,-1.47e-02,1.45e+01,
137,-1.47e-02,1.45e+01,
138,-1.47e-02,1.43e+01,
139,-1.47e-02,1.43e+01,
140,-1.47e-02,1.43e+01,
141,-1.47e-02,1.43e+01,
142,-1.47e-02,1.41e+01,
143,-1.47e-02,1.43e+01,
144,-1.47e-02,1.41e+01,
145,-1.47e-02,1.43e+01,
146,-1.47e-02,1.41e+01,
147,-1.47e-02,1.41e+01,
148,-1.47e-02,1.39e+01,
149,-1.47e-02,1.39e+01,
150,-1.47e-02,1.35e+01,
151,-1.47e-02,1.39e+01,
152,-1.47e-02,1.35e+01,
153,-1.47e-02,1.35e+01,
154,-1.47e-02,1.33e+01,
155,-1.47e-02,1.33e+01,
156,-1.47e-02,1.33e+01,
157,-1.47e-02,1.33e+01,
158,-1.47e-02,1.31e+01,
159,-1.47e-02,1.31e+01,
160,-1.47e-02,1.31e+01,
161,-1.47e-02,1.31e+01,
162,-1.47e-02,1.29e+01,
163,-1.47e-02,1.29e+01,
164,-1.47e-02,1.27e+01,
165,-1.47e-02,1.27e+01,
166,-1.47e-02,1.27e+01,
167,-1.47e-02,1.27e+01,
168,-1.47e-02,1.25e+01,
169,-1.47e-02,1.25e+01,
170,-1.47e-02,1.23e+01,
171,-1.47e-02,1.25e+01,
172,-1.47e-02,1.23e+01,
173,-1.47e-02,1.23e+01,
174,-1.47e-02,1.23e+01,
175,-1.47e-02,1.21e+01,
176,-1.47e-02,1.21e+01,
177,-1.47e-02,1.21e+01,
178,-1.47e-02,1.19e+01,
179,-1.47e-02,1.17e+01,
180,-1.47e-02,1.17e+01,
181,-1.47e-02,1.17e+01,
182,-1.47e-02,1.13e+01,
183,-1.47e-02,1.13e+01,
184,-1.47e-02,1.13e+01,
185,-1.47e-02,1.11e+01,
186,-1.47e-02,1.11e+01,
187,-1.47e-02,1.11e+01,
188,-1.47e-02,1.11e+01,
189,-1.47e-02,1.09e+01,
190,-1.47e-02,1.09e+01,
191,-1.47e-02,1.09e+01,
192,-1.47e-02,1.07e+01,
193,-1.47e-02,1.07e+01,
194,-1.47e-02,1.05e+01,
195,-1.47e-02,1.05e+01,
196,-1.47e-02,1.05e+01,
197,-1.47e-02,1.03e+01,
198,-1.47e-02,1.01e+01,
199,-1.47e-02,1.03e+01,
200,-1.47e-02,1.01e+01,
201,-1.47e-02,1.01e+01,
202,-1.47e-02,9.90e+00,
203,-1.47e-02,9.90e+00,
204,-1.47e-02,9.90e+00,
205,-1.47e-02,9.90e+00,
206,-1.47e-02,9.70e+00,
207,-1.47e-02,9.70e+00,
208,-1.47e-02,9.50e+00,
209,-1.47e-02,9.50e+00,
210,-1.47e-02,9.30e+00,
211,-1.47e-02,9.50e+00,
212,-1.47e-02,9.30e+00,
213,-1.47e-02,9.30e+00,
214,-1.47e-02,8.90e+00,
215,-1.47e-02,8.90e+00,
216,-1.47e-02,8.90e+00,
217,-1.47e-02,8.90e+00,
218,-1.47e-02,8.70e+00,
219,-1.47e-02,8.70e+00,
220,-1.47e-02,8.50e+00,
221,-1.47e-02,8.50e+00,
222,-1.47e-02,8.30e+00,
223,-1.47e-02,8.50e+00,
224,-1.47e-02,8.30e+00,
225,-1.47e-02,8.30e+00,
226,-1.47e-02,8.30e+00,
227,-1.47e-02,8.10e+00,
228,-1.47e-02,8.10e+00,
229,-1.47e-02,7.90e+00,
230,-1.47e-02,7.90e+00,
231,-1.47e-02,7.90e+00,
232,-1.47e-02,7.90e+00,
233,-1.47e-02,7.70e+00,
234,-1.47e-02,7.70e+00,
235,-1.47e-02,7.70e+00,
236,-1.47e-02,7.50e+00,
237,-1.47e-02,7.50e+00,
238,-1.47e-02,7.30e+00,
239,-1.47e-02,7.50e+00,
240,-1.47e-02,7.30e+00,
241,-1.47e-02,7.30e+00,
242,-1.47e-02,7.10e+00,
243,-1.47e-02,7.30e+00,
244,-1.47e-02,7.10e+00,
245,-1.47e-02,7.10e+00,
246,-1.47e-02,6.90e+00,
247,-1.47e-02,7.10e+00,
248,-1.47e-02,6.90e+00,
249,-1.47e-02,6.90e+00,
250,-1.47e-02,6.90e+00,
251,-1.47e-02,6.50e+00,
252,-1.47e-02,6.90e+00,
253,-1.47e-02,6.50e+00,
254,-1.47e-02,6.50e+00,
255,-1.47e-02,6.50e+00,
256,-1.47e-02,6.50e+00,
257,-1.47e-02,6.50e+00,
258,-1.47e-02,6.30e+00,
259,-1.47e-02,6.30e+00,
260,-1.47e-02,6.30e+00,
261,-1.47e-02,6.10e+00,
262,-1.47e-02,6.10e+00,
263,-1.47e-02,6.10e+00,
264,-1.47e-02,6.10e+00,
265,-1.47e-02,6.10e+00,
266,-1.47e-02,5.90e+00,
267,-1.47e-02,5.90e+00,
268,-1.47e-02,5.90e+00,
269,-1.47e-02,5.90e+00,
270,-1.47e-02,5.70e+00,
271,-1.47e-02,5.90e+00,
272,-1.47e-02,5.70e+00,
273,-1.47e-02,5.90e+00,
274,-1.47e-02,5.70e+00,
275,-1.47e-02,5.70e+00,
276,-1.47e-02,5.50e+00,
277,-1.47e-02,5.70e+00,
278,-1.47e-02,5.50e+00,
279,-1.47e-02,5.50e+00,
280,-1.47e-02,5.50e+00,
281,-1.47e-02,5.50e+00,
282,-1.47e-02,5.50e+00,
283,-1.47e-02,5.50e+00,
284,-1.47e-02,5.30e+00,
285,-1.47e-02,5.50e+00,
286,-1.47e-02,5.30e+00,
287,-1.47e-02,5.30e+00,
288,-1.47e-02,5.30e+00,
289,-1.47e-02,5.30e+00,
290,-1.47e-02,5.10e+00,
291,-1.47e-02,5.10e+00,
292,-1.47e-02,5.10e+00,
293,-1.47e-02,5.30e+00,
294,-1.47e-02,5.10e+00,
295,-1.47e-02,5.10e+00,
296,-1.47e-02,5.10e+00,
297,-1.47e-02,5.10e+00,
298,-1.47e-02,5.10e+00,
299,-1.47e-02,5.10e+00,
300,-1.47e-02,4.90e+00,
301,-1.47e-02,5.10e+00,
302,-1.47e-02,4.90e+00,
303,-1.47e-02,5.10e+00,
304,-1.47e-02,4.90e+00,
305,-1.47e-02,5.10e+00,
306,-1.47e-02,4.90e+00,
307,-1.47e-02,4.90e+00,
308,-1.47e-02,4.90e+00,
309,-1.47e-02,4.90e+00,
310,-1.47e-02,4.90e+00,
311,-1.47e-02,4.90e+00,
312,-1.47e-02,4.90e+00,
313,-1.47e-02,4.90e+00,
314,-1.47e-02,4.90e+00,
315,-1.47e-02,4.90e+00,
316,-1.47e-02,4.70e+00,
317,-1.47e-02,4.90e+00,
318,-1.47e-02,4.90e+00,
319,-1.47e-02,4.90e+00,
320,-1.47e-02,4.90e+00,
321,-1.47e-02,4.90e+00,
322,-1.47e-02,4.90e+00,
323,-1.47e-02,4.90e+00,
324,-1.47e-02,4.90e+00,
325,-1.47e-02,4.90e+00,
326,-1.47e-02,4.70e+00,
327,-1.47e-02,4.90e+00,
328,-1.47e-02,4.90e+00,
329,-1.47e-02,4.90e+00,
330,-1.47e-02,4.90e+00,
331,-1.47e-02,4.90e+00,
332,-1.47e-02,4.90e+00,
333,-1.47e-02,4.90e+00,
334,-1.47e-02,4.90e+00,
335,-1.47e-02,4.90e+00,
336,-1.47e-02,4.90e+00,
337,-1.47e-02,4.90e+00,
338,-1.47e-02,4.90e+00,
339,-1.47e-02,4.90e+00,
340,-1.47e-02,4.90e+00,
341,4.90e-03,5.10e+00,
342,-1.47e-02,4.90e+00,
343,-1.47e-02,4.90e+00,
344,-1.47e-02,4.90e+00,
345,-1.47e-02,4.90e+00,
346,-1.47e-02,4.90e+00,
347,-1.47e-02,5.10e+00,
348,4.90e-03,5.10e+00,
349,-1.47e-02,5.10e+00,
350,-1.47e-02,4.90e+00,
351,-1.47e-02,5.10e+00,
352,4.90e-03,5.10e+00,
353,4.90e-03,5.10e+00,
354,-1.47e-02,5.10e+00,
355,-1.47e-02,5.30e+00,
356,4.90e-03,5.10e+00,
357,4.90e-03,5.30e+00,
358,-1.47e-02,5.10e+00,
359,-1.47e-02,5.30e+00,
360,-1.47e-02,5.30e+00,
361,4.90e-03,5.30e+00,
362,-1.47e-02,5.30e+00,
363,-1.47e-02,5.50e+00,
364,-1.47e-02,5.30e+00,
365,4.90e-03,5.30e+00,
366,-1.47e-02,5.30e+00,
367,-1.47e-02,5.50e+00,
368,-1.47e-02,5.50e+00,
369,4.90e-03,5.50e+00,
370,-1.47e-02,5.50e+00,
371,-1.47e-02,5.50e+00,
372,4.90e-03,5.50e+00,
373,4.90e-03,5.70e+00,
374,-1.47e-02,5.50e+00,
375,-1.47e-02,5.70e+00,
376,4.90e-03,5.70e+00,
377,4.90e-03,5.70e+00,
378,-1.47e-02,5.70e+00,
379,-1.47e-02,5.90e+00,
380,-1.47e-02,5.70e+00,
381,4.90e-03,5.90e+00,
382,-1.47e-02,5.90e+00,
383,-1.47e-02,5.90e+00,
384,-1.47e-02,5.90e+00,
385,4.90e-03,6.10e+00,
386,-1.47e-02,5.90e+00,
387,-1.47e-02,6.10e+00,
388,4.90e-03,6.10e+00,
389,4.90e-03,6.10e+00,
390,-1.47e-02,6.10e+00,
391,-1.47e-02,6.30e+00,
392,-1.47e-02,6.30e+00,
393,4.90e-03,6.50e+00,
394,-1.47e-02,6.30e+00,
395,-1.47e-02,6.30e+00,
396,4.90e-03,6.50e+00,
397,-1.47e-02,6.50e+00,
398,-1.47e-02,6.50e+00,
399,-1.47e-02,6.90e+00,
400,4.90e-03,6.90e+00,
401,4.90e-03,6.90e+00,
402,-1.47e-02,6.90e+00,
403,-1.47e-02,6.90e+00,
404,-1.47e-02,6.90e+00,
405,4.90e-03,7.10e+00,
406,-1.47e-02,7.10e+00,
407,-1.47e-02,7.30e+00,
408,4.90e-03,7.30e+00,
409,4.90e-03,7.30e+00,
410,-1.47e-02,7.30e+00,
411,-1.47e-02,7.50e+00,
412,-1.47e-02,7.30e+00,
413,4.90e-03,7.50e+00,
414,4.90e-03,7.50e+00,
415,-1.47e-02,7.50e+00,
416,4.90e-03,7.70e+00,
417,-1.47e-02,7.70e+00,
418,-1.47e-02,7.70e+00,
419,-1.47e-02,7.90e+00,
420,4.90e-03,7.90e+00,
421,4.90e-03,8.10e+00,
422,-1.47e-02,7.90e+00,
423,-1.47e-02,8.10e+00,
424,-1.47e-02,8.10e+00,
425,4.90e-03,8.10e+00,
426,-1.47e-02,8.10e+00,
427,-1.47e-02,8.30e+00,
428,4.90e-03,8.30e+00,
429,4.90e-03,8.30e+00,
430,-1.47e-02,8.30e+00,
431,-1.47e-02,8.50e+00,
432,4.90e-03,8.50e+00,
433,4.90e-03,8.70e+00,
434,-1.47e-02,8.70e+00,
435,-1.47e-02,8.70e+00,
436,4.90e-03,8.90e+00,
437,4.90e-03,8.90e+00,
438,-1.47e-02,8.70e+00,
439,-1.47e-02,9.30e+00,
440,4.90e-03,9.30e+00,
441,4.90e-03,9.30e+00,
442,-1.47e-02,9.30e+00,
443,-1.47e-02,9.50e+00,
444,-1.47e-02,9.50e+00,
445,4.90e-03,9.50e+00,
446,-1.47e-02,9.50e+00,
447,-1.47e-02,9.70e+00,
448,4.90e-03,9.70e+00,
449,4.90e-03,9.90e+00,
450,-1.47e-02,9.90e+00,
451,-1.47e-02,9.90e+00,
452,4.90e-03,9.90e+00,
453,4.90e-03,1.01e+01,
454,-1.47e-02,1.01e+01,
455,-1.47e-02,1.03e+01,
456,4.90e-03,1.03e+01,
457,4.90e-03,1.03e+01,
458,-1.47e-02,1.03e+01,
459,-1.47e-02,1.05e+01,
460,4.90e-03,1.05e+01,
461,-1.47e-02,1.07e+01,
462,4.90e-03,1.05e+01,
463,-1.47e-02,1.07e+01,
464,-1.47e-02,1.09e+01,
465,4.90e-03,1.09e+01,
466,-1.47e-02,1.09e+01,
467,-1.47e-02,1.09e+01,
468,-1.47e-02,1.11e+01,
469,4.90e-03,1.11e+01,
470,-1.47e-02,1.11e+01,
471,-1.47e-02,1.13e+01,
472,-1.47e-02,1.13e+01,
473,4.90e-03,1.17e+01,
474,-1.47e-02,1.17e+01,
475,-1.47e-02,1.17e+01,
476,-1.47e-02,1.17e+01,
477,-1.47e-02,1.17e+01,
478,-1.47e-02,1.19e+01,
479,-1.47e-02,1.19e+01,
480,-1.47e-02,1.21e+01,
481,4.90e-03,1.21e+01,
482,-1.47e-02,1.21e+01,
483,-1.47e-02,1.21e+01,
484,-1.47e-02,1.23e+01,
485,-1.47e-02,1.23e+01,
486,-1.47e-02,1.23e+01,
487,-1.47e-02,1.25e+01,
488,-1.47e-02,1.25e+01,
489,-1.47e-02,1.25e+01,
490,-1.47e-02,1.25e+01,
491,-1.47e-02,1.25e+01,
492,-1.47e-02,1.27e+01,
493,-1.47e-02,1.27e+01,
494,-1.47e-02,1.27e+01,
495,-1.47e-02,1.29e+01,
496,-1.47e-02,1.29e+01,
497,-1.47e-02,1.29e+01,
498,-1.47e-02,1.29e+01,
499,-1.47e-02,1.31e+01,
500,-1.47e-02,1.29e+01,
501,-1.47e-02,1.31e+01,
502,-1.47e-02,1.31e+01,
503,-1.47e-02,1.31e+01,
504,-1.47e-02,1.33e+01,
505,-1.47e-02,1.33e+01,
506,-1.47e-02,1.33e+01,
507,-1.47e-02,1.33e+01,
508,-1.47e-02,1.33e+01,
509,-1.47e-02,1.35e+01,
510,-1.47e-02,1.35e+01,
511,-1.47e-02,1.35e+01,
512,-1.47e-02,1.39e+01,
513,4.90e-03,1.39e+01,
514,-1.47e-02,1.39e+01,
515,-1.47e-02,1.39e+01,
516,-1.47e-02,1.39e+01,
517,-1.47e-02,1.39e+01,
518,-1.47e-02,1.39e+01,
519,-1.47e-02,1.41e+01,
520,-1.47e-02,1.39e+01,
521,-1.47e-02,1.41e+01,
522,-1.47e-02,1.41e+01,
523,-1.47e-02,1.41e+01,
524,-1.47e-02,1.41e+01,
525,-1.47e-02,1.41e+01,
526,-1.47e-02,1.41e+01,
527,-1.47e-02,1.41e+01,
528,-1.47e-02,1.41e+01,
529,-1.47e-02,1.43e+01,
530,-1.47e-02,1.41e+01,
531,-1.47e-02,1.43e+01,
532,-1.47e-02,1.43e+01,
533,-1.47e-02,1.43e+01,
534,-1.47e-02,1.43e+01,
535,-1.47e-02,1.43e+01,
536,-1.47e-02,1.43e+01,
537,-1.47e-02,1.43e+01,
538,-1.47e-02,1.43e+01,
539,-1.47e-02,1.43e+01,
540,-1.47e-02,1.43e+01,
541,-1.47e-02,1.43e+01,
542,-1.47e-02,1.43e+01,
543,-1.47e-02,1.45e+01,
544,-1.47e-02,1.43e+01,
545,-1.47e-02,1.43e+01,
546,-1.47e-02,1.43e+01,
547,-1.47e-02,1.45e+01,
548,-1.47e-02,1.43e+01,
549,-1.47e-02,1.43e+01,
550,-1.47e-02,1.43e+01,
551,-1.47e-02,1.45e+01,
552,-1.47e-02,1.43e+01,
553,-1.47e-02,1.45e+01,
554,-1.47e-02,1.43e+01,
555,-1.47e-02,1.43e+01,
556,-1.47e-02,1.43e+01,
557,-1.47e-02,1.43e+01,
558,-1.47e-02,1.43e+01,
559,-1.47e-02,1.43e+01,
560,-1.47e-02,1.43e+01,
561,-1.47e-02,1.43e+01,
562,-1.47e-02,1.41e+01,
563,-1.47e-02,1.43e+01,
564,-1.47e-02,1.41e+01,
565,-1.47e-02,1.41e+01,
566,-1.47e-02,1.41e+01,
567,-1.47e-02,1.43e+01,
568,-1.47e-02,1.41e+01,
569,-1.47e-02,1.41e+01,
570,-1.47e-02,1.41e+01,
571,-1.47e-02,1.41e+01,
572,-1.47e-02,1.39e+01,
573,-1.47e-02,1.39e+01,
574,-1.47e-02,1.39e+01,
575,-1.47e-02,1.39e+01,
576,-1.47e-02,1.39e+01,
577,-1.47e-02,1.39e+01,
578,-1.47e-02,1.35e+01,
579,-1.47e-02,1.35e+01,
580,-1.47e-02,1.35e+01,
581,-1.47e-02,1.35e+01,
582,-1.47e-02,1.33e+01,
583,-1.47e-02,1.35e+01,
584,-1.47e-02,1.33e+01,
585,-1.47e-02,1.33e+01,
586,-1.47e-02,1.31e+01,
587,-1.47e-02,1.33e+01,
588,-1.47e-02,1.33e+01,
589,-1.47e-02,1.31e+01,
590,-1.47e-02,1.31e+01,
591,-1.47e-02,1.31e+01,
592,-1.47e-02,1.31e+01,
593,-1.47e-02,1.31e+01,
594,-1.47e-02,1.27e+01,
595,-1.47e-02,1.29e+01,
596,-1.47e-02,1.29e+01,
597,-1.47e-02,1.27e+01,
598,-1.47e-02,1.27e+01,
599,-1.47e-02,1.27e+01,
600,-1.47e-02,1.27e+01,
601,-1.47e-02,1.25e+01,
602,-1.47e-02,1.25e+01,
603,-1.47e-02,1.25e+01,
604,-1.47e-02,1.23e+01,
605,-1.47e-02,1.23e+01,
606,-1.47e-02,1.21e+01,
607,-1.47e-02,1.23e+01,
608,-1.47e-02,1.23e+01,
609,-1.47e-02,1.23e+01,
610,-1.47e-02,1.21e+01,
611,-1.47e-02,1.21e+01,
612,-1.47e-02,1.19e+01,
613,-1.47e-02,1.19e+01,
614,-1.47e-02,1.17e+01,
615,-1.47e-02,1.19e+01,
616,-1.47e-02,1.17e+01,
617,-1.47e-02,1.17e+01,
618,-1.47e-02,1.13e+01,
619,-1.47e-02,1.13e+01,
620,-1.47e-02,1.13e+01,
621,-1.47e-02,1.13e+01,
622,-1.47e-02,1.11e+01,
623,-1.47e-02,1.11e+01,
624,-1.47e-02,1.11e+01,
625,-1.47e-02,1.11e+01,
626,-1.47e-02,1.09e+01,
627,-1.47e-02,1.09e+01,
628,-1.47e-02,1.09e+01,
629,-1.47e-02,1.07e+01,
630,-1.47e-02,1.07e+01,
631,-1.47e-02,1.07e+01,
632,-1.47e-02,1.05e+01,
633,-1.47e-02,1.05e+01,
634,-1.47e-02,1.05e+01,
635,-1.47e-02,1.03e+01,
636,-1.47e-02,1.03e+01,
637,-1.47e-02,1.03e+01,
638,-1.47e-02,1.01e+01,
639,-1.47e-02,1.01e+01,
640,-1.47e-02,9.90e+00,
641,-1.47e-02,1.01e+01,
642,-1.47e-02,9.90e+00,
643,-1.47e-02,9.90e+00,
644,-1.47e-02,9.70e+00,
645,-1.47e-02,9.70e+00,
646,-1.47e-02,9.50e+00,
647,-1.47e-02,9.70e+00,
648,-1.47e-02,9.50e+00,
649,-1.47e-02,9.50e+00,
650,-1.47e-02,9.50e+00,
651,-1.47e-02,9.30e+00,
652,-1.47e-02,9.30e+00,
653,-1.47e-02,9.30e+00,
654,-1.47e-02,8.90e+00,
655,-1.47e-02,8.90e+00,
656,-1.47e-02,8.90e+00,
657,-1.47e-02,8.90e+00,
658,-1.47e-02,8.70e+00,
659,-1.47e-02,8.70e+00,
660,-1.47e-02,8.70e+00,
661,-1.47e-02,8.70e+00,
662,-1.47e-02,8.50e+00,
663,-1.47e-02,8.50e+00,
664,-1.47e-02,8.50e+00,
665,-1.47e-02,8.50e+00,
666,-1.47e-02,8.30e+00,
667,-1.47e-02,8.10e+00,
668,-1.47e-02,8.10e+00,
669,-1.47e-02,8.10e+00,
670,-1.47e-02,7.90e+00,
671,-1.47e-02,8.10e+00,
672,-1.47e-02,8.10e+00,
673,-1.47e-02,7.90e+00,
674,-1.47e-02,7.70e+00,
675,-1.47e-02,7.90e+00,
676,-1.47e-02,7.70e+00,
677,-1.47e-02,7.70e+00,
678,-1.47e-02,7.70e+00,
679,-1.47e-02,7.70e+00,
680,-1.47e-02,7.70e+00,
681,-1.47e-02,7.50e+00,
682,-1.47e-02,7.50e+00,
683,-1.47e-02,7.50e+00,
684,-1.47e-02,7.30e+00,
685,-1.47e-02,7.30e+00,
686,-1.47e-02,7.30e+00,
687,-1.47e-02,7.30e+00,
688,-1.47e-02,7.30e+00,
689,-1.47e-02,7.30e+00,
690,-1.47e-02,7.10e+00,
691,-1.47e-02,7.10e+00,
692,-1.47e-02,6.90e+00,
693,-1.47e-02,6.90e+00,
694,-1.47e-02,6.90e+00,
695,-1.47e-02,6.90e+00,
696,-1.47e-02,6.90e+00,
697,-1.47e-02,6.90e+00,
698,-1.47e-02,6.50e+00,
699,-1.47e-02,6.50e+00,
700,-1.47e-02,6.50e+00,
701,-1.47e-02,6.50e+00,
702,-1.47e-02,6.30e+00,
703,-1.47e-02,6.30e+00,
704,-1.47e-02,6.50e+00,
705,-1.47e-02,6.30e+00,
706,-1.47e-02,6.30e+00,
707,-1.47e-02,6.30e+00,
708,-1.47e-02,6.10e+00,
709,-1.47e-02,6.10e+00,
710,-1.47e-02,5.90e+00,
711,-1.47e-02,6.30e+00,
712,-1.47e-02,6.10e+00,
713,-1.47e-02,6.10e+00,
714,-1.47e-02,6.10e+00,
715,-1.47e-02,5.90e+00,
716,-1.47e-02,5.90e+00,
717,-1.47e-02,5.90e+00,
718,-1.47e-02,5.90e+00,
719,-1.47e-02,5.90e+00,
720,-1.47e-02,5.90e+00,
721,-1.47e-02,5.90e+00,
722,-1.47e-02,5.70e+00,
723,-1.47e-02,5.90e+00,
724,-1.47e-02,5.70e+00,
725,-1.47e-02,5.90e+00,
726,-1.47e-02,5.70e+00,
727,-1.47e-02,5.70e+00,
728,-1.47e-02,5.70e+00,
729,-1.47e-02,5.70e+00,
730,-1.47e-02,5.50e+00,
731,-1.47e-02,5.50e+00,
732,-1.47e-02,5.50e+00,
733,-1.47e-02,5.50e+00,
734,-1.47e-02,5.50e+00,
735,-1.47e-02,5.50e+00,
736,-1.47e-02,5.50e+00,
737,-1.47e-02,5.50e+00,
738,-1.47e-02,5.50e+00,
739,-1.47e-02,5.50e+00,
740,-1.47e-02,5.50e+00,
741,-1.47e-02,5.50e+00,
742,-1.47e-02,5.50e+00,
743,-1.47e-02,5.50e+00,
744,-1.47e-02,5.50e+00,
745,4.90e-03,5.50e+00,
746,-1.47e-02,5.50e+00,
747,-1.47e-02,5.30e+00,
748,4.90e-03,5.30e+00,
749,-1.47e-02,5.30e+00,
750,-1.47e-02,5.30e+00,
751,-1.47e-02,5.50e+00,
752,-1.47e-02,5.30e+00,
753,4.90e-03,5.50e+00,
754,-1.47e-02,5.30e+00,
755,-1.47e-02,5.30e+00,
756,-1.47e-02,5.30e+00,
757,-1.47e-02,5.30e+00,
758,-1.47e-02,5.30e+00,
759,-1.47e-02,5.30e+00,
760,-1.47e-02,5.30e+00,
761,-1.47e-02,5.30e+00,
762,-1.47e-02,5.30e+00,
763,-1.47e-02,5.30e+00,
764,-1.47e-02,5.30e+00,
765,4.90e-03,5.30e+00,
766,-1.47e-02,5.30e+00,
767,-1.47e-02,5.30e+00,
768,-1.47e-02,5.30e+00,
769,-1.47e-02,5.30e+00,
770,-1.47e-02,5.30e+00,
771,-1.47e-02,5.30e+00,
772,-1.47e-02,5.30e+00,
773,4.90e-03,5.30e+00,
774,-1.47e-02,5.30e+00,
775,-1.47e-02,5.50e+00,
776,-1.47e-02,5.30e+00,
777,-1.47e-02,5.50e+00,
778,-1.47e-02,5.30e+00,
779,-1.47e-02,5.30e+00,
780,4.90e-03,5.30e+00,
781,4.90e-03,5.50e+00,
782,-1.47e-02,5.30e+00,
783,-1.47e-02,5.50e+00,
784,-1.47e-02,5.30e+00,
785,-1.47e-02,5.50e+00,
786,-1.47e-02,5.50e+00,
787,-1.47e-02,5.50e+00,
788,4.90e-03,5.50e+00,
789,4.90e-03,5.50e+00,
790,-1.47e-02,5.30e+00,
791,-1.47e-02,5.50e+00,
792,-1.47e-02,5.50e+00,
793,4.90e-03,5.70e+00,
794,-1.47e-02,5.50e+00,
795,-1.47e-02,5.50e+00,
796,4.90e-03,5.50e+00,
797,-1.47e-02,5.70e+00,
798,-1.47e-02,5.70e+00,
799,-1.47e-02,5.70e+00,
800,4.90e-03,5.70e+00,
801,4.90e-03,5.70e+00,
802,-1.47e-02,5.70e+00,
803,-1.47e-02,5.70e+00,
804,-1.47e-02,5.90e+00,
805,4.90e-03,5.90e+00,
806,-1.47e-02,5.70e+00,
807,-1.47e-02,5.90e+00,
808,-1.47e-02,5.90e+00,
809,4.90e-03,5.90e+00,
810,-1.47e-02,5.90e+00,
811,-1.47e-02,5.90e+00,
812,-1.47e-02,5.90e+00,
813,-1.47e-02,6.10e+00,
814,-1.47e-02,6.10e+00,
815,-1.47e-02,6.10e+00,
816,4.90e-03,6.10e+00,
817,4.90e-03,6.10e+00,
818,-1.47e-02,6.10e+00,
819,-1.47e-02,6.30e+00,
820,4.90e-03,6.10e+00,
821,4.90e-03,6.30e+00,
822,-1.47e-02,6.30e+00,
823,-1.47e-02,6.30e+00,
824,-1.47e-02,6.30e+00,
825,4.90e-03,6.50e+00,
826,-1.47e-02,6.50e+00,
827,-1.47e-02,6.50e+00,
828,-1.47e-02,6.50e+00,
829,-1.47e-02,6.50e+00,
830,-1.47e-02,6.50e+00,
831,-1.47e-02,6.90e+00,
832,-1.47e-02,6.50e+00,
833,4.90e-03,6.90e+00,
834,-1.47e-02,6.90e+00,
835,-1.47e-02,6.90e+00,
836,4.90e-03,7.10e+00,
837,4.90e-03,7.10e+00,
