Lab11/Step.csv

#Digilent WaveForms Oscilloscope Acquisition
#Device Name: Discovery2
#Serial Number: SN:210321A18A25
#Date Time: 2024-04-26 11:49:48.770
#Sample rate: 1.5873e+06Hz
#Samples: 8192
#Trigger: Source: Channel 1 Type: Edge Condition: Rising Level: 0 V Hyst.: Auto HoldOff: 0 s
#Channel 1: Range: 500 mV/div Offset: 0 V Sample Mode: Average
#Channel 2: Range: 500 mV/div Offset: 9.66 V Sample Mode: Average
#Wavegen Channel 1: Running
#Mode: Simple
#Type: Square
#Frequency: 1 kHz
#Period: 1 ms
#Amplitude: 500 mV
#Offset: 0 V
#Symmetry: 50 %
#Phase: 0 °

Time (s),Channel 1 (V),Channel 2 (V)
-0.002580205939185875,0.4025552174908221,-9.575496770845788
-0.002579575939185876,0.4025552174908221,-9.568178175397824
-0.002578945939185875,0.4022194391074588,-9.546222389053915
-0.002578315939185875,0.4025552174908225,-9.531585198157961
-0.002577685939185875,0.4032267742575489,-9.494992220918133
-0.002577055939185875,0.4035625526409123,-9.458399243678292
-0.002576425939185876,0.4032267742575491,-9.392531884646603
-0.002575795939185875,0.4035625526409123,-9.348620311958761
-0.002575165939185875,0.4038983310242756,-9.301049441546965
-0.002574535939185876,0.4038983310242756,-9.235182082515278
-0.002573905939185875,0.4045698877910024,-9.187611212103452
-0.002573275939185875,0.4045698877910026,-9.143699639415621
-0.002572645939185875,0.4049056661743659,-9.099788066727829
-0.002572015939185875,0.4049056661743659,-9.055876494040017
-0.002571385939185875,0.404905666174366,-9.008305623628205
-0.002570755939185875,0.4052414445577293,-8.971712646388378
-0.002570125939185875,0.4049056661743659,-8.927801073700566
-0.002569495939185876,0.4049056661743659,-8.891208096460739
-0.002568865939185875,0.405913001324456,-8.975371944112362
-0.002568235939185875,0.4052414445577291,-9.066854387212013
-0.002567605939185875,0.4049056661743659,-9.161996128035563
-0.002566975939185875,0.404234109407639,-9.235182082515248
-0.002566345939185875,0.4038983310242755,-9.312027334718946
-0.002565715939185875,0.4035625526409123,-9.374235396026652
-0.002565085939185875,0.4032267742575489,-9.432784159610401
-0.002564455939185876,0.4025552174908225,-9.47303643457421
-0.002563825939185875,0.4018836607240954,-9.513288709538056
-0.002563195939185875,0.4018836607240953,-9.54256309132994
-0.002562565939185875,0.401547882340732,-9.564518877673835
-0.002561935939185875,0.401547882340732,-9.579156068569773
-0.002561305939185875,0.4008763255740058,-9.590133961741724
-0.002560675939185875,0.4018836607240954,-9.586474664017741
-0.002560045939185875,0.4022194391074588,-9.575496770845788
-0.002559415939185876,0.402555217490822,-9.557200282225876
-0.002558785939185875,0.4032267742575489,-9.535244495881962
-0.002558155939185875,0.4032267742575489,-9.513288709538056
-0.002557525939185876,0.4025552174908221,-9.46571783912626
-0.002556895939185875,0.4018836607240954,-9.414487670990479
-0.002556265939185875,0.4025552174908226,-9.355938907406717
-0.002555635939185875,0.4035625526409123,-9.323005227890871
-0.002555005939185875,0.4032267742575489,-9.253478571135171
-0.002554375939185876,0.4032267742575489,-9.202248402999412
-0.002553745939185875,0.4032267742575489,-9.154677532587593
-0.002553115939185875,0.4032267742575489,-9.107106662175797
-0.002552485939185876,0.4038983310242756,-9.063195089487985
-0.002551855939185875,0.4038983310242756,-9.026602112248142
-0.002551225939185875,0.404234109407639,-8.986349837284299
-0.002550595939185875,0.404234109407639,-8.949756860044472
-0.002549965939185875,0.4045698877910024,-8.90584528735666
-0.002549335939185876,0.4049056661743657,-8.916823180528608
-0.002548705939185875,0.4049056661743659,-9.022942814524159
-0.002548075939185875,0.4045698877910024,-9.11808455534775
-0.002547445939185876,0.4042341094076392,-9.20224840299935
-0.002546815939185875,0.4035625526409123,-9.275434357479076
-0.002546185939185875,0.4032267742575486,-9.34130171651082
-0.002545555939185875,0.4025552174908221,-9.399850480094543
-0.002544925939185875,0.4022194391074588,-9.454739945954307
-0.002544295939185876,0.4015478823407324,-9.498651518642099
-0.002543665939185875,0.4018836607240954,-9.527925900433994
-0.002543035939185875,0.401547882340732,-9.553540984501883
-0.002542405939185876,0.401547882340732,-9.571837473121796
-0.002541775939185875,0.4012121039573686,-9.579156068569773
-0.002541145939185875,0.4008763255740053,-9.582815366293755
-0.002540515939185875,0.4008763255740053,-9.575496770845788
-0.002539885939185875,0.401547882340732,-9.571837473121805
-0.002539255939185876,0.401547882340732,-9.54988168677791
-0.002538625939185875,0.4018836607240954,-9.524266602710009
-0.002537995939185875,0.4018836607240954,-9.484014327746181
-0.002537365939185876,0.4018836607240954,-9.440102755058389
-0.002536735939185875,0.401547882340732,-9.377894693750637
-0.002536105939185875,0.4025552174908218,-9.344961014234752
-0.002535475939185875,0.4018836607240954,-9.286412250651029
-0.002534845939185875,0.4018836607240954,-9.22786348706728
-0.002534215939185875,0.4028909958741857,-9.176633318931481
-0.002533585939185875,0.4032267742575489,-9.136381043967672
-0.002532955939185875,0.4025552174908221,-9.088810173555876
-0.002532325939185876,0.4025552174908221,-9.052217196316048
-0.002531695939185875,0.4028909958741855,-9.011964921352206
-0.002531065939185875,0.4032267742575488,-8.964394050940394
-0.002530435939185875,0.4028909958741855,-8.927801073700566
-0.002529805939185875,0.4025552174908221,-8.898526691908692
-0.002529175939185875,0.4049056661743655,-8.990009135008339
-0.002528545939185875,0.404234109407639,-9.074172982659938
-0.002527915939185875,0.4035625526409123,-9.169314723483531
-0.002527285939185876,0.4025552174908226,-9.242500677963184
-0.002526655939185875,0.4025552174908221,-9.319345930166888
-0.002526025939185875,0.4022194391074588,-9.377894693750637
-0.002525395939185875,0.4018836607240954,-9.436443457334386
-0.002524765939185875,0.401547882340732,-9.476695732298213
-0.002524135939185875,0.4018836607240953,-9.520607304986033
-0.002523505939185875,0.401547882340732,-9.538903793605947
-0.002522875939185875,0.4008763255740053,-9.56817817539782
-0.002522245939185876,0.4005405471906421,-9.579156068569768
-0.002521615939185875,0.4005405471906419,-9.586474664017741
-0.002520985939185875,0.4008763255740053,-9.582815366293758
-0.002520355939185876,0.4012121039573686,-9.56817817539782
-0.002519725939185875,0.4012121039573686,-9.553540984501883
-0.002519095939185875,0.4008763255740055,-9.531585198157964
-0.002518465939185875,0.4012121039573686,-9.505970114090086
-0.002517835939185875,0.4012121039573686,-9.473036434574228
-0.002517205939185876,0.4012121039573686,-9.414487670990505
-0.002516575939185875,0.401547882340732,-9.355938907406731
-0.002515945939185875,0.4022194391074588,-9.319345930166888
-0.002515315939185876,0.4018836607240956,-9.242500677963253
-0.002514685939185875,0.4022194391074588,-9.194929807551421
-0.002514055939185875,0.402219439107459,-9.147358937139607
-0.002513425939185875,0.4025552174908221,-9.107106662175797
-0.002512795939185875,0.4028909958741855,-9.063195089487985
-0.002512165939185876,0.4025552174908223,-9.026602112248158
-0.002511535939185875,0.4028909958741855,-8.98269053956033
-0.002510905939185875,0.4025552174908221,-8.949756860044472
-0.002510275939185876,0.4025552174908221,-8.90584528735668
-0.002509645939185875,0.4035625526409123,-8.931460371424551
-0.002509015939185875,0.403562552640912,-9.033920707696151
-0.002508385939185875,0.4028909958741855,-9.121743853071735
-0.002507755939185875,0.4028909958741855,-9.202248402999389
-0.002507125939185876,0.4022194391074592,-9.279093655203024
-0.002506495939185875,0.4012121039573686,-9.344961014234778
-0.002505865939185875,0.4008763255740053,-9.410828373266495
-0.002505235939185876,0.4002047688072788,-9.462058541402252
-0.002504605939185875,0.4002047688072785,-9.502310816366103
-0.002503975939185875,0.3998689904239149,-9.535244495881971
-0.002503345939185875,0.3995332120405517,-9.553540984501883
-0.002502715939185875,0.3998689904239151,-9.571837473121805
-0.002502085939185875,0.3998689904239153,-9.579156068569777
-0.002501455939185875,0.4002047688072785,-9.586474664017741
-0.002500825939185875,0.3998689904239151,-9.582815366293758
-0.002500195939185876,0.1003546724639164,-9.575496770845792
-0.002499565939185875,-0.4231238271997291,-9.5498816867779
-0.002498935939185875,-0.4486429843353462,-9.524266602709991
-0.002498305939185875,-0.4489787627187094,-9.484014327746181
-0.002497675939185875,-0.4476356491852559,-9.440102755058369
-0.002497045939185875,-0.4469640924185287,-9.370576098302653
-0.002496415939185875,-0.4462925356518024,-9.337642418786809
-0.002495785939185875,-0.445956757268439,-9.271775059755091
-0.002495155939185876,-0.445956757268439,-9.213226296171369
-0.002494525939185875,-0.4456209788850756,-9.165655425759546
-0.002493895939185875,-0.4449494221183489,-9.118084555347732
-0.002493265939185875,-0.4449494221183489,-9.077832280383923
-0.002492635939185875,-0.4442778653516221,-9.04123930314408
-0.002492005939185875,-0.4436063085848954,-8.993668432732266
-0.002491375939185875,-0.4436063085848954,-8.953416157768457
-0.002490745939185875,-0.443270530201532,-8.920482478252598
-0.002490115939185876,-0.4429347518181687,-8.883889501012771
-0.002489485939185875,-0.4425989734348051,-8.836318630600958
-0.002488855939185875,-0.4425989734348051,-8.839977928324943
-0.002488225939185875,-0.4419274166680784,-8.968053348664395
-0.002487595939185875,-0.4422631950514417,-9.081491578107908
-0.002486965939185875,-0.4425989734348056,-9.198589105275445
-0.002486335939185875,-0.4436063085848954,-9.290071548375012
-0.002485705939185875,-0.4442778653516221,-9.392531884646573
-0.002485075939185876,-0.4449494221183485,-9.47303643457419
-0.002484445939185875,-0.4452852005017122,-9.553540984501883
-0.002483815939185875,-0.445956757268439,-9.615749045809617
-0.002483185939185876,-0.445956757268439,-9.677957107117349
-0.002482555939185875,-0.4462925356518024,-9.721868679805162
-0.002481925939185875,-0.4462925356518024,-9.773098847940954
-0.002481295939185875,-0.4462925356518024,-9.798713932008832
-0.002480665939185875,-0.4462925356518024,-9.831647611524691
-0.002480035939185876,-0.4462925356518024,-9.842625504696638
-0.002479405939185875,-0.4462925356518024,-9.860921993316564
-0.002478775939185875,-0.4462925356518024,-9.857262695592581
-0.002478145939185876,-0.4459567572684391,-9.853603397868598
-0.002477515939185875,-0.445956757268439,-9.838966206972659
-0.002476885939185875,-0.4459567572684388,-9.817010420628732
-0.002476255939185875,-0.4456209788850756,-9.769439550216957
-0.002475625939185875,-0.4462925356518024,-9.696253595737272
-0.002474995939185876,-0.4462925356518024,-9.641364129877532
-0.002474365939185875,-0.4452852005017122,-9.597452557189694
-0.002473735939185875,-0.4449494221183489,-9.5498816867779
-0.002473105939185876,-0.4449494221183489,-9.505970114090106
-0.002472475939185875,-0.4456209788850756,-9.458399243678292
-0.002471845939185875,-0.4449494221183487,-9.41814696871444
-0.002471215939185875,-0.4446136437349855,-9.366916800578684
-0.002470585939185875,-0.4436063085848954,-9.315686632442903
-0.002469955939185876,-0.4436063085848954,-9.279093655203075
-0.002469325939185875,-0.4425989734348051,-9.326664525614856
-0.002468695939185875,-0.4419274166680784,-9.462058541402275
-0.002468065939185876,-0.4425989734348048,-9.575496770845737
-0.002467435939185875,-0.4436063085848954,-9.685275702565319
-0.002466805939185875,-0.4446136437349855,-9.78041744338895
-0.002466175939185875,-0.4446136437349855,-9.871899886488517
-0.002465545939185875,-0.4452852005017122,-9.948745138692189
-0.002464915939185875,-0.4459567572684391,-10.01827179544792
-0.002464285939185875,-0.4462925356518024,-10.07682055903164
-0.002463655939185875,-0.445956757268439,-10.13536932261539
-0.002463025939185876,-0.445956757268439,-10.1756215975792
-0.002462395939185875,-0.4466283140351657,-10.21953317026703
-0.002461765939185875,-0.4469640924185289,-10.23417036116298
-0.002461135939185875,-0.4466283140351657,-10.25978544523085
-0.002460505939185875,-0.4462925356518024,-10.26344474295484
-0.002459875939185875,-0.4466283140351657,-10.26710404067882
-0.002459245939185875,-0.4466283140351657,-10.25978544523085
-0.002458615939185875,-0.445956757268439,-10.25246684978289
-0.002457985939185876,-0.445956757268439,-10.23051106343899
-0.002457355939185875,-0.4452852005017122,-10.20123668164711
-0.002456725939185875,-0.4452852005017122,-10.15000651351133
-0.002456095939185875,-0.445956757268439,-10.07316126130766
-0.002455465939185875,-0.4462925356518024,-10.00729390227594
-0.002454835939185875,-0.4452852005017118,-9.963382329588102
-0.002454205939185875,-0.4446136437349855,-9.912152161452346
-0.002453575939185875,-0.4442778653516221,-9.860921993316564
-0.002452945939185876,-0.4439420869682588,-9.809691825180808
-0.002452315939185875,-0.4449494221183489,-9.765780252492974
-0.002451685939185875,-0.4449494221183489,-9.721868679805162
-0.002451055939185875,-0.4449494221183489,-9.677957107117349
-0.002450425939185875,-0.4442778653516221,-9.62672693898157
-0.002449795939185875,-0.443606308584895,-9.608430450361702
-0.002449165939185875,-0.4429347518181685,-9.72918727525313
-0.002448535939185875,-0.4425989734348051,-9.831647611524691
-0.002447905939185876,-0.4425989734348051,-9.945085840968153
-0.002447275939185875,-0.4429347518181685,-10.02924968861984
-0.002446645939185875,-0.4442778653516221,-10.12073213171945
-0.002446015939185876,-0.4452852005017117,-10.18294019302716
-0.002445385939185875,-0.4462925356518024,-10.25246684978289
-0.002444755939185875,-0.4466283140351658,-10.30003772019471
-0.002444125939185875,-0.4469640924185291,-10.35126788833046
-0.002443495939185875,-0.4469640924185291,-10.38054227012234
-0.002442865939185876,-0.4469640924185291,-10.41347594963818
-0.002442235939185875,-0.4462925356518024,-10.42445384281015
-0.002441605939185875,-0.4462925356518024,-10.44275033143007
-0.002440975939185876,-0.4462925356518024,-10.4354317359821
-0.002440345939185875,-0.4462925356518024,-10.43177243825812
-0.002439715939185875,-0.4456209788850756,-10.41713524736217
-0.002439085939185875,-0.4456209788850756,-10.38786086557031
-0.002438455939185875,-0.445956757268439,-10.35858648377843
-0.002437825939185876,-0.4449494221183493,-10.31833420881462
-0.002437195939185875,-0.4449494221183489,-10.25978544523085
-0.002436565939185875,-0.4452852005017122,-10.18659949075117
-0.002435935939185876,-0.444949422118349,-10.10975423854753
-0.002435305939185875,-0.4446136437349855,-10.05852407041172
-0.002434675939185875,-0.4439420869682585,-10.0109531999999
-0.002434045939185875,-0.4436063085848954,-9.963382329588125
-0.002433415939185875,-0.4429347518181685,-9.91581145917633
-0.002432785939185875,-0.443270530201532,-9.868240588764513
-0.002432155939185875,-0.443270530201532,-9.820669718352738
-0.002431525939185875,-0.4429347518181685,-9.78041744338891
-0.002430895939185876,-0.4429347518181685,-9.729187275253153
-0.002430265939185875,-0.4425989734348051,-9.696253595737272
-0.002429635939185875,-0.4415916382847152,-9.802373229732858
-0.002429005939185875,-0.4419274166680784,-9.897514970556408
-0.002428375939185875,-0.4422631950514417,-10.00363460455195
-0.002427745939185875,-0.4425989734348053,-10.08047985675566
-0.002427115939185875,-0.4429347518181685,-10.16830300213125
-0.002426485939185875,-0.4439420869682587,-10.23051106343898
-0.002425855939185876,-0.4439420869682587,-10.29637842247067
-0.002425225939185875,-0.4442778653516221,-10.34394929288249
-0.002424595939185875,-0.4446136437349856,-10.3915201632943
-0.002423965939185875,-0.4449494221183489,-10.41713524736218
-0.002423335939185875,-0.4446136437349855,-10.44640962915405
-0.002422705939185875,-0.4446136437349858,-10.45738752232601
-0.002422075939185875,-0.4452852005017122,-10.46836541549796
-0.002421445939185875,-0.4452852005017122,-10.45738752232601
-0.002420815939185876,-0.4452852005017122,-10.45006892687804
-0.002420185939185875,-0.4456209788850756,-10.42811314053413
-0.002419555939185875,-0.4449494221183489,-10.39517946101827
-0.002418925939185875,-0.4442778653516221,-10.35858648377843
-0.002418295939185875,-0.4442778653516221,-10.32565280426257
-0.002417665939185875,-0.4442778653516219,-10.25612614750684
-0.002417035939185875,-0.4439420869682587,-10.19757738392312
-0.002416405939185875,-0.4439420869682587,-10.12073213171945
-0.002415775939185876,-0.4436063085848955,-10.06218336813573
-0.002415145939185875,-0.4439420869682587,-10.01095319999992
-0.002414515939185875,-0.4442778653516221,-9.963382329588125
-0.002413885939185876,-0.4429347518181685,-9.919470756900314
-0.002413255939185875,-0.4429347518181685,-9.864581291040549
-0.002412625939185875,-0.4422631950514414,-9.820669718352715
-0.002411995939185875,-0.441591638284715,-9.769439550216957
-0.002411365939185875,-0.441591638284715,-9.721868679805162
-0.002410735939185876,-0.441591638284715,-9.677957107117368
-0.002410105939185875,-0.4412558599013516,-9.721868679805162
-0.002409475939185875,-0.4405843031346249,-9.838966206972659
-0.002408845939185876,-0.4412558599013513,-9.941426543244173
-0.002408215939185875,-0.4419274166680784,-10.02924968861984
-0.002407585939185875,-0.4429347518181687,-10.1170728339955
-0.002406955939185875,-0.443270530201532,-10.19025878847515
-0.002406325939185875,-0.4429347518181685,-10.2488075520589
-0.002405695939185876,-0.4432705302015318,-10.30369701791864
-0.002405065939185875,-0.4436063085848954,-10.35492718605445
-0.002404435939185875,-0.4439420869682587,-10.38786086557031
-0.002403805939185876,-0.4442778653516219,-10.41347594963818
-0.002403175939185875,-0.4439420869682587,-10.43177243825812
-0.002402545939185875,-0.4439420869682588,-10.4354317359821
-0.002401915939185875,-0.4442778653516221,-10.4354317359821
-0.002401285939185875,-0.4436063085848954,-10.42079454508616
-0.002400655939185876,-0.4442778653516217,-10.40981665191422
-0.002400025939185875,-0.4439420869682587,-10.38420156784632
-0.002399395939185875,-0.4436063085848954,-10.35492718605445
-0.002398765939185876,-0.4436063085848954,-10.31467491109064
-0.002398135939185875,-0.443270530201532,-10.26344474295484
-0.002397505939185875,-0.4439420869682583,-10.19391808619911
-0.002396875939185875,-0.443270530201532,-10.14268791806336
-0.002396245939185875,-0.443270530201532,-10.06584266585969
-0.002395615939185875,-0.4429347518181682,-10.01461249772388
-0.002394985939185875,-0.4422631950514417,-9.963382329588125
-0.002394355939185875,-0.4422631950514417,-9.91581145917633
-0.002393725939185876,-0.4422631950514417,-9.864581291040572
-0.002393095939185875,-0.4419274166680784,-9.817010420628753
-0.002392465939185875,-0.441591638284715,-9.769439550216939
-0.002391835939185875,-0.441591638284715,-9.72918727525313
-0.002391205939185875,-0.4409200815179882,-9.677957107117349
-0.002390575939185875,-0.4402485247512612,-9.652342023049508
-0.002389945939185875,-0.4395769679845347,-9.758461657045004
-0.002389315939185875,-0.4395769679845347,-9.857262695592581
-0.002388685939185876,-0.4405843031346245,-9.96704162731206
-0.002388055939185875,-0.4419274166680784,-10.04754617723976
-0.002387425939185875,-0.4425989734348055,-10.13171002489143
-0.002386795939185875,-0.443270530201532,-10.19757738392312
-0.002386165939185875,-0.443270530201532,-10.25978544523085
-0.002385535939185875,-0.4429347518181685,-10.30369701791869
-0.002384905939185875,-0.4429347518181685,-10.35858648377843
-0.002384275939185875,-0.443270530201532,-10.38420156784632
-0.002383645939185876,-0.4429347518181687,-10.41347594963818
-0.002383015939185875,-0.4425989734348051,-10.41713524736218
-0.002382385939185875,-0.4425989734348051,-10.43177243825812
-0.002381755939185875,-0.4425989734348051,-10.42445384281015
-0.002381125939185875,-0.4425989734348051,-10.4134759496382
-0.002380495939185875,-0.4429347518181685,-10.39517946101826
-0.002379865939185875,-0.4429347518181685,-10.36956437695038
-0.002379235939185875,-0.443270530201532,-10.33297139971054
-0.002378605939185876,-0.4429347518181687,-10.28540052929877
