Lab 3/low quality/T3-9.01V.csv

X,CH1,CH2,Start,Increment,
Sequence,Volt,Volt,-1.440000e-05,2.000000e-09
0,-1.60e-01,1.80e+02,
1,-1.60e-01,1.80e+02,
2,-1.60e-01,1.80e+02,
3,-1.60e-01,1.80e+02,
4,-1.60e-01,1.80e+02,
5,-1.60e-01,1.80e+02,
6,-1.60e-01,1.80e+02,
7,-1.60e-01,1.80e+02,
8,-1.60e-01,1.80e+02,
9,-1.60e-01,1.80e+02,
10,-1.60e-01,1.80e+02,
11,-1.60e-01,1.80e+02,
12,-1.60e-01,1.80e+02,
13,-1.60e-01,1.80e+02,
14,-1.60e-01,1.80e+02,
15,-1.60e-01,1.80e+02,
16,-1.60e-01,1.80e+02,
17,-1.60e-01,1.80e+02,
18,-1.60e-01,1.80e+02,
19,-1.60e-01,1.80e+02,
20,-1.60e-01,1.80e+02,
21,-1.60e-01,1.80e+02,
22,-1.60e-01,1.80e+02,
23,-1.60e-01,1.80e+02,
24,-1.60e-01,1.80e+02,
25,-1.60e-01,1.80e+02,
26,-1.60e-01,1.80e+02,
27,-1.60e-01,1.80e+02,
28,-1.60e-01,1.80e+02,
29,-1.60e-01,1.80e+02,
30,-1.60e-01,1.80e+02,
31,-1.60e-01,1.80e+02,
32,-1.60e-01,1.80e+02,
33,-1.60e-01,1.80e+02,
34,-1.60e-01,1.80e+02,
35,-1.60e-01,1.80e+02,
36,-1.60e-01,1.80e+02,
37,-1.60e-01,1.80e+02,
38,-1.60e-01,1.80e+02,
39,-1.60e-01,1.80e+02,
40,-1.60e-01,1.80e+02,
41,-1.60e-01,1.80e+02,
42,-1.60e-01,1.80e+02,
43,-1.60e-01,1.80e+02,
44,-1.60e-01,1.80e+02,
45,-1.60e-01,1.80e+02,
46,-1.60e-01,1.80e+02,
47,-1.60e-01,1.80e+02,
48,-1.60e-01,1.80e+02,
49,-1.60e-01,1.80e+02,
50,-1.60e-01,1.80e+02,
51,-1.60e-01,1.80e+02,
52,-1.60e-01,1.80e+02,
53,-1.60e-01,1.80e+02,
54,-1.60e-01,1.80e+02,
55,-1.60e-01,1.80e+02,
56,-1.60e-01,1.80e+02,
57,-1.60e-01,1.80e+02,
58,-1.60e-01,1.80e+02,
59,-1.60e-01,1.80e+02,
60,-1.60e-01,1.80e+02,
61,-1.60e-01,1.80e+02,
62,-1.60e-01,1.80e+02,
63,-1.60e-01,1.80e+02,
64,-1.60e-01,1.80e+02,
65,-1.60e-01,1.80e+02,
66,-1.60e-01,1.80e+02,
67,-1.60e-01,1.80e+02,
68,-1.60e-01,1.80e+02,
69,-1.60e-01,1.80e+02,
70,-1.60e-01,1.80e+02,
71,-1.60e-01,1.80e+02,
72,-1.60e-01,1.80e+02,
73,-1.60e-01,1.80e+02,
74,-1.60e-01,1.80e+02,
75,-1.60e-01,1.80e+02,
76,-1.60e-01,1.80e+02,
77,-1.60e-01,1.80e+02,
78,-1.60e-01,1.80e+02,
79,-1.60e-01,1.80e+02,
80,-1.60e-01,1.80e+02,
81,-1.60e-01,1.80e+02,
82,-1.60e-01,1.80e+02,
83,-1.60e-01,1.80e+02,
84,-1.60e-01,1.80e+02,
85,-1.60e-01,1.80e+02,
86,-1.60e-01,1.80e+02,
87,-1.60e-01,1.80e+02,
88,-1.60e-01,1.80e+02,
89,-1.60e-01,1.80e+02,
90,-1.60e-01,1.80e+02,
91,-1.60e-01,1.80e+02,
92,-1.60e-01,1.80e+02,
93,-1.60e-01,1.80e+02,
94,-1.60e-01,1.80e+02,
95,-1.60e-01,1.80e+02,
96,-1.60e-01,1.80e+02,
97,-1.60e-01,1.80e+02,
98,-1.60e-01,1.80e+02,
99,-1.60e-01,1.80e+02,
100,-1.60e-01,1.80e+02,
101,-1.60e-01,1.80e+02,
102,-1.60e-01,1.80e+02,
103,-1.60e-01,1.80e+02,
104,-1.60e-01,1.80e+02,
105,-1.60e-01,1.80e+02,
106,-1.60e-01,1.80e+02,
107,-1.60e-01,1.80e+02,
108,-1.60e-01,1.80e+02,
109,-1.60e-01,1.80e+02,
110,-1.60e-01,1.80e+02,
111,-1.60e-01,1.80e+02,
112,-1.60e-01,1.80e+02,
113,-1.60e-01,1.80e+02,
114,-1.60e-01,1.80e+02,
115,-1.60e-01,1.80e+02,
116,-1.60e-01,1.80e+02,
117,-1.60e-01,1.80e+02,
118,-1.60e-01,1.80e+02,
119,-1.60e-01,1.80e+02,
120,-1.60e-01,1.80e+02,
121,-1.60e-01,1.80e+02,
122,-1.60e-01,1.80e+02,
123,-1.60e-01,1.80e+02,
124,-1.60e-01,1.80e+02,
125,-1.60e-01,1.80e+02,
126,-1.60e-01,1.80e+02,
127,-1.60e-01,1.80e+02,
128,-1.60e-01,1.80e+02,
129,-1.60e-01,1.80e+02,
130,-1.60e-01,1.80e+02,
131,-1.60e-01,1.80e+02,
132,-1.60e-01,1.80e+02,
133,-1.60e-01,1.80e+02,
134,-1.60e-01,1.80e+02,
135,-1.60e-01,1.80e+02,
136,-1.60e-01,1.80e+02,
137,-1.60e-01,1.80e+02,
138,-1.60e-01,1.80e+02,
139,-1.60e-01,1.80e+02,
140,-1.60e-01,1.80e+02,
141,-1.60e-01,1.80e+02,
142,-1.60e-01,1.80e+02,
143,-1.60e-01,1.80e+02,
144,-1.60e-01,1.80e+02,
145,-1.60e-01,1.80e+02,
146,-1.60e-01,1.80e+02,
147,-1.60e-01,1.80e+02,
148,-1.60e-01,1.80e+02,
149,-1.60e-01,1.80e+02,
150,-1.60e-01,1.80e+02,
151,-1.60e-01,1.80e+02,
152,-1.60e-01,1.80e+02,
153,-1.60e-01,1.80e+02,
154,-1.60e-01,1.80e+02,
155,-1.60e-01,1.80e+02,
156,-1.60e-01,1.80e+02,
157,-1.60e-01,1.80e+02,
158,-1.60e-01,1.80e+02,
159,-1.60e-01,1.80e+02,
160,-1.60e-01,1.80e+02,
161,-1.60e-01,1.80e+02,
162,-1.60e-01,1.80e+02,
163,-1.60e-01,1.80e+02,
164,-1.60e-01,1.80e+02,
165,-1.60e-01,1.80e+02,
166,-1.60e-01,1.80e+02,
167,-1.60e-01,1.80e+02,
168,-1.60e-01,1.80e+02,
169,-1.60e-01,1.80e+02,
170,-1.60e-01,1.80e+02,
171,-1.60e-01,1.80e+02,
172,-1.60e-01,1.80e+02,
173,-1.60e-01,1.80e+02,
174,-1.60e-01,1.80e+02,
175,-1.60e-01,1.80e+02,
176,-1.60e-01,1.80e+02,
177,-1.60e-01,1.80e+02,
178,-1.60e-01,1.80e+02,
179,-1.60e-01,1.80e+02,
180,-1.60e-01,1.80e+02,
181,-1.60e-01,1.80e+02,
182,-1.60e-01,1.80e+02,
183,-1.60e-01,1.80e+02,
184,-1.60e-01,1.80e+02,
185,-1.60e-01,1.80e+02,
186,-1.60e-01,1.80e+02,
187,-1.60e-01,1.80e+02,
188,-1.60e-01,1.80e+02,
189,-1.60e-01,1.80e+02,
190,-1.60e-01,1.80e+02,
191,-1.60e-01,1.80e+02,
192,-1.60e-01,1.80e+02,
193,-1.60e-01,1.80e+02,
194,-1.60e-01,1.80e+02,
195,-1.60e-01,1.80e+02,
196,-1.60e-01,1.80e+02,
197,-1.60e-01,1.80e+02,
198,-1.60e-01,1.80e+02,
199,-1.60e-01,1.80e+02,
200,-1.60e-01,1.80e+02,
201,-1.60e-01,1.80e+02,
202,-1.60e-01,1.80e+02,
203,-1.60e-01,1.80e+02,
204,-1.60e-01,1.80e+02,
205,-1.60e-01,1.80e+02,
206,-1.60e-01,1.80e+02,
207,-1.60e-01,1.80e+02,
208,-1.60e-01,1.80e+02,
209,-1.60e-01,1.80e+02,
210,-1.60e-01,1.80e+02,
211,-1.60e-01,1.80e+02,
212,-1.60e-01,1.80e+02,
213,-1.60e-01,1.80e+02,
214,-1.60e-01,1.80e+02,
215,-1.60e-01,1.80e+02,
216,-1.60e-01,1.80e+02,
217,-1.60e-01,1.80e+02,
218,-1.60e-01,1.80e+02,
219,-1.60e-01,1.80e+02,
220,-1.60e-01,1.80e+02,
221,-1.60e-01,1.80e+02,
222,-1.60e-01,1.80e+02,
223,-1.60e-01,1.80e+02,
224,-1.60e-01,1.80e+02,
225,-1.60e-01,1.80e+02,
226,-1.60e-01,1.80e+02,
227,-1.60e-01,1.80e+02,
228,-1.60e-01,1.80e+02,
229,-1.60e-01,1.80e+02,
230,-1.60e-01,1.80e+02,
231,-1.60e-01,1.80e+02,
232,-1.60e-01,1.80e+02,
233,-1.60e-01,1.80e+02,
234,-1.60e-01,1.80e+02,
235,-1.60e-01,1.80e+02,
236,-1.60e-01,1.80e+02,
237,-1.60e-01,1.80e+02,
238,-1.60e-01,1.80e+02,
239,-1.60e-01,1.80e+02,
240,-1.60e-01,1.80e+02,
241,-1.60e-01,1.80e+02,
242,-1.60e-01,1.80e+02,
243,-1.60e-01,1.80e+02,
244,-1.60e-01,1.80e+02,
245,-1.60e-01,1.80e+02,
246,-1.60e-01,1.80e+02,
247,-1.60e-01,1.80e+02,
248,-1.60e-01,1.80e+02,
249,-1.60e-01,1.80e+02,
250,-1.60e-01,1.80e+02,
251,-1.60e-01,1.80e+02,
252,-1.60e-01,1.80e+02,
253,-1.60e-01,1.80e+02,
254,-1.60e-01,1.80e+02,
255,-1.60e-01,1.80e+02,
256,-1.60e-01,1.80e+02,
257,-1.60e-01,1.80e+02,
258,-1.60e-01,1.80e+02,
259,-1.60e-01,1.80e+02,
260,-1.60e-01,1.80e+02,
261,-1.60e-01,1.80e+02,
262,-1.60e-01,1.80e+02,
263,-1.60e-01,1.80e+02,
264,-1.60e-01,1.80e+02,
265,-1.60e-01,1.80e+02,
266,-1.60e-01,1.80e+02,
267,-1.60e-01,1.80e+02,
268,-1.60e-01,1.80e+02,
269,-1.60e-01,1.80e+02,
270,-1.60e-01,1.80e+02,
271,-1.60e-01,1.80e+02,
272,-1.60e-01,1.80e+02,
273,-1.60e-01,1.80e+02,
274,-1.60e-01,1.80e+02,
275,-1.60e-01,1.80e+02,
276,-1.60e-01,1.80e+02,
277,-1.60e-01,1.80e+02,
278,-1.60e-01,1.80e+02,
279,-1.60e-01,1.80e+02,
280,-1.60e-01,1.80e+02,
281,-1.60e-01,1.80e+02,
282,-1.60e-01,1.80e+02,
283,-1.60e-01,1.80e+02,
284,-1.60e-01,1.80e+02,
285,-1.60e-01,1.80e+02,
286,-1.60e-01,1.80e+02,
287,-1.60e-01,1.80e+02,
288,-1.60e-01,1.80e+02,
289,-1.60e-01,1.80e+02,
290,-1.60e-01,1.80e+02,
291,-1.60e-01,1.80e+02,
292,-1.60e-01,1.80e+02,
293,-1.60e-01,1.80e+02,
294,-1.60e-01,1.80e+02,
295,-1.60e-01,1.80e+02,
296,-1.60e-01,1.80e+02,
297,-1.60e-01,1.80e+02,
298,-1.60e-01,1.80e+02,
299,-1.60e-01,1.80e+02,
300,-1.60e-01,1.80e+02,
301,-1.60e-01,1.80e+02,
302,-1.60e-01,1.80e+02,
303,-1.60e-01,1.80e+02,
304,-1.60e-01,1.80e+02,
305,-1.60e-01,1.80e+02,
306,-1.60e-01,1.80e+02,
307,-1.60e-01,1.80e+02,
308,-1.60e-01,1.80e+02,
309,-1.60e-01,1.80e+02,
310,-1.60e-01,1.80e+02,
311,-1.60e-01,1.80e+02,
312,-1.60e-01,1.80e+02,
313,-1.60e-01,1.80e+02,
314,-1.60e-01,1.80e+02,
315,-1.60e-01,1.80e+02,
316,-1.60e-01,1.80e+02,
317,-1.60e-01,1.80e+02,
318,-1.60e-01,1.80e+02,
319,-1.60e-01,1.80e+02,
320,-1.60e-01,1.80e+02,
321,-1.60e-01,1.80e+02,
322,-1.60e-01,1.80e+02,
323,-1.60e-01,1.80e+02,
324,-1.60e-01,1.80e+02,
325,-1.60e-01,1.80e+02,
326,-1.60e-01,1.80e+02,
327,-1.60e-01,1.80e+02,
328,-1.60e-01,1.80e+02,
329,-1.60e-01,1.80e+02,
330,-1.60e-01,1.80e+02,
331,-1.60e-01,1.80e+02,
332,-1.60e-01,1.80e+02,
333,-1.60e-01,1.80e+02,
334,-1.60e-01,1.80e+02,
335,-1.60e-01,1.80e+02,
336,-1.60e-01,1.80e+02,
337,-1.60e-01,1.80e+02,
338,-1.60e-01,1.80e+02,
339,-1.60e-01,1.80e+02,
340,-1.60e-01,1.80e+02,
341,-1.60e-01,1.80e+02,
342,-1.60e-01,1.80e+02,
343,-1.60e-01,1.80e+02,
344,-1.60e-01,1.80e+02,
345,-1.60e-01,1.80e+02,
346,-1.60e-01,1.80e+02,
347,-1.60e-01,1.80e+02,
348,-1.60e-01,1.80e+02,
349,-1.60e-01,1.80e+02,
350,-1.60e-01,1.80e+02,
351,-1.60e-01,1.80e+02,
352,-1.60e-01,1.80e+02,
353,-1.60e-01,1.80e+02,
354,-1.60e-01,1.80e+02,
355,-1.60e-01,1.80e+02,
356,-1.60e-01,1.80e+02,
357,-1.60e-01,1.80e+02,
358,-1.60e-01,1.80e+02,
359,-1.60e-01,1.80e+02,
360,-1.60e-01,1.80e+02,
361,-1.60e-01,1.80e+02,
362,-1.60e-01,1.80e+02,
363,-1.60e-01,1.80e+02,
364,-1.60e-01,1.80e+02,
365,-1.60e-01,1.80e+02,
366,-1.60e-01,1.80e+02,
367,-1.60e-01,1.80e+02,
368,-1.60e-01,1.80e+02,
369,-1.60e-01,1.80e+02,
370,-1.60e-01,1.80e+02,
371,-1.60e-01,1.80e+02,
372,-1.60e-01,1.80e+02,
373,-1.60e-01,1.80e+02,
374,-1.60e-01,1.80e+02,
375,-1.60e-01,1.80e+02,
376,-1.60e-01,1.80e+02,
377,-1.60e-01,1.80e+02,
378,-1.60e-01,1.80e+02,
379,-1.60e-01,1.80e+02,
380,-1.60e-01,1.80e+02,
381,-1.60e-01,1.80e+02,
382,-1.60e-01,1.80e+02,
383,-1.60e-01,1.80e+02,
384,-1.60e-01,1.80e+02,
385,-1.60e-01,1.80e+02,
386,-1.60e-01,1.80e+02,
387,-1.60e-01,1.80e+02,
388,-1.60e-01,1.80e+02,
389,-1.60e-01,1.80e+02,
390,-1.60e-01,1.80e+02,
391,-1.60e-01,1.80e+02,
392,-1.60e-01,1.80e+02,
393,-1.60e-01,1.80e+02,
394,-1.60e-01,1.80e+02,
395,-1.60e-01,1.80e+02,
396,-1.60e-01,1.80e+02,
397,-1.60e-01,1.80e+02,
398,-1.60e-01,1.80e+02,
399,-1.60e-01,1.80e+02,
400,-1.60e-01,1.80e+02,
401,-1.60e-01,1.80e+02,
402,-1.60e-01,1.80e+02,
403,-1.60e-01,1.80e+02,
404,-1.60e-01,1.80e+02,
405,-1.60e-01,1.80e+02,
406,-1.60e-01,1.80e+02,
407,-1.60e-01,1.80e+02,
408,-1.60e-01,1.80e+02,
409,-1.60e-01,1.80e+02,
410,-1.60e-01,1.80e+02,
411,-1.60e-01,1.80e+02,
412,-1.60e-01,1.80e+02,
413,-1.60e-01,1.80e+02,
414,-1.60e-01,1.80e+02,
415,-1.60e-01,1.80e+02,
416,-1.60e-01,1.80e+02,
417,-1.60e-01,1.80e+02,
418,-1.60e-01,1.80e+02,
419,-1.60e-01,1.80e+02,
420,-1.60e-01,1.80e+02,
421,-1.60e-01,1.80e+02,
422,-1.60e-01,1.80e+02,
423,-1.60e-01,1.80e+02,
424,-1.60e-01,1.80e+02,
425,-1.60e-01,1.80e+02,
426,-1.60e-01,1.80e+02,
427,-1.60e-01,1.80e+02,
428,-1.60e-01,1.80e+02,
429,-1.60e-01,1.80e+02,
430,-1.60e-01,1.80e+02,
431,-1.60e-01,1.80e+02,
432,-1.60e-01,1.80e+02,
433,-1.60e-01,1.80e+02,
434,-1.60e-01,1.80e+02,
435,-1.60e-01,1.80e+02,
436,-1.60e-01,1.80e+02,
437,-1.60e-01,1.80e+02,
438,-1.60e-01,1.80e+02,
439,-1.60e-01,1.80e+02,
440,-1.60e-01,1.80e+02,
441,-1.60e-01,1.80e+02,
442,-1.60e-01,1.80e+02,
443,-1.60e-01,1.80e+02,
444,-1.60e-01,1.80e+02,
445,-1.60e-01,1.80e+02,
446,-1.60e-01,1.80e+02,
447,-1.60e-01,1.80e+02,
448,-1.60e-01,1.80e+02,
449,-1.60e-01,1.80e+02,
450,-1.60e-01,1.80e+02,
451,-1.60e-01,1.80e+02,
452,-1.60e-01,1.80e+02,
453,-1.60e-01,1.80e+02,
454,-1.60e-01,1.80e+02,
455,-1.60e-01,1.80e+02,
456,-1.60e-01,1.80e+02,
457,-1.60e-01,1.80e+02,
458,-1.60e-01,1.80e+02,
459,-1.60e-01,1.80e+02,
460,-1.60e-01,1.80e+02,
461,-1.60e-01,1.80e+02,
462,-1.60e-01,1.80e+02,
463,-1.60e-01,1.80e+02,
464,-1.60e-01,1.80e+02,
465,-1.60e-01,1.80e+02,
466,-1.60e-01,1.80e+02,
467,-1.60e-01,1.80e+02,
468,-1.60e-01,1.80e+02,
469,-1.60e-01,1.80e+02,
470,-1.60e-01,1.80e+02,
471,-1.60e-01,1.80e+02,
472,-1.60e-01,1.80e+02,
473,-1.60e-01,1.80e+02,
474,-1.60e-01,1.80e+02,
475,-1.60e-01,1.80e+02,
476,-1.60e-01,1.80e+02,
477,-1.60e-01,1.80e+02,
478,-1.60e-01,1.80e+02,
479,-1.60e-01,1.80e+02,
480,-1.60e-01,1.80e+02,
481,-1.60e-01,1.80e+02,
482,-1.60e-01,1.80e+02,
483,-1.60e-01,1.80e+02,
484,-1.60e-01,1.80e+02,
485,-1.60e-01,1.80e+02,
486,-1.60e-01,1.80e+02,
487,-1.60e-01,1.80e+02,
488,-1.60e-01,1.80e+02,
489,-1.60e-01,1.80e+02,
490,-1.60e-01,1.80e+02,
491,-1.60e-01,1.80e+02,
492,-1.60e-01,1.80e+02,
493,-1.60e-01,1.80e+02,
494,-1.60e-01,1.80e+02,
495,-1.60e-01,1.80e+02,
496,-1.60e-01,1.80e+02,
497,-1.60e-01,1.80e+02,
498,-1.60e-01,1.80e+02,
499,-1.60e-01,1.80e+02,
500,-1.60e-01,1.80e+02,
501,-1.60e-01,1.80e+02,
502,-1.60e-01,1.80e+02,
503,-1.60e-01,1.80e+02,
504,-1.60e-01,1.80e+02,
505,-1.60e-01,1.80e+02,
506,-1.60e-01,1.80e+02,
507,-1.60e-01,1.80e+02,
508,-1.60e-01,1.80e+02,
509,-1.60e-01,1.80e+02,
510,-1.60e-01,1.80e+02,
511,-1.60e-01,1.80e+02,
512,-1.60e-01,1.80e+02,
513,-1.60e-01,1.80e+02,
514,-1.60e-01,1.80e+02,
515,-1.60e-01,1.80e+02,
516,-1.60e-01,1.80e+02,
517,-1.60e-01,1.80e+02,
518,-1.60e-01,1.80e+02,
519,-1.60e-01,1.80e+02,
520,-1.60e-01,1.80e+02,
521,-1.60e-01,1.80e+02,
522,-1.60e-01,1.80e+02,
523,-1.60e-01,1.80e+02,
524,-1.60e-01,1.80e+02,
525,-1.60e-01,1.80e+02,
526,-1.60e-01,1.80e+02,
527,-1.60e-01,1.80e+02,
528,-1.60e-01,1.80e+02,
529,-1.60e-01,1.80e+02,
530,-1.60e-01,1.80e+02,
531,-1.60e-01,1.80e+02,
532,-1.60e-01,1.80e+02,
533,-1.60e-01,1.80e+02,
534,-1.60e-01,1.80e+02,
535,-1.60e-01,1.80e+02,
536,-1.60e-01,1.80e+02,
537,-1.60e-01,1.80e+02,
538,-1.60e-01,1.80e+02,
539,-1.60e-01,1.80e+02,
540,-1.60e-01,1.80e+02,
541,-1.60e-01,1.80e+02,
542,-1.60e-01,1.80e+02,
543,-1.60e-01,1.80e+02,
544,-1.60e-01,1.80e+02,
545,-1.60e-01,1.80e+02,
546,-1.60e-01,1.80e+02,
547,-1.60e-01,1.80e+02,
548,-1.60e-01,1.80e+02,
549,-1.60e-01,1.80e+02,
550,-1.60e-01,1.80e+02,
551,-1.60e-01,1.80e+02,
552,-1.60e-01,1.80e+02,
553,-1.60e-01,1.80e+02,
554,-1.60e-01,1.80e+02,
555,-1.60e-01,1.80e+02,
556,-1.60e-01,1.80e+02,
557,-1.60e-01,1.80e+02,
558,-1.60e-01,1.80e+02,
559,-1.60e-01,1.80e+02,
560,-1.60e-01,1.80e+02,
561,-1.60e-01,1.80e+02,
562,-1.60e-01,1.80e+02,
563,-1.60e-01,1.80e+02,
564,-1.60e-01,1.80e+02,
565,-1.60e-01,1.80e+02,
566,-1.60e-01,1.80e+02,
567,-1.60e-01,1.80e+02,
568,-1.60e-01,1.80e+02,
569,-1.60e-01,1.80e+02,
570,-1.60e-01,1.80e+02,
571,-1.60e-01,1.80e+02,
572,-1.60e-01,1.80e+02,
573,-1.60e-01,1.80e+02,
574,-1.60e-01,1.80e+02,
575,-1.60e-01,1.80e+02,
576,-1.60e-01,1.80e+02,
577,-1.60e-01,1.80e+02,
578,-1.60e-01,1.80e+02,
579,-1.60e-01,1.80e+02,
580,-1.60e-01,1.80e+02,
581,-1.60e-01,1.80e+02,
582,-1.60e-01,1.80e+02,
583,-1.60e-01,1.80e+02,
584,-1.60e-01,1.80e+02,
585,-1.60e-01,1.80e+02,
586,-1.60e-01,1.80e+02,
587,-1.60e-01,1.80e+02,
588,-1.60e-01,1.80e+02,
589,-1.60e-01,1.80e+02,
590,-1.60e-01,1.80e+02,
591,-1.60e-01,1.80e+02,
592,-1.60e-01,1.80e+02,
593,-1.60e-01,1.80e+02,
594,-1.60e-01,1.80e+02,
595,-1.60e-01,1.80e+02,
596,-1.60e-01,1.80e+02,
597,-1.60e-01,1.80e+02,
598,-1.60e-01,1.80e+02,
599,-1.60e-01,1.80e+02,
600,-1.60e-01,1.80e+02,
601,-1.60e-01,1.80e+02,
602,-1.60e-01,1.80e+02,
603,-1.60e-01,1.80e+02,
604,-1.60e-01,1.80e+02,
605,-1.60e-01,1.80e+02,
606,-1.60e-01,1.80e+02,
607,-1.60e-01,1.80e+02,
608,-1.60e-01,1.80e+02,
609,-1.60e-01,1.80e+02,
610,-1.60e-01,1.80e+02,
611,-1.60e-01,1.80e+02,
612,-1.60e-01,1.80e+02,
613,-1.60e-01,1.80e+02,
614,-1.60e-01,1.80e+02,
615,-1.60e-01,1.80e+02,
616,-1.60e-01,1.80e+02,
617,-1.60e-01,1.80e+02,
618,-1.60e-01,1.80e+02,
619,-1.60e-01,1.80e+02,
620,-1.60e-01,1.78e+02,
621,-1.60e-01,1.80e+02,
622,-1.60e-01,1.80e+02,
623,-1.60e-01,1.80e+02,
624,-1.60e-01,1.80e+02,
625,-1.60e-01,1.78e+02,
626,-1.60e-01,1.78e+02,
627,-1.60e-01,1.80e+02,
628,-1.60e-01,1.78e+02,
629,-1.60e-01,1.80e+02,
630,-1.60e-01,1.78e+02,
631,-1.60e-01,1.78e+02,
632,-1.60e-01,1.78e+02,
633,-1.60e-01,1.78e+02,
634,-1.60e-01,1.78e+02,
635,-1.60e-01,1.78e+02,
636,-1.60e-01,1.78e+02,
637,-1.60e-01,1.78e+02,
638,-1.60e-01,1.78e+02,
639,-1.60e-01,1.78e+02,
640,-1.60e-01,1.78e+02,
641,-1.60e-01,1.78e+02,
642,-1.60e-01,1.78e+02,
643,-1.60e-01,1.78e+02,
644,-1.60e-01,1.78e+02,
645,-1.60e-01,1.78e+02,
646,-1.60e-01,1.78e+02,
647,-1.60e-01,1.78e+02,
648,-1.60e-01,1.78e+02,
649,-1.60e-01,1.78e+02,
650,-1.60e-01,1.78e+02,
651,-1.60e-01,1.78e+02,
652,-1.60e-01,1.76e+02,
653,-1.60e-01,1.76e+02,
654,-1.60e-01,1.76e+02,
655,-1.60e-01,1.76e+02,
656,-1.60e-01,1.76e+02,
657,-1.60e-01,1.76e+02,
658,-1.60e-01,1.76e+02,
659,-1.60e-01,1.76e+02,
660,-1.60e-01,1.74e+02,
661,-1.60e-01,1.74e+02,
662,-1.60e-01,1.74e+02,
663,-1.60e-01,1.74e+02,
664,-1.60e-01,1.74e+02,
665,-1.60e-01,1.70e+02,
666,-1.60e-01,1.70e+02,
667,-1.60e-01,1.70e+02,
668,-1.60e-01,1.70e+02,
669,-1.60e-01,1.68e+02,
670,-1.60e-01,1.68e+02,
671,-1.60e-01,1.68e+02,
672,-1.60e-01,1.68e+02,
673,-1.60e-01,1.66e+02,
674,-1.60e-01,1.66e+02,
675,-1.60e-01,1.66e+02,
676,-1.60e-01,1.64e+02,
677,-1.60e-01,1.64e+02,
678,-1.60e-01,1.64e+02,
679,-1.60e-01,1.62e+02,
680,-1.60e-01,1.62e+02,
681,-1.60e-01,1.62e+02,
682,-1.60e-01,1.60e+02,
683,-1.60e-01,1.60e+02,
684,-1.60e-01,1.58e+02,
685,-1.60e-01,1.58e+02,
686,-1.60e-01,1.58e+02,
687,-1.60e-01,1.56e+02,
688,-1.60e-01,1.56e+02,
689,-1.60e-01,1.56e+02,
690,-1.60e-01,1.52e+02,
691,-1.60e-01,1.52e+02,
692,-1.60e-01,1.50e+02,
693,-1.60e-01,1.50e+02,
694,-1.60e-01,1.48e+02,
695,-1.60e-01,1.48e+02,
696,-1.60e-01,1.46e+02,
697,-1.60e-01,1.46e+02,
698,-1.60e-01,1.46e+02,
699,-1.60e-01,1.44e+02,
700,-1.60e-01,1.44e+02,
701,-1.60e-01,1.42e+02,
702,-1.60e-01,1.42e+02,
703,-1.60e-01,1.40e+02,
704,-1.60e-01,1.40e+02,
705,-1.60e-01,1.36e+02,
706,-1.60e-01,1.36e+02,
707,-1.60e-01,1.34e+02,
708,-1.60e-01,1.34e+02,
709,-1.60e-01,1.32e+02,
710,-1.60e-01,1.32e+02,
711,-1.60e-01,1.30e+02,
712,-1.60e-01,1.30e+02,
713,-1.60e-01,1.28e+02,
714,-1.60e-01,1.28e+02,
715,-1.60e-01,1.26e+02,
716,-1.60e-01,1.26e+02,
717,-1.60e-01,1.24e+02,
718,-1.60e-01,1.24e+02,
719,-1.60e-01,1.22e+02,
720,-1.60e-01,1.22e+02,
721,-1.60e-01,1.18e+02,
722,-1.60e-01,1.18e+02,
723,-1.60e-01,1.16e+02,
724,-1.60e-01,1.16e+02,
725,-1.60e-01,1.14e+02,
726,-1.60e-01,1.14e+02,
727,-1.60e-01,1.12e+02,
728,-1.60e-01,1.12e+02,
729,-1.60e-01,1.10e+02,
730,-1.60e-01,1.10e+02,
731,-1.60e-01,1.08e+02,
732,-1.60e-01,1.08e+02,
733,-1.60e-01,1.06e+02,
734,-1.60e-01,1.06e+02,
735,-1.60e-01,1.02e+02,
736,-1.60e-01,1.02e+02,
737,-1.60e-01,1.00e+02,
738,-1.60e-01,1.00e+02,
739,-1.60e-01,9.80e+01,
740,-1.60e-01,9.80e+01,
741,-1.60e-01,9.60e+01,
742,-1.60e-01,9.60e+01,
743,-1.60e-01,9.40e+01,
744,-1.60e-01,9.40e+01,
745,-1.60e-01,9.20e+01,
746,-1.60e-01,9.20e+01,
747,-1.60e-01,9.20e+01,
748,-1.60e-01,9.00e+01,
749,-1.60e-01,9.00e+01,
750,-1.60e-01,8.80e+01,
751,-1.60e-01,8.40e+01,
752,-1.60e-01,8.40e+01,
753,-1.60e-01,8.40e+01,
754,-1.60e-01,8.20e+01,
755,-1.60e-01,8.20e+01,
756,-1.60e-01,8.00e+01,
757,-1.60e-01,8.00e+01,
758,-1.60e-01,7.80e+01,
759,-1.60e-01,7.80e+01,
760,-1.60e-01,7.80e+01,
761,-1.60e-01,7.60e+01,
762,-1.60e-01,7.60e+01,
763,-1.60e-01,7.60e+01,
764,-1.60e-01,7.40e+01,
765,-1.60e-01,7.40e+01,
766,-1.60e-01,7.20e+01,
767,-1.60e-01,7.20e+01,
768,-1.60e-01,6.80e+01,
769,-1.60e-01,6.80e+01,
770,-1.60e-01,6.80e+01,
771,-1.60e-01,6.60e+01,
772,-1.60e-01,6.60e+01,
773,-1.60e-01,6.60e+01,
774,-1.60e-01,6.40e+01,
775,-1.60e-01,6.40e+01,
776,-1.60e-01,6.40e+01,
777,-1.60e-01,6.20e+01,
778,-1.60e-01,6.20e+01,
779,-1.60e-01,6.20e+01,
780,-1.60e-01,6.00e+01,
781,-1.60e-01,6.00e+01,
782,-1.60e-01,5.80e+01,
783,-1.60e-01,5.80e+01,
784,-1.60e-01,5.80e+01,
785,-1.60e-01,5.80e+01,
786,-1.60e-01,5.60e+01,
787,-1.60e-01,5.60e+01,
788,-1.60e-01,5.60e+01,
789,-1.60e-01,5.60e+01,
790,-1.60e-01,5.40e+01,
791,-1.60e-01,5.40e+01,
792,-1.60e-01,5.40e+01,
793,-1.60e-01,5.00e+01,
794,-1.60e-01,5.00e+01,
795,-1.60e-01,5.00e+01,
796,-1.60e-01,5.00e+01,
797,-1.60e-01,4.80e+01,
798,-1.60e-01,4.80e+01,
799,-1.60e-01,4.80e+01,
800,-1.60e-01,4.60e+01,
801,-1.60e-01,4.60e+01,
802,-1.60e-01,4.60e+01,
803,-1.60e-01,4.60e+01,
804,-1.60e-01,4.60e+01,
805,-1.60e-01,4.40e+01,
806,-1.60e-01,4.40e+01,
807,-1.60e-01,4.40e+01,
808,-1.60e-01,4.40e+01,
809,-1.60e-01,4.40e+01,
810,-1.60e-01,4.20e+01,
811,-1.60e-01,4.20e+01,
812,-1.60e-01,4.20e+01,
813,-1.60e-01,4.20e+01,
814,-1.60e-01,4.20e+01,
815,-1.60e-01,4.00e+01,
816,-1.60e-01,4.00e+01,
817,-1.60e-01,4.00e+01,
818,-1.60e-01,4.00e+01,
819,-1.60e-01,4.00e+01,
820,-1.60e-01,4.00e+01,
821,-1.60e-01,4.00e+01,
822,-1.60e-01,3.80e+01,
823,-1.60e-01,3.80e+01,
824,-1.60e-01,3.80e+01,
825,-1.60e-01,3.80e+01,
826,-1.60e-01,3.80e+01,
827,-1.60e-01,3.80e+01,
828,-1.60e-01,3.60e+01,
829,-1.60e-01,3.60e+01,
830,-1.60e-01,3.60e+01,
831,-1.60e-01,3.60e+01,
832,-1.60e-01,3.60e+01,
833,-1.60e-01,3.60e+01,
