Lab7/V3/NewFile3.csv

X,CH1,CH2,CH3,Start,Increment,
Sequence,Volt,Volt,Volt,-2.984000e-05,4.000000e-09
0,-8.00e-03,2.68e+01,3.27e+01,
1,-8.00e-03,2.64e+01,3.27e+01,
2,-8.00e-03,2.68e+01,3.27e+01,
3,-8.00e-03,2.64e+01,3.27e+01,
4,-1.60e-02,2.64e+01,3.27e+01,
5,-1.60e-02,2.64e+01,3.27e+01,
6,-8.00e-03,2.64e+01,3.27e+01,
7,-1.60e-02,2.64e+01,3.27e+01,
8,-8.00e-03,2.68e+01,3.27e+01,
9,-8.00e-03,2.64e+01,3.27e+01,
10,-8.00e-03,2.68e+01,3.27e+01,
11,-8.00e-03,2.64e+01,3.27e+01,
12,-8.00e-03,2.64e+01,3.27e+01,
13,-8.00e-03,2.64e+01,3.27e+01,
14,-8.00e-03,2.64e+01,3.27e+01,
15,-1.60e-02,2.64e+01,3.27e+01,
16,-8.00e-03,2.68e+01,3.27e+01,
17,-8.00e-03,2.64e+01,3.27e+01,
18,-8.00e-03,2.64e+01,3.27e+01,
19,-1.60e-02,2.64e+01,3.27e+01,
20,-8.00e-03,2.68e+01,3.27e+01,
21,-8.00e-03,2.64e+01,3.27e+01,
22,-8.00e-03,2.64e+01,3.27e+01,
23,-1.60e-02,2.64e+01,3.27e+01,
24,-1.60e-02,2.68e+01,3.27e+01,
25,-8.00e-03,2.64e+01,3.27e+01,
26,-8.00e-03,2.68e+01,3.27e+01,
27,-8.00e-03,2.64e+01,3.27e+01,
28,-1.60e-02,2.68e+01,3.27e+01,
29,-8.00e-03,2.64e+01,3.27e+01,
30,-8.00e-03,2.64e+01,3.27e+01,
31,-8.00e-03,2.64e+01,3.27e+01,
32,-8.00e-03,2.64e+01,3.27e+01,
33,-1.60e-02,2.64e+01,3.27e+01,
34,-8.00e-03,2.64e+01,3.27e+01,
35,-1.60e-02,2.64e+01,3.27e+01,
36,-8.00e-03,2.64e+01,3.27e+01,
37,-8.00e-03,2.64e+01,3.27e+01,
38,-8.00e-03,2.68e+01,3.27e+01,
39,-8.00e-03,2.64e+01,3.27e+01,
40,-1.60e-02,2.68e+01,3.27e+01,
41,-8.00e-03,2.64e+01,3.27e+01,
42,-8.00e-03,2.68e+01,3.27e+01,
43,-1.60e-02,2.64e+01,3.27e+01,
44,-8.00e-03,2.68e+01,3.27e+01,
45,-1.60e-02,2.64e+01,3.27e+01,
46,-8.00e-03,2.64e+01,3.27e+01,
47,-1.60e-02,2.64e+01,3.27e+01,
48,-1.60e-02,2.68e+01,3.27e+01,
49,-1.60e-02,2.64e+01,3.27e+01,
50,-8.00e-03,2.64e+01,3.27e+01,
51,-1.60e-02,2.64e+01,3.27e+01,
52,-8.00e-03,2.68e+01,3.27e+01,
53,-1.60e-02,2.64e+01,3.27e+01,
54,-8.00e-03,2.68e+01,3.27e+01,
55,-8.00e-03,2.64e+01,3.27e+01,
56,-8.00e-03,2.64e+01,3.27e+01,
57,-8.00e-03,2.64e+01,3.27e+01,
58,-8.00e-03,2.64e+01,3.27e+01,
59,-1.60e-02,2.68e+01,3.27e+01,
60,-1.60e-02,2.64e+01,3.27e+01,
61,-8.00e-03,2.64e+01,3.27e+01,
62,-8.00e-03,2.64e+01,3.27e+01,
63,-1.60e-02,2.64e+01,3.27e+01,
64,-8.00e-03,2.68e+01,3.27e+01,
65,-1.60e-02,2.64e+01,3.27e+01,
66,-8.00e-03,2.68e+01,3.27e+01,
67,-8.00e-03,2.64e+01,3.27e+01,
68,-8.00e-03,2.68e+01,3.27e+01,
69,-8.00e-03,2.64e+01,3.27e+01,
70,-1.60e-02,2.68e+01,3.27e+01,
71,-1.60e-02,2.64e+01,3.27e+01,
72,-8.00e-03,2.68e+01,3.27e+01,
73,-1.60e-02,2.64e+01,3.27e+01,
74,-8.00e-03,2.64e+01,3.27e+01,
75,-1.60e-02,2.64e+01,3.27e+01,
76,-8.00e-03,2.68e+01,3.27e+01,
77,-8.00e-03,2.68e+01,3.27e+01,
78,-1.60e-02,2.64e+01,3.27e+01,
79,-1.60e-02,2.64e+01,3.27e+01,
80,-8.00e-03,2.64e+01,3.27e+01,
81,-8.00e-03,2.64e+01,3.27e+01,
82,-8.00e-03,2.68e+01,3.27e+01,
83,-8.00e-03,2.64e+01,3.27e+01,
84,-8.00e-03,2.64e+01,3.27e+01,
85,-8.00e-03,2.68e+01,3.27e+01,
86,-8.00e-03,2.64e+01,3.27e+01,
87,-8.00e-03,2.64e+01,3.27e+01,
88,-8.00e-03,2.64e+01,3.27e+01,
89,-8.00e-03,2.64e+01,3.27e+01,
90,-8.00e-03,2.64e+01,3.27e+01,
91,-1.60e-02,2.64e+01,3.27e+01,
92,-8.00e-03,2.64e+01,3.27e+01,
93,-8.00e-03,2.64e+01,3.27e+01,
94,-8.00e-03,2.68e+01,3.27e+01,
95,-1.60e-02,2.64e+01,3.27e+01,
96,-8.00e-03,2.64e+01,3.27e+01,
97,-8.00e-03,2.64e+01,3.27e+01,
98,-8.00e-03,2.64e+01,3.27e+01,
99,-1.60e-02,2.68e+01,3.27e+01,
100,-8.00e-03,2.64e+01,3.27e+01,
101,-1.60e-02,2.64e+01,3.27e+01,
102,-8.00e-03,2.64e+01,3.27e+01,
103,-8.00e-03,2.64e+01,3.27e+01,
104,-8.00e-03,2.68e+01,3.27e+01,
105,-8.00e-03,2.64e+01,3.27e+01,
106,-8.00e-03,2.64e+01,3.27e+01,
107,-1.60e-02,2.64e+01,3.27e+01,
108,-8.00e-03,2.64e+01,3.27e+01,
109,-8.00e-03,2.64e+01,3.27e+01,
110,-8.00e-03,2.64e+01,3.27e+01,
111,-1.60e-02,2.64e+01,3.27e+01,
112,-8.00e-03,2.64e+01,3.27e+01,
113,-8.00e-03,2.64e+01,3.27e+01,
114,-8.00e-03,2.64e+01,3.27e+01,
115,-8.00e-03,2.64e+01,3.27e+01,
116,-8.00e-03,2.64e+01,3.27e+01,
117,-8.00e-03,2.64e+01,3.27e+01,
118,-8.00e-03,2.64e+01,3.27e+01,
119,-8.00e-03,2.64e+01,3.27e+01,
120,-8.00e-03,2.64e+01,3.27e+01,
121,-8.00e-03,2.64e+01,3.27e+01,
122,-8.00e-03,2.64e+01,3.27e+01,
123,-1.60e-02,2.64e+01,3.27e+01,
124,-8.00e-03,2.68e+01,3.27e+01,
125,-8.00e-03,2.64e+01,3.27e+01,
126,-8.00e-03,2.68e+01,3.27e+01,
127,-8.00e-03,2.64e+01,3.27e+01,
128,-8.00e-03,2.64e+01,3.27e+01,
129,-8.00e-03,2.64e+01,3.27e+01,
130,-8.00e-03,2.64e+01,3.27e+01,
131,-1.60e-02,2.64e+01,3.27e+01,
132,-8.00e-03,2.64e+01,3.27e+01,
133,-8.00e-03,2.64e+01,3.27e+01,
134,-8.00e-03,2.64e+01,3.27e+01,
135,-8.00e-03,2.64e+01,3.27e+01,
136,-8.00e-03,2.68e+01,3.27e+01,
137,-8.00e-03,2.64e+01,3.27e+01,
138,-8.00e-03,2.64e+01,3.27e+01,
139,-8.00e-03,2.64e+01,3.27e+01,
140,-8.00e-03,2.64e+01,3.27e+01,
141,-8.00e-03,2.64e+01,3.27e+01,
142,-8.00e-03,2.64e+01,3.27e+01,
143,-1.60e-02,2.64e+01,3.23e+01,
144,-8.00e-03,2.64e+01,3.27e+01,
145,-8.00e-03,2.64e+01,3.27e+01,
146,-8.00e-03,2.64e+01,3.27e+01,
147,-1.60e-02,2.64e+01,3.27e+01,
148,-8.00e-03,2.64e+01,3.27e+01,
149,-8.00e-03,2.64e+01,3.27e+01,
150,-8.00e-03,2.64e+01,3.27e+01,
151,-8.00e-03,2.64e+01,3.27e+01,
152,-8.00e-03,2.64e+01,3.27e+01,
153,-8.00e-03,2.64e+01,3.27e+01,
154,-8.00e-03,2.64e+01,3.27e+01,
155,-8.00e-03,2.64e+01,3.27e+01,
156,-8.00e-03,2.64e+01,3.27e+01,
157,-8.00e-03,2.64e+01,3.27e+01,
158,-8.00e-03,2.64e+01,3.23e+01,
159,-1.60e-02,2.64e+01,3.27e+01,
160,-8.00e-03,2.64e+01,3.27e+01,
161,-8.00e-03,2.64e+01,3.27e+01,
162,-8.00e-03,2.64e+01,3.27e+01,
163,-1.60e-02,2.64e+01,3.27e+01,
164,-8.00e-03,2.64e+01,3.27e+01,
165,-8.00e-03,2.64e+01,3.27e+01,
166,-8.00e-03,2.64e+01,3.27e+01,
167,-8.00e-03,2.64e+01,3.27e+01,
168,-8.00e-03,2.64e+01,3.27e+01,
169,-8.00e-03,2.64e+01,3.27e+01,
170,-8.00e-03,2.64e+01,3.27e+01,
171,-8.00e-03,2.64e+01,3.27e+01,
172,-1.60e-02,2.64e+01,3.27e+01,
173,-8.00e-03,2.64e+01,3.27e+01,
174,-8.00e-03,2.64e+01,3.27e+01,
175,-8.00e-03,2.64e+01,3.27e+01,
176,-8.00e-03,2.64e+01,3.27e+01,
177,-8.00e-03,2.64e+01,3.27e+01,
178,-8.00e-03,2.64e+01,3.27e+01,
179,-8.00e-03,2.64e+01,3.27e+01,
180,-8.00e-03,2.64e+01,3.27e+01,
181,-8.00e-03,2.64e+01,3.27e+01,
182,-8.00e-03,2.64e+01,3.27e+01,
183,-8.00e-03,2.64e+01,3.27e+01,
184,-8.00e-03,2.64e+01,3.27e+01,
185,-8.00e-03,2.64e+01,3.27e+01,
186,-8.00e-03,2.64e+01,3.27e+01,
187,-1.60e-02,2.64e+01,3.27e+01,
188,-8.00e-03,2.68e+01,3.27e+01,
189,-8.00e-03,2.64e+01,3.27e+01,
190,-8.00e-03,2.68e+01,3.27e+01,
191,-8.00e-03,2.64e+01,3.27e+01,
192,-8.00e-03,2.64e+01,3.27e+01,
193,-8.00e-03,2.64e+01,3.27e+01,
194,-8.00e-03,2.64e+01,3.27e+01,
195,-8.00e-03,2.64e+01,3.27e+01,
196,-8.00e-03,2.64e+01,3.27e+01,
197,-8.00e-03,2.64e+01,3.27e+01,
198,-8.00e-03,2.64e+01,3.27e+01,
199,-8.00e-03,2.64e+01,3.27e+01,
200,-8.00e-03,2.64e+01,3.27e+01,
201,-8.00e-03,2.64e+01,3.27e+01,
202,-8.00e-03,2.64e+01,3.27e+01,
203,-1.60e-02,2.64e+01,3.27e+01,
204,-8.00e-03,2.68e+01,3.27e+01,
205,-8.00e-03,2.64e+01,3.27e+01,
206,-8.00e-03,2.64e+01,3.27e+01,
207,-1.60e-02,2.64e+01,3.27e+01,
208,-8.00e-03,2.64e+01,3.27e+01,
209,-8.00e-03,2.64e+01,3.27e+01,
210,-8.00e-03,2.64e+01,3.27e+01,
211,-1.60e-02,2.64e+01,3.27e+01,
212,-8.00e-03,2.64e+01,3.27e+01,
213,-8.00e-03,2.64e+01,3.27e+01,
214,-8.00e-03,2.64e+01,3.27e+01,
215,-8.00e-03,2.64e+01,3.27e+01,
216,-8.00e-03,2.64e+01,3.27e+01,
217,-8.00e-03,2.64e+01,3.27e+01,
218,-8.00e-03,2.64e+01,3.27e+01,
219,-8.00e-03,2.64e+01,3.27e+01,
220,-8.00e-03,2.64e+01,3.27e+01,
221,-8.00e-03,2.64e+01,3.27e+01,
222,-8.00e-03,2.64e+01,3.27e+01,
223,-8.00e-03,2.64e+01,3.27e+01,
224,-1.60e-02,2.64e+01,3.23e+01,
225,-8.00e-03,2.64e+01,3.27e+01,
226,-1.60e-02,2.64e+01,3.23e+01,
227,-1.60e-02,2.64e+01,3.27e+01,
228,-8.00e-03,2.64e+01,3.27e+01,
229,-8.00e-03,2.64e+01,3.27e+01,
230,-8.00e-03,2.64e+01,3.27e+01,
231,-8.00e-03,2.64e+01,3.27e+01,
232,-8.00e-03,2.64e+01,3.27e+01,
233,-1.60e-02,2.64e+01,3.27e+01,
234,-8.00e-03,2.64e+01,3.27e+01,
235,-8.00e-03,2.64e+01,3.27e+01,
236,-8.00e-03,2.64e+01,3.27e+01,
237,-8.00e-03,2.64e+01,3.27e+01,
238,-8.00e-03,2.64e+01,3.27e+01,
239,-8.00e-03,2.64e+01,3.27e+01,
240,-8.00e-03,2.64e+01,3.27e+01,
241,-8.00e-03,2.64e+01,3.27e+01,
242,-8.00e-03,2.64e+01,3.27e+01,
243,-8.00e-03,2.64e+01,3.27e+01,
244,-8.00e-03,2.64e+01,3.27e+01,
245,-8.00e-03,2.64e+01,3.27e+01,
246,-8.00e-03,2.64e+01,3.27e+01,
247,-1.60e-02,2.64e+01,3.27e+01,
248,-8.00e-03,2.64e+01,3.27e+01,
249,-8.00e-03,2.64e+01,3.23e+01,
250,-8.00e-03,2.64e+01,3.27e+01,
251,-8.00e-03,2.64e+01,3.23e+01,
252,-1.60e-02,2.64e+01,3.27e+01,
253,-8.00e-03,2.64e+01,3.27e+01,
254,-8.00e-03,2.64e+01,3.27e+01,
255,-8.00e-03,2.64e+01,3.23e+01,
256,-8.00e-03,2.64e+01,3.27e+01,
257,-8.00e-03,2.64e+01,3.27e+01,
258,-8.00e-03,2.64e+01,3.27e+01,
259,-1.60e-02,2.64e+01,3.27e+01,
260,-8.00e-03,2.64e+01,3.27e+01,
261,-8.00e-03,2.64e+01,3.27e+01,
262,-8.00e-03,2.64e+01,3.27e+01,
263,-8.00e-03,2.64e+01,3.23e+01,
264,-8.00e-03,2.64e+01,3.27e+01,
265,-8.00e-03,2.64e+01,3.27e+01,
266,-8.00e-03,2.64e+01,3.27e+01,
267,-8.00e-03,2.64e+01,3.27e+01,
268,-8.00e-03,2.64e+01,3.27e+01,
269,-1.60e-02,2.64e+01,3.27e+01,
270,-8.00e-03,2.64e+01,3.27e+01,
271,-8.00e-03,2.64e+01,3.23e+01,
272,-8.00e-03,2.64e+01,3.27e+01,
273,-8.00e-03,2.64e+01,3.23e+01,
274,-8.00e-03,2.64e+01,3.27e+01,
275,-8.00e-03,2.64e+01,3.27e+01,
276,-1.60e-02,2.64e+01,3.27e+01,
277,-8.00e-03,2.64e+01,3.23e+01,
278,-8.00e-03,2.64e+01,3.27e+01,
279,-1.60e-02,2.64e+01,3.27e+01,
280,-1.60e-02,2.64e+01,3.27e+01,
281,-8.00e-03,2.64e+01,3.27e+01,
282,-8.00e-03,2.64e+01,3.27e+01,
283,-8.00e-03,2.64e+01,3.23e+01,
284,-1.60e-02,2.64e+01,3.27e+01,
285,-8.00e-03,2.64e+01,3.27e+01,
286,-8.00e-03,2.64e+01,3.27e+01,
287,-1.60e-02,2.64e+01,3.27e+01,
288,-8.00e-03,2.64e+01,3.27e+01,
289,-8.00e-03,2.64e+01,3.27e+01,
290,-8.00e-03,2.64e+01,3.23e+01,
291,-8.00e-03,2.64e+01,3.23e+01,
292,-8.00e-03,2.64e+01,3.27e+01,
293,-8.00e-03,2.64e+01,3.23e+01,
294,-8.00e-03,2.64e+01,3.27e+01,
295,-8.00e-03,2.64e+01,3.27e+01,
296,-1.60e-02,2.64e+01,3.27e+01,
297,-8.00e-03,2.64e+01,3.27e+01,
298,-8.00e-03,2.64e+01,3.27e+01,
299,-1.60e-02,2.64e+01,3.23e+01,
300,-8.00e-03,2.64e+01,3.27e+01,
301,-1.60e-02,2.64e+01,3.23e+01,
302,-8.00e-03,2.64e+01,3.27e+01,
303,-8.00e-03,2.64e+01,3.27e+01,
304,-1.60e-02,2.64e+01,3.27e+01,
305,-8.00e-03,2.64e+01,3.27e+01,
306,-8.00e-03,2.64e+01,3.27e+01,
307,-1.60e-02,2.64e+01,3.23e+01,
308,-8.00e-03,2.64e+01,3.27e+01,
309,-8.00e-03,2.64e+01,3.27e+01,
310,-8.00e-03,2.64e+01,3.27e+01,
311,-1.60e-02,2.64e+01,3.27e+01,
312,-1.60e-02,2.64e+01,3.27e+01,
313,-8.00e-03,2.64e+01,3.27e+01,
314,-8.00e-03,2.64e+01,3.27e+01,
315,-8.00e-03,2.64e+01,3.27e+01,
316,-8.00e-03,2.64e+01,3.27e+01,
317,-8.00e-03,2.64e+01,3.27e+01,
318,-8.00e-03,2.64e+01,3.27e+01,
319,-8.00e-03,2.64e+01,3.27e+01,
320,-8.00e-03,2.64e+01,3.23e+01,
321,-1.60e-02,2.64e+01,3.27e+01,
322,-8.00e-03,2.64e+01,3.27e+01,
323,-8.00e-03,2.64e+01,3.27e+01,
324,-8.00e-03,2.64e+01,3.27e+01,
325,-8.00e-03,2.64e+01,3.23e+01,
326,-8.00e-03,2.64e+01,3.27e+01,
327,-8.00e-03,2.64e+01,3.23e+01,
328,-8.00e-03,2.64e+01,3.23e+01,
329,-8.00e-03,2.64e+01,3.23e+01,
330,-8.00e-03,2.64e+01,3.27e+01,
331,-8.00e-03,2.64e+01,3.23e+01,
332,-8.00e-03,2.64e+01,3.27e+01,
333,-8.00e-03,2.64e+01,3.27e+01,
334,-8.00e-03,2.64e+01,3.27e+01,
335,-8.00e-03,2.64e+01,3.23e+01,
336,-8.00e-03,2.64e+01,3.27e+01,
337,-8.00e-03,2.64e+01,3.23e+01,
338,-8.00e-03,2.64e+01,3.23e+01,
339,-8.00e-03,2.64e+01,3.27e+01,
340,-8.00e-03,2.64e+01,3.27e+01,
341,-8.00e-03,2.64e+01,3.27e+01,
342,-8.00e-03,2.64e+01,3.23e+01,
343,-1.60e-02,2.64e+01,3.23e+01,
344,-8.00e-03,2.64e+01,3.23e+01,
345,-1.60e-02,2.64e+01,3.27e+01,
346,-8.00e-03,2.64e+01,3.23e+01,
347,-8.00e-03,2.64e+01,3.27e+01,
348,-8.00e-03,2.64e+01,3.27e+01,
349,-8.00e-03,2.64e+01,3.27e+01,
350,-8.00e-03,2.64e+01,3.27e+01,
351,-1.60e-02,2.64e+01,3.23e+01,
352,-8.00e-03,2.64e+01,3.27e+01,
353,-8.00e-03,2.64e+01,3.23e+01,
354,-8.00e-03,2.64e+01,3.27e+01,
355,-1.60e-02,2.64e+01,3.23e+01,
356,-8.00e-03,2.64e+01,3.23e+01,
357,-8.00e-03,2.64e+01,3.27e+01,
358,-8.00e-03,2.64e+01,3.23e+01,
359,-8.00e-03,2.64e+01,3.23e+01,
360,-8.00e-03,2.64e+01,3.23e+01,
361,-8.00e-03,2.64e+01,3.23e+01,
362,-8.00e-03,2.64e+01,3.23e+01,
363,-8.00e-03,2.64e+01,3.23e+01,
364,-8.00e-03,2.64e+01,3.27e+01,
365,-8.00e-03,2.64e+01,3.23e+01,
366,-8.00e-03,2.64e+01,3.23e+01,
367,-8.00e-03,2.64e+01,3.23e+01,
368,-8.00e-03,2.64e+01,3.23e+01,
369,-8.00e-03,2.64e+01,3.27e+01,
370,-8.00e-03,2.64e+01,3.27e+01,
371,-1.60e-02,2.64e+01,3.27e+01,
372,-1.60e-02,2.64e+01,3.23e+01,
373,-8.00e-03,2.64e+01,3.23e+01,
374,-1.60e-02,2.64e+01,3.27e+01,
375,-8.00e-03,2.64e+01,3.23e+01,
376,-8.00e-03,2.64e+01,3.23e+01,
377,-8.00e-03,2.64e+01,3.23e+01,
378,-8.00e-03,2.64e+01,3.23e+01,
379,-8.00e-03,2.64e+01,3.23e+01,
380,-8.00e-03,2.64e+01,3.23e+01,
381,-8.00e-03,2.64e+01,3.27e+01,
382,-8.00e-03,2.64e+01,3.23e+01,
383,-8.00e-03,2.64e+01,3.27e+01,
384,-8.00e-03,2.64e+01,3.27e+01,
385,-8.00e-03,2.64e+01,3.23e+01,
386,-8.00e-03,2.64e+01,3.23e+01,
387,-8.00e-03,2.64e+01,3.23e+01,
388,-8.00e-03,2.64e+01,3.23e+01,
389,-8.00e-03,2.64e+01,3.27e+01,
390,-8.00e-03,2.64e+01,3.23e+01,
391,-8.00e-03,2.64e+01,3.27e+01,
392,-8.00e-03,2.64e+01,3.23e+01,
393,-8.00e-03,2.64e+01,3.27e+01,
394,-8.00e-03,2.64e+01,3.23e+01,
395,-1.60e-02,2.64e+01,3.23e+01,
396,-1.60e-02,2.64e+01,3.23e+01,
397,-8.00e-03,2.64e+01,3.23e+01,
398,-8.00e-03,2.64e+01,3.23e+01,
399,-8.00e-03,2.64e+01,3.23e+01,
400,-8.00e-03,2.64e+01,3.23e+01,
401,-8.00e-03,2.64e+01,3.23e+01,
402,-8.00e-03,2.64e+01,3.27e+01,
403,-1.60e-02,2.64e+01,3.23e+01,
404,-8.00e-03,2.64e+01,3.23e+01,
405,-8.00e-03,2.64e+01,3.23e+01,
406,-8.00e-03,2.64e+01,3.23e+01,
407,-8.00e-03,2.64e+01,3.23e+01,
408,-8.00e-03,2.64e+01,3.23e+01,
409,-8.00e-03,2.64e+01,3.23e+01,
410,-8.00e-03,2.64e+01,3.27e+01,
411,-1.60e-02,2.64e+01,3.23e+01,
412,-8.00e-03,2.64e+01,3.23e+01,
413,-1.60e-02,2.64e+01,3.23e+01,
414,-8.00e-03,2.64e+01,3.23e+01,
415,-8.00e-03,2.64e+01,3.23e+01,
416,-1.60e-02,2.64e+01,3.23e+01,
417,-8.00e-03,2.64e+01,3.23e+01,
418,-8.00e-03,2.64e+01,3.23e+01,
419,-1.60e-02,2.64e+01,3.23e+01,
420,-8.00e-03,2.64e+01,3.23e+01,
421,-8.00e-03,2.64e+01,3.27e+01,
422,-8.00e-03,2.64e+01,3.27e+01,
423,-8.00e-03,2.64e+01,3.23e+01,
424,-8.00e-03,2.64e+01,3.23e+01,
425,-8.00e-03,2.64e+01,3.23e+01,
426,-8.00e-03,2.64e+01,3.23e+01,
427,-8.00e-03,2.64e+01,3.23e+01,
428,-8.00e-03,2.64e+01,3.23e+01,
429,-1.60e-02,2.64e+01,3.23e+01,
430,-8.00e-03,2.64e+01,3.23e+01,
431,-8.00e-03,2.64e+01,3.23e+01,
432,-1.60e-02,2.64e+01,3.23e+01,
433,-8.00e-03,2.64e+01,3.23e+01,
434,-8.00e-03,2.64e+01,3.23e+01,
435,-8.00e-03,2.64e+01,3.23e+01,
436,-8.00e-03,2.64e+01,3.23e+01,
437,-8.00e-03,2.64e+01,3.27e+01,
438,-8.00e-03,2.64e+01,3.23e+01,
439,-1.60e-02,2.64e+01,3.23e+01,
440,-1.60e-02,2.64e+01,3.23e+01,
441,-1.60e-02,2.64e+01,3.23e+01,
442,-8.00e-03,2.64e+01,3.23e+01,
443,-1.60e-02,2.64e+01,3.23e+01,
444,-8.00e-03,2.64e+01,3.23e+01,
445,-8.00e-03,2.64e+01,3.23e+01,
446,-8.00e-03,2.64e+01,3.23e+01,
447,-8.00e-03,2.64e+01,3.27e+01,
448,-1.60e-02,2.64e+01,3.23e+01,
449,-8.00e-03,2.64e+01,3.23e+01,
450,-8.00e-03,2.64e+01,3.23e+01,
451,-8.00e-03,2.64e+01,3.23e+01,
452,-1.60e-02,2.64e+01,3.23e+01,
453,-1.60e-02,2.64e+01,3.23e+01,
454,-8.00e-03,2.64e+01,3.23e+01,
455,-8.00e-03,2.64e+01,3.23e+01,
456,-8.00e-03,2.64e+01,3.23e+01,
457,-8.00e-03,2.64e+01,3.23e+01,
458,-8.00e-03,2.64e+01,3.23e+01,
459,-8.00e-03,2.64e+01,3.23e+01,
460,-1.60e-02,2.64e+01,3.23e+01,
461,-8.00e-03,2.64e+01,3.23e+01,
462,-1.60e-02,2.64e+01,3.23e+01,
463,-8.00e-03,2.64e+01,3.23e+01,
464,-8.00e-03,2.64e+01,3.23e+01,
465,-1.60e-02,2.64e+01,3.23e+01,
466,-8.00e-03,2.64e+01,3.23e+01,
467,-1.60e-02,2.64e+01,3.23e+01,
468,-8.00e-03,2.64e+01,3.23e+01,
469,-8.00e-03,2.64e+01,3.23e+01,
470,-8.00e-03,2.64e+01,3.23e+01,
471,-1.60e-02,2.64e+01,3.23e+01,
472,-8.00e-03,2.64e+01,3.23e+01,
473,-8.00e-03,2.64e+01,3.23e+01,
474,-8.00e-03,2.64e+01,3.23e+01,
475,-8.00e-03,2.64e+01,3.23e+01,
476,-8.00e-03,2.64e+01,3.23e+01,
477,-8.00e-03,2.64e+01,3.23e+01,
478,-8.00e-03,2.64e+01,3.23e+01,
479,-1.60e-02,2.64e+01,3.23e+01,
480,-8.00e-03,2.64e+01,3.23e+01,
481,-8.00e-03,2.64e+01,3.23e+01,
482,-8.00e-03,2.64e+01,3.23e+01,
483,-8.00e-03,2.64e+01,3.23e+01,
484,-1.60e-02,2.64e+01,3.27e+01,
485,-8.00e-03,2.64e+01,3.23e+01,
486,-8.00e-03,2.64e+01,3.23e+01,
487,-8.00e-03,2.64e+01,3.23e+01,
488,-1.60e-02,2.64e+01,3.23e+01,
489,-8.00e-03,2.64e+01,3.23e+01,
490,-8.00e-03,2.64e+01,3.23e+01,
491,-1.60e-02,2.64e+01,3.23e+01,
492,-8.00e-03,2.64e+01,3.23e+01,
493,-8.00e-03,2.64e+01,3.23e+01,
494,-8.00e-03,2.64e+01,3.23e+01,
495,-8.00e-03,2.64e+01,3.23e+01,
496,-8.00e-03,2.64e+01,3.23e+01,
497,-1.60e-02,2.64e+01,3.23e+01,
498,-8.00e-03,2.64e+01,3.23e+01,
499,-8.00e-03,2.64e+01,3.23e+01,
500,-8.00e-03,2.64e+01,3.23e+01,
501,-8.00e-03,2.64e+01,3.23e+01,
502,-8.00e-03,2.64e+01,3.23e+01,
503,-8.00e-03,2.64e+01,3.23e+01,
504,-8.00e-03,2.64e+01,3.23e+01,
505,-1.60e-02,2.64e+01,3.23e+01,
506,-8.00e-03,2.64e+01,3.23e+01,
507,-1.60e-02,2.64e+01,3.23e+01,
508,-8.00e-03,2.64e+01,3.23e+01,
509,-8.00e-03,2.64e+01,3.23e+01,
510,-8.00e-03,2.64e+01,3.23e+01,
511,-8.00e-03,2.64e+01,3.23e+01,
512,-1.60e-02,2.64e+01,3.23e+01,
513,-8.00e-03,2.64e+01,3.23e+01,
514,-8.00e-03,2.64e+01,3.23e+01,
515,-1.60e-02,2.64e+01,3.23e+01,
516,-1.60e-02,2.64e+01,3.23e+01,
517,-8.00e-03,2.64e+01,3.23e+01,
518,-8.00e-03,2.64e+01,3.23e+01,
519,-8.00e-03,2.64e+01,3.23e+01,
520,-1.60e-02,2.64e+01,3.23e+01,
521,-8.00e-03,2.64e+01,3.23e+01,
522,-8.00e-03,2.64e+01,3.23e+01,
523,-1.60e-02,2.64e+01,3.23e+01,
524,-8.00e-03,2.64e+01,3.23e+01,
525,-8.00e-03,2.64e+01,3.23e+01,
526,-8.00e-03,2.64e+01,3.23e+01,
527,-1.60e-02,2.64e+01,3.23e+01,
528,-8.00e-03,2.64e+01,3.23e+01,
529,-8.00e-03,2.64e+01,3.23e+01,
530,-8.00e-03,2.64e+01,3.23e+01,
531,-1.60e-02,2.64e+01,3.23e+01,
532,-8.00e-03,2.64e+01,3.23e+01,
533,-8.00e-03,2.64e+01,3.23e+01,
534,-8.00e-03,2.64e+01,3.23e+01,
535,-1.60e-02,2.64e+01,3.23e+01,
536,-1.60e-02,2.64e+01,3.23e+01,
537,-8.00e-03,2.64e+01,3.23e+01,
538,-8.00e-03,2.64e+01,3.23e+01,
539,-1.60e-02,2.64e+01,3.23e+01,
540,-8.00e-03,2.64e+01,3.23e+01,
541,-1.60e-02,2.64e+01,3.23e+01,
542,-8.00e-03,2.64e+01,3.23e+01,
543,-8.00e-03,2.64e+01,3.23e+01,
544,-8.00e-03,2.64e+01,3.23e+01,
545,-8.00e-03,2.64e+01,3.23e+01,
546,-8.00e-03,2.64e+01,3.23e+01,
547,-8.00e-03,2.64e+01,3.23e+01,
548,-8.00e-03,2.64e+01,3.23e+01,
549,-1.60e-02,2.64e+01,3.23e+01,
550,-8.00e-03,2.64e+01,3.23e+01,
551,-1.60e-02,2.64e+01,3.23e+01,
552,-8.00e-03,2.64e+01,3.23e+01,
553,-8.00e-03,2.64e+01,3.23e+01,
554,-8.00e-03,2.64e+01,3.23e+01,
555,-1.60e-02,2.64e+01,3.23e+01,
556,-1.60e-02,2.56e+01,3.23e+01,
557,-1.60e-02,2.56e+01,3.23e+01,
558,-8.00e-03,2.64e+01,3.23e+01,
559,-8.00e-03,2.56e+01,3.23e+01,
560,-8.00e-03,2.56e+01,3.23e+01,
561,-1.60e-02,2.56e+01,3.23e+01,
562,-1.60e-02,2.56e+01,3.23e+01,
563,-8.00e-03,2.56e+01,3.23e+01,
564,-8.00e-03,2.56e+01,3.23e+01,
565,-8.00e-03,2.56e+01,3.23e+01,
566,-8.00e-03,2.56e+01,3.23e+01,
567,-1.60e-02,2.48e+01,3.23e+01,
568,-1.60e-02,2.48e+01,3.23e+01,
569,-1.60e-02,2.48e+01,3.23e+01,
570,-1.60e-02,2.48e+01,3.23e+01,
571,-1.60e-02,2.48e+01,3.23e+01,
572,-1.60e-02,2.48e+01,3.23e+01,
573,-1.60e-02,2.48e+01,3.23e+01,
574,-1.60e-02,2.48e+01,3.23e+01,
575,-1.60e-02,2.48e+01,3.23e+01,
576,-1.60e-02,2.48e+01,3.23e+01,
577,-8.00e-03,2.44e+01,3.23e+01,
578,-1.60e-02,2.44e+01,3.23e+01,
579,-1.60e-02,2.44e+01,3.23e+01,
580,-1.60e-02,2.44e+01,3.23e+01,
581,-1.60e-02,2.44e+01,3.23e+01,
582,-1.60e-02,2.44e+01,3.23e+01,
583,-1.60e-02,2.44e+01,3.23e+01,
584,-1.60e-02,2.36e+01,3.23e+01,
585,-1.60e-02,2.36e+01,3.23e+01,
586,-1.60e-02,2.36e+01,3.23e+01,
587,-1.60e-02,2.36e+01,3.23e+01,
588,-1.60e-02,2.36e+01,3.23e+01,
589,-1.60e-02,2.36e+01,3.23e+01,
590,-8.00e-03,2.32e+01,3.23e+01,
591,-1.60e-02,2.32e+01,3.23e+01,
592,-1.60e-02,2.32e+01,3.23e+01,
593,-1.60e-02,2.32e+01,3.23e+01,
594,-1.60e-02,2.32e+01,3.23e+01,
595,-1.60e-02,2.24e+01,3.23e+01,
596,-1.60e-02,2.24e+01,3.23e+01,
597,-8.00e-03,2.24e+01,3.23e+01,
598,-8.00e-03,2.24e+01,3.23e+01,
599,-1.60e-02,2.24e+01,3.23e+01,
600,-8.00e-03,2.24e+01,3.23e+01,
601,-8.00e-03,2.20e+01,3.23e+01,
602,-1.60e-02,2.20e+01,3.23e+01,
603,-1.60e-02,2.20e+01,3.23e+01,
604,-1.60e-02,2.20e+01,3.23e+01,
605,-8.00e-03,2.20e+01,3.23e+01,
