Lab 4/5t-8.02.csv

X,CH1,CH2,Start,Increment,
Sequence,Volt,Volt,-1.192000e-05,2.000000e-09
0,-9.80e-03,1.80e+01,
1,-9.80e-03,1.80e+01,
2,-9.80e-03,1.80e+01,
3,-9.80e-03,1.80e+01,
4,-9.80e-03,1.80e+01,
5,-9.80e-03,1.80e+01,
6,-9.80e-03,1.80e+01,
7,-9.80e-03,1.80e+01,
8,-9.80e-03,1.80e+01,
9,-9.80e-03,1.80e+01,
10,-9.80e-03,1.80e+01,
11,-9.80e-03,1.80e+01,
12,-9.80e-03,1.80e+01,
13,-9.80e-03,1.80e+01,
14,-9.80e-03,1.80e+01,
15,-9.80e-03,1.80e+01,
16,-9.80e-03,1.80e+01,
17,-9.80e-03,1.80e+01,
18,-9.80e-03,1.80e+01,
19,-9.80e-03,1.80e+01,
20,-9.80e-03,1.80e+01,
21,-9.80e-03,1.80e+01,
22,-9.80e-03,1.80e+01,
23,-9.80e-03,1.80e+01,
24,-9.80e-03,1.80e+01,
25,-9.80e-03,1.80e+01,
26,-9.80e-03,1.80e+01,
27,-9.80e-03,1.80e+01,
28,-9.80e-03,1.80e+01,
29,-9.80e-03,1.80e+01,
30,-9.80e-03,1.80e+01,
31,-9.80e-03,1.80e+01,
32,-9.80e-03,1.80e+01,
33,-9.80e-03,1.80e+01,
34,-9.80e-03,1.80e+01,
35,-9.80e-03,1.80e+01,
36,-9.80e-03,1.80e+01,
37,-9.80e-03,1.80e+01,
38,-9.80e-03,1.80e+01,
39,-9.80e-03,1.80e+01,
40,-9.80e-03,1.80e+01,
41,-9.80e-03,1.80e+01,
42,-9.80e-03,1.80e+01,
43,-9.80e-03,1.80e+01,
44,-9.80e-03,1.80e+01,
45,-9.80e-03,1.80e+01,
46,-9.80e-03,1.80e+01,
47,-9.80e-03,1.80e+01,
48,-9.80e-03,1.80e+01,
49,-9.80e-03,1.80e+01,
50,-9.80e-03,1.80e+01,
51,-9.80e-03,1.80e+01,
52,-9.80e-03,1.80e+01,
53,-9.80e-03,1.80e+01,
54,-9.80e-03,1.80e+01,
55,-9.80e-03,1.80e+01,
56,-9.80e-03,1.80e+01,
57,-9.80e-03,1.80e+01,
58,-9.80e-03,1.80e+01,
59,-9.80e-03,1.80e+01,
60,-9.80e-03,1.80e+01,
61,-9.80e-03,1.80e+01,
62,-9.80e-03,1.80e+01,
63,-9.80e-03,1.80e+01,
64,-9.80e-03,1.80e+01,
65,-9.80e-03,1.80e+01,
66,-9.80e-03,1.80e+01,
67,-9.80e-03,1.80e+01,
68,-9.80e-03,1.80e+01,
69,-9.80e-03,1.80e+01,
70,-9.80e-03,1.80e+01,
71,-9.80e-03,1.80e+01,
72,-9.80e-03,1.80e+01,
73,-9.80e-03,1.80e+01,
74,-9.80e-03,1.80e+01,
75,-9.80e-03,1.80e+01,
76,-9.80e-03,1.80e+01,
77,-9.80e-03,1.80e+01,
78,-9.80e-03,1.80e+01,
79,-9.80e-03,1.80e+01,
80,-9.80e-03,1.80e+01,
81,-9.80e-03,1.80e+01,
82,-9.80e-03,1.80e+01,
83,-9.80e-03,1.80e+01,
84,-9.80e-03,1.80e+01,
85,-9.80e-03,1.80e+01,
86,-9.80e-03,1.80e+01,
87,-9.80e-03,1.80e+01,
88,-9.80e-03,1.80e+01,
89,-9.80e-03,1.80e+01,
90,-9.80e-03,1.80e+01,
91,-9.80e-03,1.80e+01,
92,-9.80e-03,1.80e+01,
93,-9.80e-03,1.80e+01,
94,-9.80e-03,1.80e+01,
95,-9.80e-03,1.80e+01,
96,-9.80e-03,1.80e+01,
97,-9.80e-03,1.80e+01,
98,-9.80e-03,1.80e+01,
99,-9.80e-03,1.80e+01,
100,-9.80e-03,1.80e+01,
101,-9.80e-03,1.80e+01,
102,-9.80e-03,1.80e+01,
103,-9.80e-03,1.80e+01,
104,-9.80e-03,1.80e+01,
105,-9.80e-03,1.80e+01,
106,-9.80e-03,1.80e+01,
107,-9.80e-03,1.80e+01,
108,-9.80e-03,1.80e+01,
109,-9.80e-03,1.80e+01,
110,-9.80e-03,1.80e+01,
111,-9.80e-03,1.80e+01,
112,-9.80e-03,1.80e+01,
113,-9.80e-03,1.80e+01,
114,-9.80e-03,1.80e+01,
115,-9.80e-03,1.80e+01,
116,-9.80e-03,1.80e+01,
117,-9.80e-03,1.80e+01,
118,-9.80e-03,1.80e+01,
119,-9.80e-03,1.80e+01,
120,-9.80e-03,1.80e+01,
121,-9.80e-03,1.80e+01,
122,-9.80e-03,1.80e+01,
123,-9.80e-03,1.80e+01,
124,-9.80e-03,1.80e+01,
125,-9.80e-03,1.80e+01,
126,-9.80e-03,1.80e+01,
127,-9.80e-03,1.80e+01,
128,-9.80e-03,1.80e+01,
129,-9.80e-03,1.80e+01,
130,-9.80e-03,1.80e+01,
131,-9.80e-03,1.80e+01,
132,-9.80e-03,1.80e+01,
133,-9.80e-03,1.80e+01,
134,-9.80e-03,1.80e+01,
135,-9.80e-03,1.80e+01,
136,-9.80e-03,1.80e+01,
137,-9.80e-03,1.80e+01,
138,-9.80e-03,1.80e+01,
139,-9.80e-03,1.80e+01,
140,-9.80e-03,1.80e+01,
141,-9.80e-03,1.80e+01,
142,-9.80e-03,1.80e+01,
143,-9.80e-03,1.80e+01,
144,-9.80e-03,1.80e+01,
145,-9.80e-03,1.80e+01,
146,-9.80e-03,1.80e+01,
147,-9.80e-03,1.80e+01,
148,-9.80e-03,1.80e+01,
149,-9.80e-03,1.80e+01,
150,-9.80e-03,1.80e+01,
151,-9.80e-03,1.80e+01,
152,-9.80e-03,1.80e+01,
153,-9.80e-03,1.80e+01,
154,-9.80e-03,1.80e+01,
155,-9.80e-03,1.80e+01,
156,-9.80e-03,1.80e+01,
157,-9.80e-03,1.80e+01,
158,-9.80e-03,1.80e+01,
159,-9.80e-03,1.80e+01,
160,-9.80e-03,1.80e+01,
161,-9.80e-03,1.80e+01,
162,-9.80e-03,1.80e+01,
163,-9.80e-03,1.80e+01,
164,-9.80e-03,1.80e+01,
165,-9.80e-03,1.80e+01,
166,-9.80e-03,1.80e+01,
167,-9.80e-03,1.80e+01,
168,-9.80e-03,1.80e+01,
169,-9.80e-03,1.80e+01,
170,-9.80e-03,1.80e+01,
171,-9.80e-03,1.80e+01,
172,-9.80e-03,1.80e+01,
173,-9.80e-03,1.80e+01,
174,-9.80e-03,1.80e+01,
175,-9.80e-03,1.80e+01,
176,-9.80e-03,1.80e+01,
177,-9.80e-03,1.80e+01,
178,-9.80e-03,1.80e+01,
179,-9.80e-03,1.80e+01,
180,-9.80e-03,1.80e+01,
181,-9.80e-03,1.80e+01,
182,-9.80e-03,1.80e+01,
183,-9.80e-03,1.80e+01,
184,-9.80e-03,1.80e+01,
185,-9.80e-03,1.80e+01,
186,-9.80e-03,1.80e+01,
187,-9.80e-03,1.80e+01,
188,-9.80e-03,1.80e+01,
189,-9.80e-03,1.80e+01,
190,-9.80e-03,1.80e+01,
191,-9.80e-03,1.80e+01,
192,-9.80e-03,1.80e+01,
193,-9.80e-03,1.80e+01,
194,-9.80e-03,1.80e+01,
195,-9.80e-03,1.80e+01,
196,-9.80e-03,1.80e+01,
197,-9.80e-03,1.80e+01,
198,-9.80e-03,1.80e+01,
199,-9.80e-03,1.80e+01,
200,-9.80e-03,1.80e+01,
201,-9.80e-03,1.80e+01,
202,-9.80e-03,1.80e+01,
203,-9.80e-03,1.80e+01,
204,-9.80e-03,1.80e+01,
205,-9.80e-03,1.80e+01,
206,-9.80e-03,1.80e+01,
207,-9.80e-03,1.80e+01,
208,-9.80e-03,1.80e+01,
209,-9.80e-03,1.80e+01,
210,-9.80e-03,1.80e+01,
211,-9.80e-03,1.80e+01,
212,-9.80e-03,1.80e+01,
213,-9.80e-03,1.80e+01,
214,-9.80e-03,1.80e+01,
215,-9.80e-03,1.80e+01,
216,-9.80e-03,1.80e+01,
217,-9.80e-03,1.80e+01,
218,-9.80e-03,1.80e+01,
219,-9.80e-03,1.80e+01,
220,-9.80e-03,1.80e+01,
221,-9.80e-03,1.80e+01,
222,-9.80e-03,1.80e+01,
223,-9.80e-03,1.80e+01,
224,-9.80e-03,1.80e+01,
225,-9.80e-03,1.80e+01,
226,-9.80e-03,1.80e+01,
227,-9.80e-03,1.80e+01,
228,-9.80e-03,1.80e+01,
229,-9.80e-03,1.80e+01,
230,-9.80e-03,1.80e+01,
231,-9.80e-03,1.80e+01,
232,-9.80e-03,1.80e+01,
233,-9.80e-03,1.80e+01,
234,-9.80e-03,1.80e+01,
235,-9.80e-03,1.80e+01,
236,-9.80e-03,1.80e+01,
237,-9.80e-03,1.80e+01,
238,-9.80e-03,1.80e+01,
239,-9.80e-03,1.80e+01,
240,-9.80e-03,1.80e+01,
241,-9.80e-03,1.80e+01,
242,-9.80e-03,1.80e+01,
243,-9.80e-03,1.80e+01,
244,-9.80e-03,1.80e+01,
245,-9.80e-03,1.80e+01,
246,-9.80e-03,1.80e+01,
247,-9.80e-03,1.80e+01,
248,-9.80e-03,1.80e+01,
249,-9.80e-03,1.80e+01,
250,-9.80e-03,1.80e+01,
251,-9.80e-03,1.80e+01,
252,-9.80e-03,1.80e+01,
253,-9.80e-03,1.80e+01,
254,-9.80e-03,1.80e+01,
255,-9.80e-03,1.80e+01,
256,-9.80e-03,1.80e+01,
257,-9.80e-03,1.80e+01,
258,-9.80e-03,1.80e+01,
259,-9.80e-03,1.80e+01,
260,-9.80e-03,1.80e+01,
261,-9.80e-03,1.80e+01,
262,-9.80e-03,1.80e+01,
263,-9.80e-03,1.80e+01,
264,-9.80e-03,1.80e+01,
265,-9.80e-03,1.80e+01,
266,-9.80e-03,1.80e+01,
267,-9.80e-03,1.80e+01,
268,-9.80e-03,1.80e+01,
269,-9.80e-03,1.80e+01,
270,-9.80e-03,1.80e+01,
271,-9.80e-03,1.80e+01,
272,-9.80e-03,1.80e+01,
273,-9.80e-03,1.80e+01,
274,-9.80e-03,1.80e+01,
275,-9.80e-03,1.80e+01,
276,-9.80e-03,1.80e+01,
277,-9.80e-03,1.80e+01,
278,-9.80e-03,1.80e+01,
279,-9.80e-03,1.80e+01,
280,-9.80e-03,1.80e+01,
281,-9.80e-03,1.80e+01,
282,-9.80e-03,1.80e+01,
283,-9.80e-03,1.80e+01,
284,-9.80e-03,1.80e+01,
285,-9.80e-03,1.80e+01,
286,-9.80e-03,1.80e+01,
287,-9.80e-03,1.80e+01,
288,-9.80e-03,1.80e+01,
289,-9.80e-03,1.80e+01,
290,-9.80e-03,1.80e+01,
291,-9.80e-03,1.80e+01,
292,-9.80e-03,1.80e+01,
293,-9.80e-03,1.80e+01,
294,-9.80e-03,1.80e+01,
295,-9.80e-03,1.80e+01,
296,-9.80e-03,1.80e+01,
297,-9.80e-03,1.80e+01,
298,-9.80e-03,1.80e+01,
299,-9.80e-03,1.80e+01,
300,-9.80e-03,1.80e+01,
301,-9.80e-03,1.80e+01,
302,-9.80e-03,1.80e+01,
303,-9.80e-03,1.80e+01,
304,-9.80e-03,1.80e+01,
305,-9.80e-03,1.80e+01,
306,-9.80e-03,1.80e+01,
307,-9.80e-03,1.80e+01,
308,-9.80e-03,1.80e+01,
309,-9.80e-03,1.80e+01,
310,-9.80e-03,1.80e+01,
311,-9.80e-03,1.80e+01,
312,-9.80e-03,1.80e+01,
313,-9.80e-03,1.80e+01,
314,-9.80e-03,1.80e+01,
315,-9.80e-03,1.80e+01,
316,-9.80e-03,1.80e+01,
317,-9.80e-03,1.80e+01,
318,-9.80e-03,1.80e+01,
319,-9.80e-03,1.80e+01,
320,-9.80e-03,1.80e+01,
321,-9.80e-03,1.80e+01,
322,-9.80e-03,1.80e+01,
323,-9.80e-03,1.80e+01,
324,-9.80e-03,1.80e+01,
325,-9.80e-03,1.80e+01,
326,-9.80e-03,1.80e+01,
327,-9.80e-03,1.80e+01,
328,-9.80e-03,1.80e+01,
329,-9.80e-03,1.80e+01,
330,-9.80e-03,1.80e+01,
331,-9.80e-03,1.80e+01,
332,-9.80e-03,1.80e+01,
333,-9.80e-03,1.80e+01,
334,-9.80e-03,1.80e+01,
335,-9.80e-03,1.80e+01,
336,-9.80e-03,1.80e+01,
337,-9.80e-03,1.80e+01,
338,-9.80e-03,1.80e+01,
339,-9.80e-03,1.80e+01,
340,-9.80e-03,1.80e+01,
341,-9.80e-03,1.80e+01,
342,-9.80e-03,1.80e+01,
343,-9.80e-03,1.80e+01,
344,-9.80e-03,1.80e+01,
345,-9.80e-03,1.80e+01,
346,-9.80e-03,1.80e+01,
347,-9.80e-03,1.80e+01,
348,-9.80e-03,1.80e+01,
349,-9.80e-03,1.80e+01,
350,-9.80e-03,1.80e+01,
351,-9.80e-03,1.80e+01,
352,-9.80e-03,1.80e+01,
353,-9.80e-03,1.80e+01,
354,-9.80e-03,1.80e+01,
355,-9.80e-03,1.80e+01,
356,-9.80e-03,1.80e+01,
357,-9.80e-03,1.80e+01,
358,-9.80e-03,1.80e+01,
359,-9.80e-03,1.80e+01,
360,-9.80e-03,1.80e+01,
361,-9.80e-03,1.80e+01,
362,-9.80e-03,1.80e+01,
363,-9.80e-03,1.80e+01,
364,-9.80e-03,1.80e+01,
365,-9.80e-03,1.80e+01,
366,-9.80e-03,1.80e+01,
367,-9.80e-03,1.80e+01,
368,-9.80e-03,1.80e+01,
369,-9.80e-03,1.80e+01,
370,-9.80e-03,1.80e+01,
371,-9.80e-03,1.80e+01,
372,-9.80e-03,1.80e+01,
373,-9.80e-03,1.80e+01,
374,-9.80e-03,1.80e+01,
375,-9.80e-03,1.80e+01,
376,-9.80e-03,1.80e+01,
377,-9.80e-03,1.80e+01,
378,-9.80e-03,1.80e+01,
379,-9.80e-03,1.80e+01,
380,-9.80e-03,1.80e+01,
381,-9.80e-03,1.80e+01,
382,-9.80e-03,1.80e+01,
383,-9.80e-03,1.80e+01,
384,-9.80e-03,1.80e+01,
385,-9.80e-03,1.80e+01,
386,-9.80e-03,1.80e+01,
387,-9.80e-03,1.80e+01,
388,-9.80e-03,1.80e+01,
389,-9.80e-03,1.80e+01,
390,-9.80e-03,1.80e+01,
391,-9.80e-03,1.80e+01,
392,-9.80e-03,1.80e+01,
393,-9.80e-03,1.80e+01,
394,-9.80e-03,1.80e+01,
395,-9.80e-03,1.80e+01,
396,-9.80e-03,1.80e+01,
397,-9.80e-03,1.80e+01,
398,-9.80e-03,1.80e+01,
399,-9.80e-03,1.80e+01,
400,-9.80e-03,1.80e+01,
401,-9.80e-03,1.80e+01,
402,-9.80e-03,1.80e+01,
403,-9.80e-03,1.80e+01,
404,-9.80e-03,1.80e+01,
405,-9.80e-03,1.80e+01,
406,-9.80e-03,1.80e+01,
407,-9.80e-03,1.80e+01,
408,-9.80e-03,1.80e+01,
409,-9.80e-03,1.80e+01,
410,-9.80e-03,1.80e+01,
411,-9.80e-03,1.80e+01,
412,-9.80e-03,1.80e+01,
413,-9.80e-03,1.80e+01,
414,-9.80e-03,1.80e+01,
415,-9.80e-03,1.80e+01,
416,-9.80e-03,1.80e+01,
417,-9.80e-03,1.80e+01,
418,-9.80e-03,1.80e+01,
419,-9.80e-03,1.80e+01,
420,-9.80e-03,1.80e+01,
421,-9.80e-03,1.80e+01,
422,-9.80e-03,1.80e+01,
423,-9.80e-03,1.80e+01,
424,-9.80e-03,1.80e+01,
425,-9.80e-03,1.80e+01,
426,-9.80e-03,1.80e+01,
427,-9.80e-03,1.80e+01,
428,-9.80e-03,1.80e+01,
429,-9.80e-03,1.80e+01,
430,-9.80e-03,1.80e+01,
431,-9.80e-03,1.80e+01,
432,-9.80e-03,1.80e+01,
433,-9.80e-03,1.80e+01,
434,-9.80e-03,1.80e+01,
435,-9.80e-03,1.80e+01,
436,-9.80e-03,1.80e+01,
437,-9.80e-03,1.80e+01,
438,-9.80e-03,1.80e+01,
439,-9.80e-03,1.80e+01,
440,-9.80e-03,1.80e+01,
441,-9.80e-03,1.80e+01,
442,-9.80e-03,1.80e+01,
443,-9.80e-03,1.80e+01,
444,-9.80e-03,1.80e+01,
445,-9.80e-03,1.80e+01,
446,-9.80e-03,1.80e+01,
447,-9.80e-03,1.80e+01,
448,-9.80e-03,1.80e+01,
449,-9.80e-03,1.80e+01,
450,-9.80e-03,1.80e+01,
451,-9.80e-03,1.80e+01,
452,-9.80e-03,1.80e+01,
453,-9.80e-03,1.80e+01,
454,-9.80e-03,1.80e+01,
455,-9.80e-03,1.80e+01,
456,-9.80e-03,1.80e+01,
457,-9.80e-03,1.80e+01,
458,-9.80e-03,1.80e+01,
459,-9.80e-03,1.80e+01,
460,-9.80e-03,1.80e+01,
461,-9.80e-03,1.80e+01,
462,-9.80e-03,1.80e+01,
463,-9.80e-03,1.80e+01,
464,-9.80e-03,1.80e+01,
465,-9.80e-03,1.80e+01,
466,-9.80e-03,1.80e+01,
467,-9.80e-03,1.80e+01,
468,-9.80e-03,1.80e+01,
469,-9.80e-03,1.80e+01,
470,-9.80e-03,1.80e+01,
471,-9.80e-03,1.80e+01,
472,-9.80e-03,1.80e+01,
473,-9.80e-03,1.80e+01,
474,-9.80e-03,1.80e+01,
475,-9.80e-03,1.80e+01,
476,-9.80e-03,1.80e+01,
477,-9.80e-03,1.80e+01,
478,-9.80e-03,1.80e+01,
479,-9.80e-03,1.80e+01,
480,-9.80e-03,1.80e+01,
481,-9.80e-03,1.80e+01,
482,-9.80e-03,1.80e+01,
483,-9.80e-03,1.80e+01,
484,-9.80e-03,1.80e+01,
485,-9.80e-03,1.80e+01,
486,-9.80e-03,1.80e+01,
487,-9.80e-03,1.80e+01,
488,-9.80e-03,1.80e+01,
489,-9.80e-03,1.80e+01,
490,-9.80e-03,1.80e+01,
491,-9.80e-03,1.80e+01,
492,-9.80e-03,1.80e+01,
493,-9.80e-03,1.80e+01,
494,-9.80e-03,1.80e+01,
495,-9.80e-03,1.80e+01,
496,-9.80e-03,1.80e+01,
497,-9.80e-03,1.80e+01,
498,-9.80e-03,1.80e+01,
499,-9.80e-03,1.80e+01,
500,-9.80e-03,1.80e+01,
501,-9.80e-03,1.80e+01,
502,-9.80e-03,1.80e+01,
503,-9.80e-03,1.80e+01,
504,-9.80e-03,1.80e+01,
505,-9.80e-03,1.80e+01,
506,-9.80e-03,1.80e+01,
507,-9.80e-03,1.80e+01,
508,-9.80e-03,1.80e+01,
509,-9.80e-03,1.80e+01,
510,-9.80e-03,1.80e+01,
511,-9.80e-03,1.80e+01,
512,-9.80e-03,1.80e+01,
513,-9.80e-03,1.80e+01,
514,-9.80e-03,1.80e+01,
515,-9.80e-03,1.80e+01,
516,-9.80e-03,1.80e+01,
517,-9.80e-03,1.80e+01,
518,-9.80e-03,1.80e+01,
519,-9.80e-03,1.80e+01,
520,-9.80e-03,1.80e+01,
521,-9.80e-03,1.80e+01,
522,-9.80e-03,1.80e+01,
523,-9.80e-03,1.80e+01,
524,-9.80e-03,1.80e+01,
525,-9.80e-03,1.80e+01,
526,-9.80e-03,1.80e+01,
527,-9.80e-03,1.80e+01,
528,-9.80e-03,1.80e+01,
529,-9.80e-03,1.80e+01,
530,-9.80e-03,1.80e+01,
531,-9.80e-03,1.80e+01,
532,-9.80e-03,1.80e+01,
533,-9.80e-03,1.80e+01,
534,-9.80e-03,1.80e+01,
535,-9.80e-03,1.80e+01,
536,-9.80e-03,1.80e+01,
537,-9.80e-03,1.80e+01,
538,-9.80e-03,1.80e+01,
539,-9.80e-03,1.80e+01,
540,-9.80e-03,1.80e+01,
541,-9.80e-03,1.80e+01,
542,-9.80e-03,1.80e+01,
543,-9.80e-03,1.80e+01,
544,-9.80e-03,1.80e+01,
545,-9.80e-03,1.80e+01,
546,-9.80e-03,1.80e+01,
547,-9.80e-03,1.80e+01,
548,-9.80e-03,1.80e+01,
549,-9.80e-03,1.80e+01,
550,-9.80e-03,1.80e+01,
551,-9.80e-03,1.80e+01,
552,-9.80e-03,1.80e+01,
553,-9.80e-03,1.80e+01,
554,-9.80e-03,1.80e+01,
555,-9.80e-03,1.80e+01,
556,-9.80e-03,1.80e+01,
557,-9.80e-03,1.80e+01,
558,-9.80e-03,1.80e+01,
559,-9.80e-03,1.80e+01,
560,-9.80e-03,1.80e+01,
561,-9.80e-03,1.80e+01,
562,-9.80e-03,1.80e+01,
563,-9.80e-03,1.80e+01,
564,-9.80e-03,1.80e+01,
565,-9.80e-03,1.80e+01,
566,-9.80e-03,1.80e+01,
567,-9.80e-03,1.80e+01,
568,-9.80e-03,1.80e+01,
569,-9.80e-03,1.80e+01,
570,-9.80e-03,1.80e+01,
571,-9.80e-03,1.80e+01,
572,-9.80e-03,1.80e+01,
573,-9.80e-03,1.80e+01,
574,-9.80e-03,1.76e+01,
575,-9.80e-03,1.80e+01,
576,-9.80e-03,1.76e+01,
577,-9.80e-03,1.80e+01,
578,-9.80e-03,1.76e+01,
579,-9.80e-03,1.80e+01,
580,-9.80e-03,1.76e+01,
581,-9.80e-03,1.76e+01,
582,-9.80e-03,1.76e+01,
583,-9.80e-03,1.76e+01,
584,-9.80e-03,1.76e+01,
585,-9.80e-03,1.76e+01,
586,-9.80e-03,1.76e+01,
587,-9.80e-03,1.76e+01,
588,-9.80e-03,1.76e+01,
589,-9.80e-03,1.76e+01,
590,-9.80e-03,1.76e+01,
591,-9.80e-03,1.76e+01,
592,-9.80e-03,1.76e+01,
593,-9.80e-03,1.76e+01,
594,-9.80e-03,1.76e+01,
595,-9.80e-03,1.76e+01,
596,-9.80e-03,1.72e+01,
597,-9.80e-03,1.72e+01,
598,-9.80e-03,1.72e+01,
599,-9.80e-03,1.72e+01,
600,-9.80e-03,1.72e+01,
601,-9.80e-03,1.72e+01,
602,-9.80e-03,1.72e+01,
603,-9.80e-03,1.72e+01,
604,-9.80e-03,1.68e+01,
605,-9.80e-03,1.68e+01,
606,-9.80e-03,1.68e+01,
607,-9.80e-03,1.68e+01,
608,-9.80e-03,1.68e+01,
609,-9.80e-03,1.68e+01,
610,-9.80e-03,1.68e+01,
611,-9.80e-03,1.64e+01,
612,-9.80e-03,1.68e+01,
613,-9.80e-03,1.64e+01,
614,-9.80e-03,1.64e+01,
615,-9.80e-03,1.64e+01,
616,-9.80e-03,1.64e+01,
617,-9.80e-03,1.64e+01,
618,-9.80e-03,1.64e+01,
619,-9.80e-03,1.64e+01,
620,-9.80e-03,1.60e+01,
621,-9.80e-03,1.60e+01,
622,-9.80e-03,1.60e+01,
623,-9.80e-03,1.60e+01,
624,-9.80e-03,1.60e+01,
625,-9.80e-03,1.60e+01,
626,-9.80e-03,1.56e+01,
627,-9.80e-03,1.56e+01,
628,-9.80e-03,1.56e+01,
629,-9.80e-03,1.56e+01,
630,-9.80e-03,1.52e+01,
631,-9.80e-03,1.52e+01,
632,-9.80e-03,1.52e+01,
633,-9.80e-03,1.52e+01,
634,-9.80e-03,1.52e+01,
635,-9.80e-03,1.52e+01,
636,-9.80e-03,1.52e+01,
637,-9.80e-03,1.48e+01,
638,-9.80e-03,1.48e+01,
639,-9.80e-03,1.48e+01,
640,-9.80e-03,1.48e+01,
641,-9.80e-03,1.44e+01,
642,-9.80e-03,1.44e+01,
643,-9.80e-03,1.44e+01,
644,-9.80e-03,1.44e+01,
645,-9.80e-03,1.44e+01,
646,-9.80e-03,1.44e+01,
647,-9.80e-03,1.44e+01,
648,-9.80e-03,1.36e+01,
649,-9.80e-03,1.36e+01,
650,-9.80e-03,1.36e+01,
651,-9.80e-03,1.36e+01,
652,-9.80e-03,1.32e+01,
653,-9.80e-03,1.32e+01,
654,-9.80e-03,1.32e+01,
655,-9.80e-03,1.32e+01,
656,-9.80e-03,1.32e+01,
657,-9.80e-03,1.28e+01,
658,-9.80e-03,1.28e+01,
659,-9.80e-03,1.28e+01,
660,-9.80e-03,1.24e+01,
661,-9.80e-03,1.24e+01,
662,-9.80e-03,1.24e+01,
663,-9.80e-03,1.24e+01,
664,-9.80e-03,1.24e+01,
665,-9.80e-03,1.24e+01,
666,-9.80e-03,1.20e+01,
667,-9.80e-03,1.20e+01,
668,-9.80e-03,1.20e+01,
669,-9.80e-03,1.20e+01,
670,-9.80e-03,1.16e+01,
671,-9.80e-03,1.16e+01,
672,-9.80e-03,1.16e+01,
673,-9.80e-03,1.16e+01,
674,-9.80e-03,1.16e+01,
675,-9.80e-03,1.12e+01,
676,-9.80e-03,1.12e+01,
677,-9.80e-03,1.12e+01,
678,-9.80e-03,1.12e+01,
679,-9.80e-03,1.08e+01,
680,-9.80e-03,1.08e+01,
681,-9.80e-03,1.08e+01,
682,-9.80e-03,1.08e+01,
683,-9.80e-03,1.08e+01,
684,-9.80e-03,1.04e+01,
685,-9.80e-03,1.08e+01,
686,-9.80e-03,1.04e+01,
687,-9.80e-03,1.04e+01,
688,-9.80e-03,1.04e+01,
689,-9.80e-03,1.04e+01,
690,-9.80e-03,1.00e+01,
691,-9.80e-03,1.00e+01,
692,-9.80e-03,1.00e+01,
693,-9.80e-03,1.00e+01,
694,-9.80e-03,9.20e+00,
695,-9.80e-03,9.20e+00,
696,-9.80e-03,9.20e+00,
697,-9.80e-03,9.20e+00,
698,-9.80e-03,9.20e+00,
699,-9.80e-03,9.20e+00,
700,-9.80e-03,8.80e+00,
701,-9.80e-03,8.80e+00,
702,-9.80e-03,8.80e+00,
703,-9.80e-03,8.80e+00,
704,-9.80e-03,8.80e+00,
705,-9.80e-03,8.80e+00,
706,-9.80e-03,8.40e+00,
707,-9.80e-03,8.40e+00,
708,-9.80e-03,8.40e+00,
709,-9.80e-03,8.40e+00,
710,-9.80e-03,8.00e+00,
711,-9.80e-03,8.00e+00,
712,-9.80e-03,8.00e+00,
713,-9.80e-03,8.00e+00,
714,-9.80e-03,8.00e+00,
715,-9.80e-03,8.00e+00,
716,-9.80e-03,8.00e+00,
717,-9.80e-03,7.60e+00,
718,-9.80e-03,7.60e+00,
719,-9.80e-03,7.60e+00,
720,-9.80e-03,7.20e+00,
721,-9.80e-03,7.60e+00,
722,-9.80e-03,7.20e+00,
723,-9.80e-03,7.20e+00,
724,-9.80e-03,7.20e+00,
725,-9.80e-03,7.20e+00,
726,-9.80e-03,7.20e+00,
727,-9.80e-03,6.80e+00,
728,-9.80e-03,6.80e+00,
729,-9.80e-03,6.80e+00,
730,-9.80e-03,6.80e+00,
731,-9.80e-03,6.80e+00,
732,-9.80e-03,6.80e+00,
733,-9.80e-03,6.80e+00,
734,-9.80e-03,6.80e+00,
735,-9.80e-03,6.40e+00,
736,-9.80e-03,6.40e+00,
737,-9.80e-03,6.40e+00,
738,-9.80e-03,6.40e+00,
739,-9.80e-03,6.40e+00,
740,-9.80e-03,6.40e+00,
741,-9.80e-03,6.40e+00,
742,-9.80e-03,6.00e+00,
743,-9.80e-03,6.00e+00,
744,-9.80e-03,6.00e+00,
745,-9.80e-03,6.00e+00,
746,-9.80e-03,6.00e+00,
747,-9.80e-03,6.00e+00,
748,-9.80e-03,6.00e+00,
749,-9.80e-03,6.00e+00,
750,-9.80e-03,5.60e+00,
751,-9.80e-03,5.60e+00,
752,-9.80e-03,5.60e+00,
753,-9.80e-03,5.60e+00,
754,-9.80e-03,5.60e+00,
755,-9.80e-03,5.60e+00,
756,-9.80e-03,5.60e+00,
757,-9.80e-03,5.60e+00,
758,-9.80e-03,5.20e+00,
759,-9.80e-03,5.20e+00,
760,-9.80e-03,5.20e+00,
761,-9.80e-03,5.20e+00,
762,-9.80e-03,5.20e+00,
763,-9.80e-03,5.20e+00,
764,-9.80e-03,5.20e+00,
765,-9.80e-03,5.20e+00,
766,-9.80e-03,5.20e+00,
767,-9.80e-03,4.40e+00,
768,-9.80e-03,4.40e+00,
769,-9.80e-03,4.40e+00,
770,-9.80e-03,4.40e+00,
771,-9.80e-03,4.40e+00,
772,-9.80e-03,4.40e+00,
773,-9.80e-03,4.40e+00,
774,-9.80e-03,4.40e+00,
775,-9.80e-03,4.40e+00,
776,-9.80e-03,4.40e+00,
777,-9.80e-03,4.40e+00,
778,-9.80e-03,4.00e+00,
779,-9.80e-03,4.00e+00,
780,-9.80e-03,4.00e+00,
781,-9.80e-03,4.00e+00,
782,-9.80e-03,4.00e+00,
783,-9.80e-03,4.00e+00,
784,-9.80e-03,4.00e+00,
785,-9.80e-03,4.00e+00,
786,-9.80e-03,4.00e+00,
787,-9.80e-03,4.00e+00,
788,-9.80e-03,4.00e+00,
789,-9.80e-03,4.00e+00,
790,-9.80e-03,4.00e+00,
791,-9.80e-03,3.60e+00,
792,-9.80e-03,3.60e+00,
793,-9.80e-03,4.00e+00,
794,-9.80e-03,3.60e+00,
795,-9.80e-03,3.60e+00,
796,-9.80e-03,3.60e+00,
797,-9.80e-03,3.60e+00,
798,-9.80e-03,3.60e+00,
799,-9.80e-03,3.60e+00,
800,-9.80e-03,3.60e+00,
801,-9.80e-03,3.60e+00,
802,-9.80e-03,3.60e+00,
803,-9.80e-03,3.60e+00,
804,-9.80e-03,3.60e+00,
805,-9.80e-03,3.60e+00,
806,-9.80e-03,3.60e+00,
807,-9.80e-03,3.60e+00,
808,-9.80e-03,3.60e+00,
809,-9.80e-03,3.60e+00,
810,-9.80e-03,3.60e+00,
811,-9.80e-03,3.60e+00,
812,-9.80e-03,3.60e+00,
813,-9.80e-03,3.60e+00,
814,-9.80e-03,3.60e+00,
815,-9.80e-03,3.20e+00,
816,-9.80e-03,3.20e+00,
817,-9.80e-03,3.60e+00,
818,-9.80e-03,3.60e+00,
819,-9.80e-03,3.20e+00,
820,-9.80e-03,3.20e+00,
821,-9.80e-03,3.20e+00,
822,-9.80e-03,3.20e+00,
823,-9.80e-03,3.20e+00,
824,-9.80e-03,3.20e+00,
825,-9.80e-03,3.20e+00,
826,-9.80e-03,3.20e+00,
827,-9.80e-03,3.20e+00,
828,-9.80e-03,3.20e+00,
829,-9.80e-03,3.20e+00,
830,-9.80e-03,3.20e+00,
831,-9.80e-03,3.20e+00,
832,-9.80e-03,3.20e+00,
833,-9.80e-03,3.20e+00,
