Lab 8/Data/more/NewFile3.csv

X,CH1,CH2,Start,Increment,
Sequence,Volt,Volt,5.600000e-05,2.000000e-09
0,-2.34e-01,-1.01e+01,
1,-2.34e-01,-1.01e+01,
2,-2.34e-01,-1.03e+01,
3,-2.37e-01,-1.01e+01,
4,-2.34e-01,-1.03e+01,
5,-2.34e-01,-1.03e+01,
6,-2.34e-01,-1.03e+01,
7,-2.37e-01,-1.03e+01,
8,-2.37e-01,-1.03e+01,
9,-2.34e-01,-1.03e+01,
10,-2.37e-01,-1.03e+01,
11,-2.34e-01,-1.01e+01,
12,-2.34e-01,-1.01e+01,
13,-2.34e-01,-1.01e+01,
14,-2.34e-01,-1.03e+01,
15,-2.37e-01,-1.03e+01,
16,-2.34e-01,-1.01e+01,
17,-2.37e-01,-1.01e+01,
18,-2.34e-01,-1.03e+01,
19,-2.37e-01,-1.03e+01,
20,-2.34e-01,-1.01e+01,
21,-2.28e-01,-1.01e+01,
22,-2.34e-01,-1.03e+01,
23,-2.37e-01,-1.03e+01,
24,-2.34e-01,-1.01e+01,
25,-2.34e-01,-1.01e+01,
26,-2.34e-01,-1.03e+01,
27,-2.37e-01,-1.03e+01,
28,-2.34e-01,-1.03e+01,
29,-2.34e-01,-1.03e+01,
30,-2.34e-01,-1.03e+01,
31,-2.37e-01,-1.03e+01,
32,-2.37e-01,-1.03e+01,
33,-2.37e-01,-1.03e+01,
34,-2.37e-01,-1.03e+01,
35,-2.37e-01,-1.01e+01,
36,-2.34e-01,-1.01e+01,
37,-2.37e-01,-1.01e+01,
38,-2.37e-01,-1.03e+01,
39,-2.37e-01,-1.05e+01,
40,-2.34e-01,-1.03e+01,
41,-2.34e-01,-1.01e+01,
42,-2.37e-01,-1.03e+01,
43,-2.37e-01,-1.03e+01,
44,-2.34e-01,-1.01e+01,
45,-2.34e-01,-1.01e+01,
46,-2.37e-01,-1.03e+01,
47,-2.37e-01,-1.03e+01,
48,-2.37e-01,-1.03e+01,
49,-2.37e-01,-1.03e+01,
50,-2.37e-01,-1.03e+01,
51,-2.37e-01,-1.03e+01,
52,-2.37e-01,-1.01e+01,
53,-2.37e-01,-1.01e+01,
54,-2.37e-01,-1.03e+01,
55,-2.37e-01,-1.03e+01,
56,-2.37e-01,-1.03e+01,
57,-2.37e-01,-1.03e+01,
58,-2.37e-01,-1.03e+01,
59,-2.37e-01,-1.03e+01,
60,-2.37e-01,-1.03e+01,
61,-2.37e-01,-1.05e+01,
62,-2.37e-01,-1.03e+01,
63,-2.40e-01,-1.03e+01,
64,-2.37e-01,-1.03e+01,
65,-2.37e-01,-1.01e+01,
66,-2.37e-01,-1.03e+01,
67,-2.40e-01,-1.03e+01,
68,-2.37e-01,-1.03e+01,
69,-2.37e-01,-1.03e+01,
70,-2.37e-01,-1.03e+01,
71,-2.40e-01,-1.05e+01,
72,-2.37e-01,-1.03e+01,
73,-2.37e-01,-1.03e+01,
74,-2.37e-01,-1.03e+01,
75,-2.40e-01,-1.03e+01,
76,-2.37e-01,-1.03e+01,
77,-2.40e-01,-1.03e+01,
78,-2.37e-01,-1.03e+01,
79,-2.40e-01,-1.03e+01,
80,-2.37e-01,-1.03e+01,
81,-2.37e-01,-1.03e+01,
82,-2.37e-01,-1.05e+01,
83,-2.40e-01,-1.03e+01,
84,-2.37e-01,-1.03e+01,
85,-2.37e-01,-1.03e+01,
86,-2.40e-01,-1.03e+01,
87,-2.40e-01,-1.03e+01,
88,-2.37e-01,-1.03e+01,
89,-2.37e-01,-1.03e+01,
90,-2.37e-01,-1.03e+01,
91,-2.40e-01,-1.03e+01,
92,-2.37e-01,-1.03e+01,
93,-2.37e-01,-1.03e+01,
94,-2.37e-01,-1.03e+01,
95,-2.40e-01,-1.06e+01,
96,-2.37e-01,-1.03e+01,
97,-2.37e-01,-1.03e+01,
98,-2.37e-01,-1.03e+01,
99,-2.40e-01,-1.05e+01,
100,-2.40e-01,-1.03e+01,
101,-2.37e-01,-1.03e+01,
102,-2.37e-01,-1.03e+01,
103,-2.40e-01,-1.05e+01,
104,-2.37e-01,-1.05e+01,
105,-2.40e-01,-1.03e+01,
106,-2.37e-01,-1.03e+01,
107,-2.43e-01,-1.03e+01,
108,-2.37e-01,-1.03e+01,
109,-2.37e-01,-1.03e+01,
110,-2.40e-01,-1.03e+01,
111,-2.40e-01,-1.03e+01,
112,-2.37e-01,-1.05e+01,
113,-2.40e-01,-1.03e+01,
114,-2.40e-01,-1.05e+01,
115,-2.43e-01,-1.05e+01,
116,-2.37e-01,-1.05e+01,
117,-2.37e-01,-1.05e+01,
118,-2.37e-01,-1.05e+01,
119,-2.40e-01,-1.05e+01,
120,-2.40e-01,-1.05e+01,
121,-2.40e-01,-1.03e+01,
122,-2.40e-01,-1.05e+01,
123,-2.40e-01,-1.05e+01,
124,-2.40e-01,-1.03e+01,
125,-2.40e-01,-1.05e+01,
126,-2.40e-01,-1.05e+01,
127,-2.40e-01,-1.06e+01,
128,-2.37e-01,-1.05e+01,
129,-2.40e-01,-1.05e+01,
130,-2.40e-01,-1.05e+01,
131,-2.43e-01,-1.03e+01,
132,-2.37e-01,-1.03e+01,
133,-2.40e-01,-1.03e+01,
134,-2.40e-01,-1.03e+01,
135,-2.43e-01,-1.06e+01,
136,-2.40e-01,-1.05e+01,
137,-2.40e-01,-1.06e+01,
138,-2.40e-01,-1.05e+01,
139,-2.43e-01,-1.05e+01,
140,-2.43e-01,-1.05e+01,
141,-2.40e-01,-1.05e+01,
142,-2.40e-01,-1.05e+01,
143,-2.40e-01,-1.05e+01,
144,-2.43e-01,-1.05e+01,
145,-2.40e-01,-1.05e+01,
146,-2.40e-01,-1.05e+01,
147,-2.43e-01,-1.05e+01,
148,-2.40e-01,-1.05e+01,
149,-2.43e-01,-1.03e+01,
150,-2.40e-01,-1.05e+01,
151,-2.43e-01,-1.05e+01,
152,-2.40e-01,-1.05e+01,
153,-2.40e-01,-1.05e+01,
154,-2.43e-01,-1.05e+01,
155,-2.43e-01,-1.05e+01,
156,-2.40e-01,-1.03e+01,
157,-2.43e-01,-1.06e+01,
158,-2.43e-01,-1.05e+01,
159,-2.46e-01,-1.06e+01,
160,-2.40e-01,-1.05e+01,
161,-2.40e-01,-1.03e+01,
162,-2.40e-01,-1.05e+01,
163,-2.43e-01,-1.06e+01,
164,-2.43e-01,-1.03e+01,
165,-2.40e-01,-1.05e+01,
166,-2.43e-01,-1.05e+01,
167,-2.43e-01,-1.06e+01,
168,-2.43e-01,-1.05e+01,
169,-2.43e-01,-1.03e+01,
170,-2.43e-01,-1.05e+01,
171,-2.43e-01,-1.05e+01,
172,-2.43e-01,-1.05e+01,
173,-2.43e-01,-1.05e+01,
174,-2.43e-01,-1.05e+01,
175,-2.43e-01,-1.06e+01,
176,-2.40e-01,-1.05e+01,
177,-2.43e-01,-1.05e+01,
178,-2.43e-01,-1.05e+01,
179,-2.46e-01,-1.05e+01,
180,-2.43e-01,-1.03e+01,
181,-2.43e-01,-1.05e+01,
182,-2.43e-01,-1.06e+01,
183,-2.43e-01,-1.05e+01,
184,-2.43e-01,-1.06e+01,
185,-2.40e-01,-1.03e+01,
186,-2.43e-01,-1.06e+01,
187,-2.46e-01,-1.05e+01,
188,-2.40e-01,-1.05e+01,
189,-2.43e-01,-1.05e+01,
190,-2.43e-01,-1.05e+01,
191,-2.46e-01,-1.06e+01,
192,-2.43e-01,-1.06e+01,
193,-2.43e-01,-1.06e+01,
194,-2.43e-01,-1.06e+01,
195,-2.46e-01,-1.05e+01,
196,-2.43e-01,-1.05e+01,
197,-2.43e-01,-1.05e+01,
198,-2.43e-01,-1.05e+01,
199,-2.46e-01,-1.06e+01,
200,-2.43e-01,-1.06e+01,
201,-2.43e-01,-1.05e+01,
202,-2.43e-01,-1.06e+01,
203,-2.46e-01,-1.06e+01,
204,-2.43e-01,-1.05e+01,
205,-2.43e-01,-1.05e+01,
206,-2.43e-01,-1.06e+01,
207,-2.46e-01,-1.06e+01,
208,-2.43e-01,-1.06e+01,
209,-2.43e-01,-1.06e+01,
210,-2.46e-01,-1.06e+01,
211,-2.46e-01,-1.05e+01,
212,-2.43e-01,-1.06e+01,
213,-2.43e-01,-1.06e+01,
214,-2.43e-01,-1.06e+01,
215,-2.46e-01,-1.05e+01,
216,-2.43e-01,-1.06e+01,
217,-2.46e-01,-1.06e+01,
218,-2.43e-01,-1.06e+01,
219,-2.46e-01,-1.05e+01,
220,-2.43e-01,-1.05e+01,
221,-2.43e-01,-1.05e+01,
222,-2.46e-01,-1.06e+01,
223,-2.46e-01,-1.06e+01,
224,-2.43e-01,-1.06e+01,
225,-2.43e-01,-1.06e+01,
226,-2.43e-01,-1.06e+01,
227,-2.46e-01,-1.06e+01,
228,-2.43e-01,-1.06e+01,
229,-2.43e-01,-1.06e+01,
230,-2.43e-01,-1.05e+01,
231,-2.50e-01,-1.06e+01,
232,-2.46e-01,-1.06e+01,
233,-2.46e-01,-1.06e+01,
234,-2.46e-01,-1.06e+01,
235,-2.46e-01,-1.06e+01,
236,-2.46e-01,-1.06e+01,
237,-2.43e-01,-1.06e+01,
238,-2.46e-01,-1.06e+01,
239,-2.46e-01,-1.06e+01,
240,-2.46e-01,-1.06e+01,
241,-2.46e-01,-1.06e+01,
242,-2.46e-01,-1.06e+01,
243,-2.50e-01,-1.06e+01,
244,-2.43e-01,-1.06e+01,
245,-2.46e-01,-1.06e+01,
246,-2.46e-01,-1.06e+01,
247,-2.50e-01,-1.07e+01,
248,-2.43e-01,-1.06e+01,
249,-2.43e-01,-1.06e+01,
250,-2.46e-01,-1.06e+01,
251,-2.50e-01,-1.06e+01,
252,-2.46e-01,-1.06e+01,
253,-2.46e-01,-1.06e+01,
254,-2.46e-01,-1.06e+01,
255,-2.50e-01,-1.06e+01,
256,-2.46e-01,-1.06e+01,
257,-2.50e-01,-1.06e+01,
258,-2.43e-01,-1.06e+01,
259,-2.50e-01,-1.06e+01,
260,-2.46e-01,-1.05e+01,
261,-2.50e-01,-1.06e+01,
262,-2.50e-01,-1.06e+01,
263,-2.50e-01,-1.06e+01,
264,-2.46e-01,-1.07e+01,
265,-2.46e-01,-1.06e+01,
266,-2.46e-01,-1.06e+01,
267,-2.50e-01,-1.06e+01,
268,-2.46e-01,-1.06e+01,
269,-2.46e-01,-1.06e+01,
270,-2.46e-01,-1.06e+01,
271,-2.50e-01,-1.06e+01,
272,-2.46e-01,-1.06e+01,
273,-2.50e-01,-1.06e+01,
274,-2.46e-01,-1.06e+01,
275,-2.53e-01,-1.07e+01,
276,-2.50e-01,-1.06e+01,
277,-2.46e-01,-1.06e+01,
278,-2.46e-01,-1.06e+01,
279,-2.50e-01,-1.07e+01,
280,-2.46e-01,-1.06e+01,
281,-2.46e-01,-1.06e+01,
282,-2.50e-01,-1.06e+01,
283,-2.50e-01,-1.06e+01,
284,-2.46e-01,-1.06e+01,
285,-2.46e-01,-1.06e+01,
286,-2.50e-01,-1.06e+01,
287,-2.53e-01,-1.07e+01,
288,-2.50e-01,-1.06e+01,
289,-2.46e-01,-1.06e+01,
290,-2.46e-01,-1.06e+01,
291,-2.50e-01,-1.07e+01,
292,-2.46e-01,-1.06e+01,
293,-2.50e-01,-1.06e+01,
294,-2.50e-01,-1.06e+01,
295,-2.53e-01,-1.07e+01,
296,-2.50e-01,-1.06e+01,
297,-2.46e-01,-1.06e+01,
298,-2.50e-01,-1.06e+01,
299,-2.50e-01,-1.06e+01,
300,-2.50e-01,-1.06e+01,
301,-2.50e-01,-1.06e+01,
302,-2.50e-01,-1.07e+01,
303,-2.50e-01,-1.07e+01,
304,-2.46e-01,-1.06e+01,
305,-2.50e-01,-1.07e+01,
306,-2.50e-01,-1.07e+01,
307,-2.53e-01,-1.06e+01,
308,-2.50e-01,-1.06e+01,
309,-2.50e-01,-1.07e+01,
310,-2.50e-01,-1.06e+01,
311,-2.53e-01,-1.07e+01,
312,-2.50e-01,-1.06e+01,
313,-2.50e-01,-1.06e+01,
314,-2.53e-01,-1.07e+01,
315,-2.53e-01,-1.06e+01,
316,-2.50e-01,-1.06e+01,
317,-2.53e-01,-1.06e+01,
318,-2.50e-01,-1.06e+01,
319,-2.53e-01,-1.08e+01,
320,-2.50e-01,-1.06e+01,
321,-2.50e-01,-1.06e+01,
322,-2.50e-01,-1.07e+01,
323,-2.53e-01,-1.07e+01,
324,-2.50e-01,-1.06e+01,
325,-2.53e-01,-1.06e+01,
326,-2.50e-01,-1.07e+01,
327,-2.53e-01,-1.07e+01,
328,-2.50e-01,-1.07e+01,
329,-2.50e-01,-1.07e+01,
330,-2.53e-01,-1.07e+01,
331,-2.53e-01,-1.07e+01,
332,-2.50e-01,-1.07e+01,
333,-2.50e-01,-1.07e+01,
334,-2.50e-01,-1.07e+01,
335,-2.53e-01,-1.07e+01,
336,-2.50e-01,-1.07e+01,
337,-2.53e-01,-1.06e+01,
338,-2.50e-01,-1.07e+01,
339,-2.53e-01,-1.07e+01,
340,-2.50e-01,-1.06e+01,
341,-2.50e-01,-1.07e+01,
342,-2.50e-01,-1.07e+01,
343,-2.53e-01,-1.08e+01,
344,-2.53e-01,-1.07e+01,
345,-2.53e-01,-1.07e+01,
346,-2.53e-01,-1.07e+01,
347,-2.53e-01,-1.08e+01,
348,-2.50e-01,-1.06e+01,
349,-2.53e-01,-1.07e+01,
350,-2.53e-01,-1.07e+01,
351,-2.53e-01,-1.07e+01,
352,-2.53e-01,-1.07e+01,
353,-2.53e-01,-1.07e+01,
354,-2.53e-01,-1.07e+01,
355,-2.53e-01,-1.06e+01,
356,-2.53e-01,-1.07e+01,
357,-2.53e-01,-1.07e+01,
358,-2.53e-01,-1.07e+01,
359,-2.53e-01,-1.08e+01,
360,-2.53e-01,-1.07e+01,
361,-2.53e-01,-1.07e+01,
362,-2.53e-01,-1.07e+01,
363,-2.56e-01,-1.07e+01,
364,-2.53e-01,-1.07e+01,
365,-2.53e-01,-1.06e+01,
366,-2.53e-01,-1.07e+01,
367,-2.56e-01,-1.08e+01,
368,-2.50e-01,-1.07e+01,
369,-2.53e-01,-1.08e+01,
370,-2.53e-01,-1.08e+01,
371,-2.56e-01,-1.07e+01,
372,-2.53e-01,-1.07e+01,
373,-2.53e-01,-1.07e+01,
374,-2.53e-01,-1.07e+01,
375,-2.56e-01,-1.07e+01,
376,-2.53e-01,-1.07e+01,
377,-2.53e-01,-1.08e+01,
378,-2.53e-01,-1.07e+01,
379,-2.53e-01,-1.07e+01,
380,-2.53e-01,-1.07e+01,
381,-2.53e-01,-1.07e+01,
382,-2.53e-01,-1.08e+01,
383,-2.56e-01,-1.08e+01,
384,-2.53e-01,-1.07e+01,
385,-2.53e-01,-1.07e+01,
386,-2.53e-01,-1.07e+01,
387,-2.56e-01,-1.07e+01,
388,-2.53e-01,-1.07e+01,
389,-2.53e-01,-1.08e+01,
390,-2.53e-01,-1.07e+01,
391,-2.56e-01,-1.08e+01,
392,-2.53e-01,-1.08e+01,
393,-2.53e-01,-1.08e+01,
394,-2.53e-01,-1.08e+01,
395,-2.56e-01,-1.08e+01,
396,-2.50e-01,-1.06e+01,
397,-2.53e-01,-1.07e+01,
398,-2.56e-01,-1.07e+01,
399,-2.59e-01,-1.08e+01,
400,-2.53e-01,-1.07e+01,
401,-2.53e-01,-1.07e+01,
402,-2.53e-01,-1.07e+01,
403,-2.56e-01,-1.08e+01,
404,-2.53e-01,-1.07e+01,
405,-2.53e-01,-1.07e+01,
406,-2.53e-01,-1.08e+01,
407,-2.56e-01,-1.11e+01,
408,-2.53e-01,-1.08e+01,
409,-2.53e-01,-1.07e+01,
410,-2.53e-01,-1.08e+01,
411,-2.56e-01,-1.07e+01,
412,-2.53e-01,-1.07e+01,
413,-2.53e-01,-1.07e+01,
414,-2.53e-01,-1.07e+01,
415,-2.59e-01,-1.08e+01,
416,-2.53e-01,-1.08e+01,
417,-2.56e-01,-1.08e+01,
418,-2.56e-01,-1.08e+01,
419,-2.56e-01,-1.08e+01,
420,-2.53e-01,-1.08e+01,
421,-2.56e-01,-1.07e+01,
422,-2.53e-01,-1.08e+01,
423,-2.56e-01,-1.08e+01,
424,-2.53e-01,-1.08e+01,
425,-2.56e-01,-1.08e+01,
426,-2.53e-01,-1.11e+01,
427,-2.56e-01,-1.07e+01,
428,-2.53e-01,-1.07e+01,
429,-2.56e-01,-1.08e+01,
430,-2.53e-01,-1.07e+01,
431,-2.56e-01,-1.11e+01,
432,-2.53e-01,-1.08e+01,
433,-2.56e-01,-1.08e+01,
434,-2.56e-01,-1.08e+01,
435,-2.56e-01,-1.08e+01,
436,-2.56e-01,-1.08e+01,
437,-2.56e-01,-1.07e+01,
438,-2.53e-01,-1.08e+01,
439,-2.59e-01,-1.11e+01,
440,-2.56e-01,-1.08e+01,
441,-2.56e-01,-1.08e+01,
442,-2.56e-01,-1.11e+01,
443,-2.59e-01,-1.08e+01,
444,-2.56e-01,-1.08e+01,
445,-2.56e-01,-1.08e+01,
446,-2.56e-01,-1.08e+01,
447,-2.59e-01,-1.08e+01,
448,-2.53e-01,-1.08e+01,
449,-2.56e-01,-1.08e+01,
450,-2.59e-01,-1.11e+01,
451,-2.56e-01,-1.08e+01,
452,-2.56e-01,-1.07e+01,
453,-2.56e-01,-1.08e+01,
454,-2.56e-01,-1.08e+01,
455,-2.56e-01,-1.11e+01,
456,-2.56e-01,-1.08e+01,
457,-2.56e-01,-1.08e+01,
458,-2.53e-01,-1.11e+01,
459,-2.59e-01,-1.08e+01,
460,-2.56e-01,-1.08e+01,
461,-2.56e-01,-1.08e+01,
462,-2.56e-01,-1.08e+01,
463,-2.59e-01,-1.11e+01,
464,-2.56e-01,-1.08e+01,
465,-2.56e-01,-1.08e+01,
466,-2.56e-01,-1.11e+01,
467,-2.59e-01,-1.11e+01,
468,-2.56e-01,-1.08e+01,
469,-2.59e-01,-1.08e+01,
470,-2.56e-01,-1.11e+01,
471,-2.59e-01,-1.11e+01,
472,-2.59e-01,-1.11e+01,
473,-2.56e-01,-1.08e+01,
474,-2.56e-01,-1.11e+01,
475,-2.59e-01,-1.11e+01,
476,-2.59e-01,-1.08e+01,
477,-2.56e-01,-1.11e+01,
478,-2.56e-01,-1.08e+01,
479,-2.59e-01,-1.11e+01,
480,-2.59e-01,-1.11e+01,
481,-2.59e-01,-1.11e+01,
482,-2.59e-01,-1.11e+01,
483,-2.59e-01,-1.11e+01,
484,-2.56e-01,-1.08e+01,
485,-2.59e-01,-1.08e+01,
486,-2.59e-01,-1.11e+01,
487,-2.62e-01,-1.11e+01,
488,-2.56e-01,-1.11e+01,
489,-2.59e-01,-1.11e+01,
490,-2.59e-01,-1.11e+01,
491,-2.62e-01,-1.08e+01,
492,-2.59e-01,-1.11e+01,
493,-2.59e-01,-1.08e+01,
494,-2.56e-01,-1.11e+01,
495,-2.59e-01,-1.11e+01,
496,-2.59e-01,-1.11e+01,
497,-2.59e-01,-1.11e+01,
498,-2.56e-01,-1.11e+01,
499,-2.62e-01,-1.11e+01,
500,-2.59e-01,-1.11e+01,
501,-2.56e-01,-1.08e+01,
502,-2.59e-01,-1.11e+01,
503,-2.59e-01,-1.11e+01,
504,-2.59e-01,-1.11e+01,
505,-2.59e-01,-1.11e+01,
506,-2.59e-01,-1.11e+01,
507,-2.59e-01,-1.11e+01,
508,-2.59e-01,-1.11e+01,
509,-2.59e-01,-1.11e+01,
510,-2.59e-01,-1.11e+01,
511,-2.62e-01,-1.11e+01,
512,-2.59e-01,-1.11e+01,
513,-2.59e-01,-1.11e+01,
514,-2.59e-01,-1.11e+01,
515,-2.62e-01,-1.11e+01,
516,-2.59e-01,-1.11e+01,
517,-2.59e-01,-1.11e+01,
518,-2.59e-01,-1.11e+01,
519,-2.62e-01,-1.12e+01,
520,-2.59e-01,-1.11e+01,
521,-2.59e-01,-1.11e+01,
522,-2.59e-01,-1.12e+01,
523,-2.62e-01,-1.11e+01,
524,-2.59e-01,-1.08e+01,
525,-2.62e-01,-1.11e+01,
526,-2.62e-01,-1.11e+01,
527,-2.62e-01,-1.12e+01,
528,-2.59e-01,-1.11e+01,
529,-2.59e-01,-1.11e+01,
530,-2.59e-01,-1.12e+01,
531,-2.68e-01,-1.11e+01,
532,-2.62e-01,-1.08e+01,
533,-2.62e-01,-1.11e+01,
534,-2.62e-01,-1.11e+01,
535,-2.62e-01,-1.12e+01,
536,-2.59e-01,-1.11e+01,
537,-2.59e-01,-1.11e+01,
538,-2.59e-01,-1.12e+01,
539,-2.62e-01,-1.11e+01,
540,-2.59e-01,-1.11e+01,
541,-2.59e-01,-1.11e+01,
542,-2.59e-01,-1.11e+01,
543,-2.62e-01,-1.11e+01,
544,-2.59e-01,-1.11e+01,
545,-2.59e-01,-1.11e+01,
546,-2.59e-01,-1.11e+01,
547,-2.68e-01,-1.11e+01,
548,-2.59e-01,-1.11e+01,
549,-2.59e-01,-1.12e+01,
550,-2.62e-01,-1.11e+01,
551,-2.62e-01,-1.12e+01,
552,-2.62e-01,-1.12e+01,
553,-2.62e-01,-1.11e+01,
554,-2.62e-01,-1.12e+01,
555,-2.62e-01,-1.11e+01,
556,-2.59e-01,-1.11e+01,
557,-2.62e-01,-1.11e+01,
558,-2.62e-01,-1.12e+01,
559,-2.68e-01,-1.12e+01,
560,-2.62e-01,-1.12e+01,
561,-2.62e-01,-1.12e+01,
562,-2.62e-01,-1.11e+01,
563,-2.62e-01,-1.12e+01,
564,-2.62e-01,-1.12e+01,
565,-2.62e-01,-1.11e+01,
566,-2.62e-01,-1.12e+01,
567,-2.68e-01,-1.12e+01,
568,-2.62e-01,-1.12e+01,
569,-2.62e-01,-1.12e+01,
570,-2.59e-01,-1.12e+01,
571,-2.68e-01,-1.11e+01,
572,-2.62e-01,-1.12e+01,
573,-2.62e-01,-1.11e+01,
574,-2.62e-01,-1.12e+01,
575,-2.62e-01,-1.12e+01,
576,-2.62e-01,-1.11e+01,
577,-2.68e-01,-1.11e+01,
578,-2.62e-01,-1.12e+01,
579,-2.68e-01,-1.12e+01,
580,-2.62e-01,-1.12e+01,
581,-2.59e-01,-1.12e+01,
582,-2.62e-01,-1.12e+01,
583,-2.68e-01,-1.13e+01,
584,-2.68e-01,-1.12e+01,
585,-2.68e-01,-1.12e+01,
586,-2.62e-01,-1.12e+01,
587,-2.68e-01,-1.12e+01,
588,-2.62e-01,-1.11e+01,
589,-2.68e-01,-1.12e+01,
590,-2.62e-01,-1.12e+01,
591,-2.68e-01,-1.12e+01,
592,-2.62e-01,-1.12e+01,
593,-2.62e-01,-1.11e+01,
594,-2.68e-01,-1.12e+01,
595,-2.68e-01,-1.12e+01,
596,-2.68e-01,-1.12e+01,
597,-2.62e-01,-1.12e+01,
598,-2.62e-01,-1.12e+01,
599,-2.68e-01,-1.13e+01,
600,-2.62e-01,-1.12e+01,
601,-2.62e-01,-1.12e+01,
602,-2.62e-01,-1.13e+01,
603,-2.71e-01,-1.12e+01,
604,-2.68e-01,-1.12e+01,
605,-2.68e-01,-1.11e+01,
606,-2.68e-01,-1.13e+01,
607,-2.71e-01,-1.13e+01,
608,-2.62e-01,-1.13e+01,
609,-2.62e-01,-1.12e+01,
610,-2.68e-01,-1.13e+01,
611,-2.68e-01,-1.12e+01,
612,-2.68e-01,-1.12e+01,
613,-2.62e-01,-1.12e+01,
614,-2.62e-01,-1.13e+01,
615,-2.71e-01,-1.13e+01,
616,-2.68e-01,-1.13e+01,
617,-2.68e-01,-1.13e+01,
618,-2.68e-01,-1.13e+01,
619,-2.71e-01,-1.11e+01,
620,-2.68e-01,-1.12e+01,
621,-2.62e-01,-1.12e+01,
622,-2.68e-01,-1.13e+01,
623,-2.71e-01,-1.13e+01,
624,-2.68e-01,-1.13e+01,
625,-2.62e-01,-1.12e+01,
626,-2.68e-01,-1.13e+01,
627,-2.68e-01,-1.12e+01,
628,-2.68e-01,-1.12e+01,
629,-2.68e-01,-1.12e+01,
630,-2.68e-01,-1.12e+01,
631,-2.68e-01,-1.13e+01,
632,-2.68e-01,-1.13e+01,
633,-2.68e-01,-1.12e+01,
634,-2.68e-01,-1.12e+01,
635,-2.68e-01,-1.12e+01,
636,-2.68e-01,-1.12e+01,
637,-2.68e-01,-1.13e+01,
638,-2.68e-01,-1.13e+01,
639,-2.68e-01,-1.13e+01,
640,-2.68e-01,-1.13e+01,
641,-2.68e-01,-1.13e+01,
642,-2.68e-01,-1.13e+01,
643,-2.71e-01,-1.13e+01,
644,-2.68e-01,-1.12e+01,
645,-2.68e-01,-1.13e+01,
646,-2.68e-01,-1.12e+01,
647,-2.71e-01,-1.13e+01,
648,-2.68e-01,-1.13e+01,
649,-2.71e-01,-1.13e+01,
650,-2.68e-01,-1.12e+01,
651,-2.71e-01,-1.13e+01,
652,-2.68e-01,-1.13e+01,
653,-2.68e-01,-1.13e+01,
654,-2.68e-01,-1.13e+01,
655,-2.68e-01,-1.13e+01,
656,-2.71e-01,-1.13e+01,
657,-2.68e-01,-1.13e+01,
658,-2.68e-01,-1.13e+01,
659,-2.71e-01,-1.13e+01,
660,-2.68e-01,-1.13e+01,
661,-2.71e-01,-1.13e+01,
662,-2.68e-01,-1.12e+01,
663,-2.71e-01,-1.13e+01,
664,-2.68e-01,-1.13e+01,
665,-2.71e-01,-1.13e+01,
666,-2.71e-01,-1.14e+01,
667,-2.71e-01,-1.13e+01,
668,-2.71e-01,-1.13e+01,
669,-2.71e-01,-1.14e+01,
670,-2.71e-01,-1.13e+01,
671,-2.75e-01,-1.13e+01,
672,-2.68e-01,-1.13e+01,
673,-2.68e-01,-1.13e+01,
674,-2.71e-01,-1.13e+01,
675,-2.75e-01,-1.13e+01,
676,-2.71e-01,-1.13e+01,
677,-2.71e-01,-1.13e+01,
678,-2.68e-01,-1.13e+01,
679,-2.75e-01,-1.14e+01,
680,-2.71e-01,-1.13e+01,
681,-2.71e-01,-1.13e+01,
682,-2.71e-01,-1.14e+01,
683,-2.71e-01,-1.13e+01,
684,-2.71e-01,-1.13e+01,
685,-2.71e-01,-1.13e+01,
686,-2.71e-01,-1.13e+01,
687,-2.75e-01,-1.14e+01,
688,-2.71e-01,-1.13e+01,
689,-2.71e-01,-1.14e+01,
690,-2.71e-01,-1.14e+01,
691,-2.71e-01,-1.13e+01,
692,-2.71e-01,-1.13e+01,
693,-2.71e-01,-1.13e+01,
694,-2.71e-01,-1.13e+01,
695,-2.75e-01,-1.13e+01,
696,-2.71e-01,-1.14e+01,
697,-2.71e-01,-1.14e+01,
698,-2.71e-01,-1.13e+01,
699,-2.71e-01,-1.14e+01,
700,-2.71e-01,-1.14e+01,
701,-2.71e-01,-1.13e+01,
702,-2.71e-01,-1.14e+01,
703,-2.71e-01,-1.14e+01,
704,-2.71e-01,-1.14e+01,
705,-2.71e-01,-1.13e+01,
706,-2.71e-01,-1.13e+01,
707,-2.71e-01,-1.14e+01,
708,-2.71e-01,-1.13e+01,
709,-2.71e-01,-1.13e+01,
710,-2.71e-01,-1.13e+01,
711,-2.75e-01,-1.14e+01,
712,-2.71e-01,-1.13e+01,
713,-2.71e-01,-1.14e+01,
714,-2.71e-01,-1.14e+01,
715,-2.75e-01,-1.13e+01,
716,-2.71e-01,-1.13e+01,
717,-2.71e-01,-1.14e+01,
718,-2.71e-01,-1.14e+01,
719,-2.75e-01,-1.14e+01,
720,-2.71e-01,-1.13e+01,
721,-2.71e-01,-1.14e+01,
722,-2.71e-01,-1.14e+01,
723,-2.75e-01,-1.14e+01,
724,-2.71e-01,-1.13e+01,
725,-2.71e-01,-1.14e+01,
726,-2.71e-01,-1.14e+01,
727,-2.75e-01,-1.14e+01,
728,-2.71e-01,-1.14e+01,
729,-2.75e-01,-1.14e+01,
730,-2.71e-01,-1.14e+01,
731,-2.75e-01,-1.14e+01,
732,-2.75e-01,-1.13e+01,
733,-2.71e-01,-1.14e+01,
734,-2.71e-01,-1.15e+01,
735,-2.78e-01,-1.15e+01,
736,-2.71e-01,-1.14e+01,
737,-2.71e-01,-1.14e+01,
738,-2.71e-01,-1.14e+01,
739,-2.75e-01,-1.14e+01,
740,-2.75e-01,-1.14e+01,
741,-2.75e-01,-1.14e+01,
742,-2.71e-01,-1.14e+01,
743,-2.75e-01,-1.15e+01,
744,-2.71e-01,-1.15e+01,
745,-2.75e-01,-1.14e+01,
746,-2.71e-01,-1.14e+01,
747,-2.75e-01,-1.14e+01,
748,-2.75e-01,-1.14e+01,
749,-2.75e-01,-1.14e+01,
750,-2.71e-01,-1.14e+01,
751,-2.75e-01,-1.15e+01,
752,-2.71e-01,-1.14e+01,
753,-2.71e-01,-1.15e+01,
754,-2.75e-01,-1.15e+01,
755,-2.78e-01,-1.14e+01,
756,-2.75e-01,-1.14e+01,
757,-2.75e-01,-1.15e+01,
758,-2.71e-01,-1.14e+01,
759,-2.75e-01,-1.15e+01,
760,-2.71e-01,-1.14e+01,
761,-2.75e-01,-1.14e+01,
762,-2.75e-01,-1.15e+01,
763,-2.75e-01,-1.14e+01,
764,-2.75e-01,-1.15e+01,
765,-2.75e-01,-1.14e+01,
766,-2.71e-01,-1.14e+01,
767,-2.78e-01,-1.15e+01,
768,-2.75e-01,-1.15e+01,
769,-2.75e-01,-1.15e+01,
770,-2.71e-01,-1.15e+01,
771,-2.75e-01,-1.14e+01,
772,-2.75e-01,-1.14e+01,
773,-2.75e-01,-1.15e+01,
774,-2.75e-01,-1.15e+01,
775,-2.78e-01,-1.15e+01,
776,-2.75e-01,-1.15e+01,
777,-2.75e-01,-1.14e+01,
778,-2.71e-01,-1.15e+01,
779,-2.78e-01,-1.15e+01,
780,-2.75e-01,-1.14e+01,
781,-2.75e-01,-1.15e+01,
782,-2.75e-01,-1.15e+01,
783,-2.78e-01,-1.15e+01,
784,-2.75e-01,-1.15e+01,
785,-2.75e-01,-1.15e+01,
786,-2.75e-01,-1.15e+01,
787,-2.78e-01,-1.15e+01,
788,-2.75e-01,-1.15e+01,
789,-2.75e-01,-1.15e+01,
790,-2.75e-01,-1.15e+01,
791,-2.75e-01,-1.15e+01,
792,-2.75e-01,-1.15e+01,
793,-2.75e-01,-1.15e+01,
794,-2.75e-01,-1.15e+01,
795,-2.78e-01,-1.15e+01,
796,-2.75e-01,-1.15e+01,
797,-2.78e-01,-1.15e+01,
798,-2.75e-01,-1.15e+01,
799,-2.78e-01,-1.15e+01,
800,-2.75e-01,-1.15e+01,
