Lab 8/Data/more/NewFile6.csv

X,CH1,CH2,Start,Increment,
Sequence,Volt,Volt,4.062000e-04,2.000000e-09
0,2.33e+00,-3.40e-02,
1,2.33e+00,-3.40e-02,
2,2.33e+00,-3.40e-02,
3,2.33e+00,-3.40e-02,
4,2.32e+00,-3.40e-02,
5,2.32e+00,-3.40e-02,
6,2.32e+00,-3.40e-02,
7,2.33e+00,-3.40e-02,
8,2.32e+00,-3.40e-02,
9,2.32e+00,-3.40e-02,
10,2.32e+00,-3.40e-02,
11,2.32e+00,-3.40e-02,
12,2.32e+00,-3.40e-02,
13,2.32e+00,-3.40e-02,
14,2.32e+00,-3.40e-02,
15,2.32e+00,-3.40e-02,
16,2.32e+00,-3.40e-02,
17,2.32e+00,-3.40e-02,
18,2.32e+00,-3.40e-02,
19,2.32e+00,-3.40e-02,
20,2.32e+00,-3.40e-02,
21,2.32e+00,-3.40e-02,
22,2.32e+00,-3.40e-02,
23,2.32e+00,-3.40e-02,
24,2.32e+00,-3.40e-02,
25,2.32e+00,-3.40e-02,
26,2.32e+00,-3.40e-02,
27,2.32e+00,-3.40e-02,
28,2.32e+00,-3.40e-02,
29,2.32e+00,-3.40e-02,
30,2.32e+00,-3.40e-02,
31,2.32e+00,-3.40e-02,
32,2.32e+00,-3.40e-02,
33,2.32e+00,-3.40e-02,
34,2.32e+00,-3.40e-02,
35,2.32e+00,-3.40e-02,
36,2.32e+00,-3.40e-02,
37,2.32e+00,-3.40e-02,
38,2.32e+00,-3.40e-02,
39,2.32e+00,-3.40e-02,
40,2.31e+00,-3.40e-02,
41,2.31e+00,-3.40e-02,
42,2.32e+00,-3.40e-02,
43,2.32e+00,-3.40e-02,
44,2.31e+00,-3.40e-02,
45,2.31e+00,-3.40e-02,
46,2.31e+00,-3.40e-02,
47,2.31e+00,-3.40e-02,
48,2.31e+00,-3.40e-02,
49,2.31e+00,-3.40e-02,
50,2.31e+00,-3.40e-02,
51,2.31e+00,-3.40e-02,
52,2.31e+00,-3.40e-02,
53,2.31e+00,-3.40e-02,
54,2.31e+00,-3.40e-02,
55,2.31e+00,-3.40e-02,
56,2.31e+00,-3.40e-02,
57,2.31e+00,-3.40e-02,
58,2.31e+00,-3.40e-02,
59,2.31e+00,-3.40e-02,
60,2.31e+00,-3.40e-02,
61,2.31e+00,-3.40e-02,
62,2.31e+00,-3.40e-02,
63,2.31e+00,-3.40e-02,
64,2.31e+00,-3.40e-02,
65,2.31e+00,-3.40e-02,
66,2.31e+00,-3.40e-02,
67,2.31e+00,-3.40e-02,
68,2.31e+00,-3.40e-02,
69,2.30e+00,-3.40e-02,
70,2.31e+00,-3.40e-02,
71,2.31e+00,-3.40e-02,
72,2.30e+00,-3.40e-02,
73,2.30e+00,-3.40e-02,
74,2.30e+00,-3.40e-02,
75,2.30e+00,-3.40e-02,
76,2.30e+00,-3.40e-02,
77,2.30e+00,-3.40e-02,
78,2.30e+00,-3.40e-02,
79,2.30e+00,-3.40e-02,
80,2.30e+00,-3.40e-02,
81,2.30e+00,-3.40e-02,
82,2.30e+00,-3.40e-02,
83,2.30e+00,-3.40e-02,
84,2.30e+00,-3.40e-02,
85,2.30e+00,-3.40e-02,
86,2.30e+00,-3.40e-02,
87,2.30e+00,-3.40e-02,
88,2.30e+00,-3.40e-02,
89,2.30e+00,-1.70e-02,
90,2.30e+00,-3.40e-02,
91,2.30e+00,-3.40e-02,
92,2.30e+00,-3.40e-02,
93,2.30e+00,-3.40e-02,
94,2.30e+00,-3.40e-02,
95,2.30e+00,-3.40e-02,
96,2.30e+00,-3.40e-02,
97,2.30e+00,-3.40e-02,
98,2.30e+00,-3.40e-02,
99,2.30e+00,-3.40e-02,
100,2.30e+00,-3.40e-02,
101,2.30e+00,-3.40e-02,
102,2.30e+00,-3.40e-02,
103,2.30e+00,-3.40e-02,
104,2.30e+00,-3.40e-02,
105,2.30e+00,-3.40e-02,
106,2.30e+00,-3.40e-02,
107,2.30e+00,-3.40e-02,
108,2.30e+00,-3.40e-02,
109,2.30e+00,-3.40e-02,
110,2.30e+00,-3.40e-02,
111,2.30e+00,-3.40e-02,
112,2.30e+00,-3.40e-02,
113,2.30e+00,-3.40e-02,
114,2.30e+00,-3.40e-02,
115,2.30e+00,-3.40e-02,
116,2.30e+00,-3.40e-02,
117,2.30e+00,-3.40e-02,
118,2.30e+00,-3.40e-02,
119,2.30e+00,-3.40e-02,
120,2.30e+00,-3.40e-02,
121,2.30e+00,-3.40e-02,
122,2.30e+00,-3.40e-02,
123,2.30e+00,-3.40e-02,
124,2.30e+00,-3.40e-02,
125,2.30e+00,-3.40e-02,
126,2.30e+00,-3.40e-02,
127,2.30e+00,-3.40e-02,
128,2.30e+00,-3.40e-02,
129,2.30e+00,-3.40e-02,
130,2.30e+00,-3.40e-02,
131,2.30e+00,-3.40e-02,
132,2.30e+00,-3.40e-02,
133,2.30e+00,-3.40e-02,
134,2.30e+00,-3.40e-02,
135,2.30e+00,-3.40e-02,
136,2.30e+00,-3.40e-02,
137,2.28e+00,-3.40e-02,
138,2.30e+00,-3.40e-02,
139,2.30e+00,-3.40e-02,
140,2.28e+00,-3.40e-02,
141,2.28e+00,-3.40e-02,
142,2.28e+00,-3.40e-02,
143,2.28e+00,-3.40e-02,
144,2.28e+00,-3.40e-02,
145,2.28e+00,-3.40e-02,
146,2.28e+00,-3.40e-02,
147,2.28e+00,-3.40e-02,
148,2.28e+00,-3.40e-02,
149,2.28e+00,-3.40e-02,
150,2.28e+00,-3.40e-02,
151,2.28e+00,-3.40e-02,
152,2.28e+00,-3.40e-02,
153,2.28e+00,-3.40e-02,
154,2.28e+00,-3.40e-02,
155,2.28e+00,-3.40e-02,
156,2.28e+00,-3.40e-02,
157,2.28e+00,-3.40e-02,
158,2.28e+00,-3.40e-02,
159,2.28e+00,-3.40e-02,
160,2.28e+00,-3.40e-02,
161,2.28e+00,-1.70e-02,
162,2.28e+00,-3.40e-02,
163,2.28e+00,-3.40e-02,
164,2.28e+00,-3.40e-02,
165,2.28e+00,-3.40e-02,
166,2.28e+00,-3.40e-02,
167,2.28e+00,-3.40e-02,
168,2.27e+00,-3.40e-02,
169,2.27e+00,-3.40e-02,
170,2.28e+00,-3.40e-02,
171,2.28e+00,-3.40e-02,
172,2.28e+00,-3.40e-02,
173,2.27e+00,-3.40e-02,
174,2.28e+00,-3.40e-02,
175,2.28e+00,-3.40e-02,
176,2.27e+00,-3.40e-02,
177,2.27e+00,-3.40e-02,
178,2.27e+00,-3.40e-02,
179,2.27e+00,-3.40e-02,
180,2.27e+00,-3.40e-02,
181,2.27e+00,-3.40e-02,
182,2.27e+00,-3.40e-02,
183,2.27e+00,-3.40e-02,
184,2.27e+00,-3.40e-02,
185,2.27e+00,-3.40e-02,
186,2.27e+00,-3.40e-02,
187,2.27e+00,-3.40e-02,
188,2.27e+00,-3.40e-02,
189,2.27e+00,-3.40e-02,
190,2.27e+00,-3.40e-02,
191,2.27e+00,-3.40e-02,
192,2.27e+00,-3.40e-02,
193,2.27e+00,-3.40e-02,
194,2.27e+00,-3.40e-02,
195,2.27e+00,-3.40e-02,
196,2.27e+00,-3.40e-02,
197,2.27e+00,-3.40e-02,
198,2.27e+00,-3.40e-02,
199,2.27e+00,-3.40e-02,
200,2.27e+00,-3.40e-02,
201,2.27e+00,-3.40e-02,
202,2.27e+00,-1.70e-02,
203,2.27e+00,-3.40e-02,
204,2.27e+00,-3.40e-02,
205,2.27e+00,-3.40e-02,
206,2.27e+00,-3.40e-02,
207,2.27e+00,-3.40e-02,
208,2.27e+00,-3.40e-02,
209,2.27e+00,-3.40e-02,
210,2.27e+00,-3.40e-02,
211,2.27e+00,-3.40e-02,
212,2.27e+00,-3.40e-02,
213,2.27e+00,-3.40e-02,
214,2.27e+00,-3.40e-02,
215,2.27e+00,-3.40e-02,
216,2.27e+00,-3.40e-02,
217,2.27e+00,-3.40e-02,
218,2.27e+00,-3.40e-02,
219,2.27e+00,-3.40e-02,
220,2.27e+00,-3.40e-02,
221,2.27e+00,-3.40e-02,
222,2.27e+00,-3.40e-02,
223,2.27e+00,-3.40e-02,
224,2.27e+00,-3.40e-02,
225,2.27e+00,-3.40e-02,
226,2.27e+00,-3.40e-02,
227,2.27e+00,-3.40e-02,
228,2.27e+00,-3.40e-02,
229,2.27e+00,-3.40e-02,
230,2.27e+00,-3.40e-02,
231,2.27e+00,-3.40e-02,
232,2.27e+00,-3.40e-02,
233,2.27e+00,-3.40e-02,
234,2.27e+00,-3.40e-02,
235,2.27e+00,-3.40e-02,
236,2.27e+00,-3.40e-02,
237,2.27e+00,-3.40e-02,
238,2.27e+00,-3.40e-02,
239,2.27e+00,-3.40e-02,
240,2.26e+00,-3.40e-02,
241,2.26e+00,-3.40e-02,
242,2.27e+00,-3.40e-02,
243,2.26e+00,-3.40e-02,
244,2.26e+00,-3.40e-02,
245,2.26e+00,-3.40e-02,
246,2.27e+00,-3.40e-02,
247,2.26e+00,-3.40e-02,
248,2.26e+00,-3.40e-02,
249,2.26e+00,-3.40e-02,
250,2.26e+00,-3.40e-02,
251,2.27e+00,-3.40e-02,
252,2.26e+00,-3.40e-02,
253,2.26e+00,-3.40e-02,
254,2.26e+00,-3.40e-02,
255,2.26e+00,-3.40e-02,
256,2.26e+00,-3.40e-02,
257,2.26e+00,-3.40e-02,
258,2.26e+00,-3.40e-02,
259,2.26e+00,-3.40e-02,
260,2.26e+00,-3.40e-02,
261,2.26e+00,-3.40e-02,
262,2.26e+00,-3.40e-02,
263,2.26e+00,-3.40e-02,
264,2.26e+00,-3.40e-02,
265,2.26e+00,-3.40e-02,
266,2.26e+00,-3.40e-02,
267,2.26e+00,-3.40e-02,
268,2.26e+00,-3.40e-02,
269,2.26e+00,-3.40e-02,
270,2.26e+00,-3.40e-02,
271,2.26e+00,-3.40e-02,
272,2.26e+00,-3.40e-02,
273,2.26e+00,-3.40e-02,
274,2.26e+00,-3.40e-02,
275,2.26e+00,-3.40e-02,
276,2.25e+00,-3.40e-02,
277,2.26e+00,-3.40e-02,
278,2.26e+00,-3.40e-02,
279,2.26e+00,-3.40e-02,
280,2.25e+00,-3.40e-02,
281,2.25e+00,-3.40e-02,
282,2.26e+00,-3.40e-02,
283,2.26e+00,-3.40e-02,
284,2.25e+00,-3.40e-02,
285,2.25e+00,-3.40e-02,
286,2.26e+00,-3.40e-02,
287,2.25e+00,-3.40e-02,
288,2.25e+00,-3.40e-02,
289,2.25e+00,-3.40e-02,
290,2.25e+00,-3.40e-02,
291,2.26e+00,-3.40e-02,
292,2.25e+00,-3.40e-02,
293,2.25e+00,-3.40e-02,
294,2.25e+00,-3.40e-02,
295,2.25e+00,-3.40e-02,
296,2.25e+00,-3.40e-02,
297,2.25e+00,-3.40e-02,
298,2.25e+00,-3.40e-02,
299,2.25e+00,-3.40e-02,
300,2.25e+00,-3.40e-02,
301,2.25e+00,-3.40e-02,
302,2.25e+00,-3.40e-02,
303,2.25e+00,-3.40e-02,
304,2.25e+00,-3.40e-02,
305,2.25e+00,-3.40e-02,
306,2.25e+00,-1.70e-02,
307,2.25e+00,-3.40e-02,
308,2.25e+00,-3.40e-02,
309,2.25e+00,-3.40e-02,
310,2.25e+00,-3.40e-02,
311,2.25e+00,-3.40e-02,
312,2.25e+00,-3.40e-02,
313,2.25e+00,-3.40e-02,
314,2.25e+00,-3.40e-02,
315,2.25e+00,-3.40e-02,
316,2.24e+00,-3.40e-02,
317,2.24e+00,-3.40e-02,
318,2.25e+00,-3.40e-02,
319,2.25e+00,-3.40e-02,
320,2.25e+00,-3.40e-02,
321,2.24e+00,-3.40e-02,
322,2.25e+00,-3.40e-02,
323,2.25e+00,-3.40e-02,
324,2.24e+00,-3.40e-02,
325,2.24e+00,-3.40e-02,
326,2.24e+00,-3.40e-02,
327,2.25e+00,-3.40e-02,
328,2.24e+00,-3.40e-02,
329,2.24e+00,-3.40e-02,
330,2.24e+00,-3.40e-02,
331,2.24e+00,-3.40e-02,
332,2.24e+00,-3.40e-02,
333,2.24e+00,-3.40e-02,
334,2.24e+00,-3.40e-02,
335,2.24e+00,-3.40e-02,
336,2.24e+00,-3.40e-02,
337,2.24e+00,-3.40e-02,
338,2.24e+00,-3.40e-02,
339,2.24e+00,-3.40e-02,
340,2.24e+00,-3.40e-02,
341,2.24e+00,-3.40e-02,
342,2.24e+00,-3.40e-02,
343,2.24e+00,-3.40e-02,
344,2.24e+00,-3.40e-02,
345,2.24e+00,-3.40e-02,
346,2.24e+00,-3.40e-02,
347,2.24e+00,-3.40e-02,
348,2.24e+00,-3.40e-02,
349,2.24e+00,-3.40e-02,
350,2.24e+00,-3.40e-02,
351,2.24e+00,-3.40e-02,
352,2.24e+00,-3.40e-02,
353,2.24e+00,-3.40e-02,
354,2.24e+00,-3.40e-02,
355,2.24e+00,-3.40e-02,
356,2.24e+00,-3.40e-02,
357,2.23e+00,-3.40e-02,
358,2.24e+00,-3.40e-02,
359,2.24e+00,-3.40e-02,
360,2.23e+00,-3.40e-02,
361,2.23e+00,-3.40e-02,
362,2.24e+00,-3.40e-02,
363,2.23e+00,-3.40e-02,
364,2.24e+00,-3.40e-02,
365,2.23e+00,-3.40e-02,
366,2.23e+00,-3.40e-02,
367,2.23e+00,-3.40e-02,
368,2.23e+00,-3.40e-02,
369,2.23e+00,-3.40e-02,
370,2.23e+00,-3.40e-02,
371,2.23e+00,-3.40e-02,
372,2.23e+00,-3.40e-02,
373,2.23e+00,-3.40e-02,
374,2.23e+00,-3.40e-02,
375,2.23e+00,-3.40e-02,
376,2.23e+00,-3.40e-02,
377,2.23e+00,-3.40e-02,
378,2.23e+00,-3.40e-02,
379,2.23e+00,-3.40e-02,
380,2.23e+00,-3.40e-02,
381,2.23e+00,-3.40e-02,
382,2.23e+00,-3.40e-02,
383,2.23e+00,-3.40e-02,
384,2.23e+00,-3.40e-02,
385,2.23e+00,-3.40e-02,
386,2.23e+00,-3.40e-02,
387,2.23e+00,-3.40e-02,
388,2.23e+00,-3.40e-02,
389,2.23e+00,-3.40e-02,
390,2.23e+00,-3.40e-02,
391,2.23e+00,-3.40e-02,
392,2.22e+00,-3.40e-02,
393,2.23e+00,-3.40e-02,
394,2.23e+00,-3.40e-02,
395,2.23e+00,-3.40e-02,
396,2.23e+00,-3.40e-02,
397,2.22e+00,-3.40e-02,
398,2.23e+00,-3.40e-02,
399,2.23e+00,-3.40e-02,
400,2.22e+00,-3.40e-02,
401,2.22e+00,-3.40e-02,
402,2.23e+00,-3.40e-02,
403,2.22e+00,-3.40e-02,
404,2.22e+00,-3.40e-02,
405,2.22e+00,-3.40e-02,
406,2.23e+00,-3.40e-02,
407,2.22e+00,-3.40e-02,
408,2.22e+00,-3.40e-02,
409,2.22e+00,-3.40e-02,
410,2.22e+00,-3.40e-02,
411,2.22e+00,-3.40e-02,
412,2.22e+00,-3.40e-02,
413,2.22e+00,-3.40e-02,
414,2.22e+00,-3.40e-02,
415,2.22e+00,-3.40e-02,
416,2.22e+00,-3.40e-02,
417,2.22e+00,-3.40e-02,
418,2.22e+00,-3.40e-02,
419,2.22e+00,-3.40e-02,
420,2.22e+00,-3.40e-02,
421,2.22e+00,-3.40e-02,
422,2.22e+00,-3.40e-02,
423,2.22e+00,-3.40e-02,
424,2.22e+00,-3.40e-02,
425,2.22e+00,-3.40e-02,
426,2.22e+00,-3.40e-02,
427,2.22e+00,-3.40e-02,
428,2.22e+00,-3.40e-02,
429,2.22e+00,-3.40e-02,
430,2.22e+00,-3.40e-02,
431,2.22e+00,-3.40e-02,
432,2.22e+00,-3.40e-02,
433,2.22e+00,-3.40e-02,
434,2.22e+00,-3.40e-02,
435,2.22e+00,-3.40e-02,
436,2.22e+00,-3.40e-02,
437,2.22e+00,-3.40e-02,
438,2.22e+00,-3.40e-02,
439,2.22e+00,-3.40e-02,
440,2.22e+00,-3.40e-02,
441,2.22e+00,-3.40e-02,
442,2.22e+00,-3.40e-02,
443,2.22e+00,-3.40e-02,
444,2.22e+00,-3.40e-02,
445,2.22e+00,-3.40e-02,
446,2.22e+00,-3.40e-02,
447,2.22e+00,-3.40e-02,
448,2.22e+00,-3.40e-02,
449,2.22e+00,-3.40e-02,
450,2.22e+00,-3.40e-02,
451,2.22e+00,-3.40e-02,
452,2.22e+00,-3.40e-02,
453,2.22e+00,-3.40e-02,
454,2.22e+00,-3.40e-02,
455,2.22e+00,-3.40e-02,
456,2.22e+00,-3.40e-02,
457,2.22e+00,-3.40e-02,
458,2.22e+00,-3.40e-02,
459,2.22e+00,-3.40e-02,
460,2.22e+00,-3.40e-02,
461,2.22e+00,-3.40e-02,
462,2.22e+00,-3.40e-02,
463,2.22e+00,-3.40e-02,
464,2.21e+00,-3.40e-02,
465,2.22e+00,-3.40e-02,
466,2.22e+00,-3.40e-02,
467,2.22e+00,-3.40e-02,
468,2.21e+00,-3.40e-02,
469,2.21e+00,-3.40e-02,
470,2.22e+00,-3.40e-02,
471,2.21e+00,-3.40e-02,
472,2.21e+00,-3.40e-02,
473,2.21e+00,-3.40e-02,
474,2.21e+00,-3.40e-02,
475,2.21e+00,-3.40e-02,
476,2.21e+00,-3.40e-02,
477,2.21e+00,-3.40e-02,
478,2.21e+00,-3.40e-02,
479,2.21e+00,-3.40e-02,
480,2.21e+00,-3.40e-02,
481,2.21e+00,-3.40e-02,
482,2.21e+00,-3.40e-02,
483,2.21e+00,-3.40e-02,
484,2.21e+00,-3.40e-02,
485,2.21e+00,-3.40e-02,
486,2.21e+00,-3.40e-02,
487,2.21e+00,-3.40e-02,
488,2.21e+00,-3.40e-02,
489,2.21e+00,-3.40e-02,
490,2.21e+00,-3.40e-02,
491,2.21e+00,-3.40e-02,
492,2.20e+00,-3.40e-02,
493,2.20e+00,-3.40e-02,
494,2.21e+00,-3.40e-02,
495,2.21e+00,-3.40e-02,
496,2.20e+00,-3.40e-02,
497,2.21e+00,-3.40e-02,
498,2.21e+00,-3.40e-02,
499,2.21e+00,-3.40e-02,
500,2.20e+00,-3.40e-02,
501,2.20e+00,-3.40e-02,
502,2.21e+00,-3.40e-02,
503,2.20e+00,-3.40e-02,
504,2.20e+00,-3.40e-02,
505,2.20e+00,-3.40e-02,
506,2.20e+00,-3.40e-02,
507,2.20e+00,-3.40e-02,
508,2.20e+00,-3.40e-02,
509,2.20e+00,-3.40e-02,
510,2.20e+00,-3.40e-02,
511,2.20e+00,-3.40e-02,
512,2.20e+00,-3.40e-02,
513,2.20e+00,-3.40e-02,
514,2.20e+00,-3.40e-02,
515,2.20e+00,-3.40e-02,
516,2.20e+00,-3.40e-02,
517,2.20e+00,-3.40e-02,
518,2.20e+00,-3.40e-02,
519,2.20e+00,-3.40e-02,
520,2.20e+00,-3.40e-02,
521,2.20e+00,-3.40e-02,
522,2.20e+00,-3.40e-02,
523,2.20e+00,-3.40e-02,
524,2.20e+00,-3.40e-02,
525,2.20e+00,-3.40e-02,
526,2.20e+00,-3.40e-02,
527,2.20e+00,-3.40e-02,
528,2.20e+00,-3.40e-02,
529,2.19e+00,-3.40e-02,
530,2.20e+00,-3.40e-02,
531,2.20e+00,-3.40e-02,
532,2.20e+00,-3.40e-02,
533,2.19e+00,-3.40e-02,
534,2.20e+00,-3.40e-02,
535,2.19e+00,-3.40e-02,
536,2.19e+00,-3.40e-02,
537,2.19e+00,-3.40e-02,
538,2.19e+00,-3.40e-02,
539,2.19e+00,-3.40e-02,
540,2.19e+00,-3.40e-02,
541,2.19e+00,-3.40e-02,
542,2.19e+00,-3.40e-02,
543,2.19e+00,-3.40e-02,
544,2.19e+00,-3.40e-02,
545,2.19e+00,-3.40e-02,
546,2.19e+00,-3.40e-02,
547,2.19e+00,-3.40e-02,
548,2.19e+00,-3.40e-02,
549,2.19e+00,-3.40e-02,
550,2.19e+00,-3.40e-02,
551,2.19e+00,-3.40e-02,
552,2.19e+00,-3.40e-02,
553,2.18e+00,-3.40e-02,
554,2.19e+00,-3.40e-02,
555,2.19e+00,-3.40e-02,
556,2.19e+00,-3.40e-02,
557,2.19e+00,-3.40e-02,
558,2.19e+00,-3.40e-02,
559,2.19e+00,-3.40e-02,
560,2.18e+00,-3.40e-02,
561,2.18e+00,-3.40e-02,
562,2.19e+00,-3.40e-02,
563,2.18e+00,-3.40e-02,
564,2.18e+00,-3.40e-02,
565,2.18e+00,-3.40e-02,
566,2.18e+00,-3.40e-02,
567,2.18e+00,-3.40e-02,
568,2.18e+00,-3.40e-02,
569,2.18e+00,-3.40e-02,
570,2.18e+00,-3.40e-02,
571,2.18e+00,-3.40e-02,
572,2.18e+00,-3.40e-02,
573,2.18e+00,-3.40e-02,
574,2.18e+00,-3.40e-02,
575,2.18e+00,-3.40e-02,
576,2.18e+00,-3.40e-02,
577,2.18e+00,-3.40e-02,
578,2.18e+00,-3.40e-02,
579,2.18e+00,-3.40e-02,
580,2.18e+00,-3.40e-02,
581,2.18e+00,-3.40e-02,
582,2.18e+00,-3.40e-02,
583,2.18e+00,-3.40e-02,
584,2.18e+00,-3.40e-02,
585,2.18e+00,-3.40e-02,
586,2.18e+00,-3.40e-02,
587,2.18e+00,-3.40e-02,
588,2.17e+00,-3.40e-02,
589,2.17e+00,-3.40e-02,
590,2.17e+00,-3.40e-02,
591,2.18e+00,-3.40e-02,
592,2.17e+00,-3.40e-02,
593,2.17e+00,-3.40e-02,
594,2.18e+00,-3.40e-02,
595,2.17e+00,-3.40e-02,
596,2.17e+00,-3.40e-02,
597,2.17e+00,-3.40e-02,
598,2.17e+00,-3.40e-02,
599,2.17e+00,-3.40e-02,
600,2.17e+00,-3.40e-02,
601,2.17e+00,-3.40e-02,
602,2.17e+00,-3.40e-02,
603,2.17e+00,-3.40e-02,
604,2.17e+00,-3.40e-02,
605,2.17e+00,-3.40e-02,
606,2.17e+00,-3.40e-02,
607,2.17e+00,-3.40e-02,
608,2.17e+00,-3.40e-02,
609,2.17e+00,-3.40e-02,
610,2.17e+00,-3.40e-02,
611,2.17e+00,-3.40e-02,
612,2.17e+00,-3.40e-02,
613,2.17e+00,-3.40e-02,
614,2.17e+00,-3.40e-02,
615,2.17e+00,-3.40e-02,
616,2.17e+00,-3.40e-02,
617,2.17e+00,-3.40e-02,
618,2.17e+00,-3.40e-02,
619,2.17e+00,-3.40e-02,
620,2.17e+00,-3.40e-02,
621,2.17e+00,-3.40e-02,
622,2.17e+00,-3.40e-02,
623,2.17e+00,-3.40e-02,
624,2.17e+00,-3.40e-02,
625,2.17e+00,-3.40e-02,
626,2.17e+00,-3.40e-02,
627,2.17e+00,-3.40e-02,
628,2.17e+00,-3.40e-02,
629,2.17e+00,-3.40e-02,
630,2.17e+00,-3.40e-02,
631,2.17e+00,-3.40e-02,
632,2.17e+00,-3.40e-02,
633,2.17e+00,-3.40e-02,
634,2.17e+00,-1.70e-02,
635,2.17e+00,-3.40e-02,
636,2.17e+00,-3.40e-02,
637,2.17e+00,-3.40e-02,
638,2.17e+00,-3.40e-02,
639,2.17e+00,-3.40e-02,
640,2.16e+00,-3.40e-02,
641,2.16e+00,-3.40e-02,
642,2.17e+00,-3.40e-02,
643,2.17e+00,-3.40e-02,
644,2.16e+00,-3.40e-02,
645,2.16e+00,-3.40e-02,
646,2.17e+00,-3.40e-02,
647,2.17e+00,-3.40e-02,
648,2.16e+00,-3.40e-02,
649,2.16e+00,-3.40e-02,
650,2.16e+00,-3.40e-02,
651,2.16e+00,-3.40e-02,
652,2.16e+00,-3.40e-02,
653,2.16e+00,-3.40e-02,
654,2.16e+00,-3.40e-02,
655,2.16e+00,-3.40e-02,
656,2.16e+00,-3.40e-02,
657,2.16e+00,-3.40e-02,
658,2.16e+00,-3.40e-02,
659,2.16e+00,-3.40e-02,
660,2.16e+00,-3.40e-02,
661,2.16e+00,-3.40e-02,
662,2.16e+00,-3.40e-02,
663,2.16e+00,-3.40e-02,
664,2.16e+00,-3.40e-02,
665,2.16e+00,-3.40e-02,
666,2.16e+00,-3.40e-02,
667,2.16e+00,-3.40e-02,
668,2.14e+00,-3.40e-02,
669,2.14e+00,-3.40e-02,
670,2.16e+00,-3.40e-02,
671,2.14e+00,-3.40e-02,
672,2.14e+00,-3.40e-02,
673,2.14e+00,-3.40e-02,
674,2.14e+00,-3.40e-02,
675,2.14e+00,-3.40e-02,
676,2.14e+00,-3.40e-02,
677,2.14e+00,-3.40e-02,
678,2.14e+00,-3.40e-02,
679,2.14e+00,-3.40e-02,
680,2.14e+00,-3.40e-02,
681,2.14e+00,-3.40e-02,
682,2.14e+00,-3.40e-02,
683,2.14e+00,-3.40e-02,
684,2.14e+00,-3.40e-02,
685,2.14e+00,-3.40e-02,
686,2.14e+00,-3.40e-02,
687,2.14e+00,-3.40e-02,
688,2.14e+00,-3.40e-02,
689,2.14e+00,-3.40e-02,
690,2.14e+00,-3.40e-02,
691,2.14e+00,-3.40e-02,
692,2.14e+00,-3.40e-02,
693,2.14e+00,-3.40e-02,
694,2.14e+00,-3.40e-02,
695,2.14e+00,-3.40e-02,
696,2.14e+00,-3.40e-02,
697,2.14e+00,-3.40e-02,
698,2.14e+00,-3.40e-02,
699,2.14e+00,-3.40e-02,
700,2.14e+00,-3.40e-02,
701,2.14e+00,-3.40e-02,
702,2.14e+00,-3.40e-02,
703,2.14e+00,-3.40e-02,
704,2.14e+00,-3.40e-02,
705,2.14e+00,-3.40e-02,
706,2.14e+00,-3.40e-02,
707,2.14e+00,-3.40e-02,
708,2.14e+00,-3.40e-02,
709,2.14e+00,-3.40e-02,
710,2.14e+00,-3.40e-02,
711,2.14e+00,-3.40e-02,
712,2.14e+00,-3.40e-02,
713,2.14e+00,-3.40e-02,
714,2.14e+00,-3.40e-02,
715,2.14e+00,-3.40e-02,
716,2.13e+00,-3.40e-02,
717,2.13e+00,-3.40e-02,
718,2.14e+00,-3.40e-02,
719,2.13e+00,-3.40e-02,
720,2.13e+00,-3.40e-02,
721,2.13e+00,-3.40e-02,
722,2.14e+00,-3.40e-02,
723,2.13e+00,-3.40e-02,
724,2.13e+00,-3.40e-02,
725,2.13e+00,-3.40e-02,
726,2.14e+00,-3.40e-02,
727,2.13e+00,-3.40e-02,
728,2.13e+00,-3.40e-02,
729,2.13e+00,-3.40e-02,
730,2.13e+00,-3.40e-02,
731,2.13e+00,-3.40e-02,
732,2.13e+00,-3.40e-02,
733,2.13e+00,-3.40e-02,
734,2.13e+00,-3.40e-02,
735,2.13e+00,-3.40e-02,
736,2.13e+00,-3.40e-02,
737,2.13e+00,-3.40e-02,
738,2.13e+00,-3.40e-02,
739,2.13e+00,-3.40e-02,
740,2.12e+00,-3.40e-02,
741,2.13e+00,-3.40e-02,
742,2.13e+00,-3.40e-02,
743,2.13e+00,-3.40e-02,
744,2.12e+00,-3.40e-02,
745,2.12e+00,-3.40e-02,
746,2.12e+00,-3.40e-02,
747,2.13e+00,-3.40e-02,
748,2.12e+00,-3.40e-02,
749,2.12e+00,-3.40e-02,
750,2.13e+00,-3.40e-02,
751,2.13e+00,-3.40e-02,
752,2.12e+00,-3.40e-02,
753,2.12e+00,-3.40e-02,
754,2.12e+00,-3.40e-02,
755,2.12e+00,-3.40e-02,
756,2.12e+00,-3.40e-02,
757,2.12e+00,-3.40e-02,
758,2.12e+00,-3.40e-02,
759,2.12e+00,-3.40e-02,
760,2.12e+00,-3.40e-02,
761,2.12e+00,-3.40e-02,
762,2.12e+00,-3.40e-02,
763,2.12e+00,-3.40e-02,
764,2.12e+00,-3.40e-02,
765,2.11e+00,-3.40e-02,
766,2.12e+00,-3.40e-02,
767,2.12e+00,-3.40e-02,
768,2.11e+00,-3.40e-02,
769,2.11e+00,-3.40e-02,
770,2.12e+00,-3.40e-02,
771,2.11e+00,-3.40e-02,
772,2.11e+00,-3.40e-02,
773,2.11e+00,-3.40e-02,
774,2.12e+00,-3.40e-02,
775,2.12e+00,-3.40e-02,
776,2.11e+00,-3.40e-02,
777,2.11e+00,-3.40e-02,
778,2.11e+00,-3.40e-02,
779,2.11e+00,-3.40e-02,
780,2.11e+00,-3.40e-02,
781,2.11e+00,-3.40e-02,
782,2.11e+00,-3.40e-02,
783,2.11e+00,-3.40e-02,
784,2.11e+00,-3.40e-02,
785,2.11e+00,-3.40e-02,
786,2.11e+00,-3.40e-02,
787,2.11e+00,-3.40e-02,
788,2.11e+00,-3.40e-02,
789,2.11e+00,-3.40e-02,
790,2.11e+00,-3.40e-02,
791,2.11e+00,-3.40e-02,
792,2.11e+00,-3.40e-02,
793,2.11e+00,-3.40e-02,
794,2.11e+00,-3.40e-02,
795,2.11e+00,-3.40e-02,
796,2.11e+00,-3.40e-02,
797,2.11e+00,-3.40e-02,
798,2.11e+00,-3.40e-02,
799,2.11e+00,-3.40e-02,
800,2.11e+00,-3.40e-02,
801,2.11e+00,-3.40e-02,
802,2.11e+00,-3.40e-02,
803,2.11e+00,-3.40e-02,
804,2.11e+00,-3.40e-02,
805,2.11e+00,-3.40e-02,
806,2.11e+00,-3.40e-02,
807,2.11e+00,-3.40e-02,
808,2.11e+00,-3.40e-02,
809,2.11e+00,-3.40e-02,
810,2.11e+00,-3.40e-02,
811,2.11e+00,-3.40e-02,
812,2.11e+00,-3.40e-02,
813,2.09e+00,-3.40e-02,
814,2.11e+00,-3.40e-02,
815,2.11e+00,-3.40e-02,
816,2.09e+00,-3.40e-02,
817,2.09e+00,-3.40e-02,
818,2.11e+00,-3.40e-02,
819,2.11e+00,-3.40e-02,
820,2.09e+00,-3.40e-02,
821,2.09e+00,-3.40e-02,
822,2.11e+00,-3.40e-02,
823,2.09e+00,-3.40e-02,
824,2.09e+00,-3.40e-02,
825,2.09e+00,-3.40e-02,
826,2.09e+00,-3.40e-02,
827,2.09e+00,-3.40e-02,
828,2.09e+00,-3.40e-02,
829,2.09e+00,-3.40e-02,
830,2.09e+00,-3.40e-02,
831,2.09e+00,-3.40e-02,
832,2.09e+00,-3.40e-02,
833,2.09e+00,-3.40e-02,
